%!PS-Adobe-3.0 EPSF-1.2
%%BoundingBox: 0 0 444 241
%%HiResBoundingBox: 0 0 444 241
%%Creator: (Wolfram Mathematica 10.0 for Linux x86 (64-bit) (December 4, 2014))
%%CreationDate: (Monday, November 9, 2015)(16:49:38)
%%Title: Clipboard
%%DocumentNeededResources: font MathematicaSans
%%+ font Arial
%%DocumentSuppliedResources:
%%DocumentNeededFonts: MathematicaSans
%%+ Arial
%%DocumentSuppliedFonts:
%%DocumentFonts: MathematicaSans
%%+ Arial
%%EndComments
/p{gsave}bind def
/P{grestore}bind def
/g{setgray}bind def
/r{setrgbcolor}bind def
/k{setcmykcolor}bind def
/w{setlinewidth}bind def
/np{newpath}bind def
/m{moveto}bind def
/Mr{rmoveto}bind def
/Mx{currentpoint exch pop moveto}bind def
/My{currentpoint pop exch moveto}bind def
/X{0 rmoveto}bind def
/Y{0 exch rmoveto}bind def
/N{currentpoint 3 -1 roll show moveto}bind def
/L{lineto}bind def
/rL{rlineto}bind def
/C{curveto}bind def
/cp{closepath}bind def
/F{eofill}bind def
/f{fill}bind def
/s{stroke}bind def
/S{show}bind def
/tri{p 9 6 roll r 6 4 roll m 4 2 roll L L cp F P}bind def
/Msf{findfont exch scalefont[1 0 0 -1 0 0]makefont setfont}bind def
1 -1 scale 0 -240.447 translate
-50 0 translate
[1 0 0 1 0 0 ]  concat
1 w
0 g
0 g
[ ] 0 setdash
2 setlinecap
0 setlinejoin
10 setmiterlimit
p
0.263 0.675 0.91 r
0 0 m
F
P
p
1 w
0 g
0 g
[ ] 0 setdash
2 setlinecap
0 setlinejoin
10 setmiterlimit
p
np 0 0 m
0 241 L
594 241 L
594 0 L
cp
clip np
P
p
np 50 8 m
50 232 L
494 232 L
494 8 L
cp
clip np
p
np 57 6 m
57 234 L
421 234 L
421 6 L
cp
clip np
p
np 59 7 m
59 232 L
419 232 L
419 7 L
cp
clip np
3.239 setmiterlimit
[1 0 0 1 59 120.447 ]  concat
1 w
[ ] 0 setdash
p
p
0.85 g
p
0.1 w
2 setlinejoin
np 2.791 -110.334 m
360 -110.334 L
360 110.433 L
2.791 110.433 L
cp
false upath dup ufill ustroke
P
P
P
[1 0 0 1 -59 -120.447 ]  concat
1 w
[ ] 0 setdash
[1 0 0 1 0 0 ]  concat
1 w
[ ] 0 setdash
p
np 60 9 m
60 232 L
420 232 L
420 9 L
cp
clip np
[1 0 0 1 0 0 ]  concat
1 w
[ ] 0 setdash
[1 0 0 1 0 0 ]  concat
1 w
[ ] 0 setdash
p
np 61 11 m
61 229 L
420 229 L
420 11 L
cp
clip np
p
np 80 26 m
80 229 L
407 229 L
407 26 L
cp
clip np
P
p
np 80 26 m
80 229 L
407 229 L
407 26 L
cp
clip np
P
p
np 80 26 m
80 229 L
407 229 L
407 26 L
cp
clip np
0 g
1.6 w
[ ] 0 setdash
3.25 setmiterlimit
87.315 161.202 m
87.411 161.347 L
87.507 161.481 L
87.699 161.739 L
88.082 162.234 L
88.849 163.177 L
90.384 164.965 L
93.452 168.317 L
100.106 174.951 L
106.319 180.568 L
112.409 185.621 L
119.016 190.639 L
125.182 194.911 L
131.865 199.112 L
138.425 202.816 L
144.545 205.904 L
151.18 208.858 L
157.375 211.252 L
157.47 211.286 L
157.565 211.32 L
157.755 211.388 L
158.134 211.522 L
158.894 211.786 L
160.412 212.298 L
163.448 213.261 L
163.551 213.293 L
163.654 213.324 L
163.86 213.386 L
164.272 213.508 L
165.096 213.749 L
166.743 214.213 L
166.846 214.241 L
166.949 214.269 L
167.155 214.325 L
167.567 214.435 L
168.39 214.652 L
170.037 215.067 L
170.134 215.09 L
170.23 215.113 L
170.422 215.16 L
170.806 215.252 L
171.575 215.432 L
173.112 215.776 L
173.208 215.797 L
173.304 215.818 L
173.496 215.859 L
173.88 215.941 L
174.649 216.1 L
176.186 216.402 L
176.29 216.422 L
176.394 216.442 L
176.602 216.481 L
177.019 216.557 L
177.852 216.706 L
179.518 216.986 L
179.622 217.003 L
179.726 217.019 L
179.935 217.052 L
180.351 217.117 L
181.184 217.241 L
182.85 217.472 L
182.953 217.485 L
183.055 217.499 L
183.259 217.525 L
183.668 217.576 L
184.486 217.675 L
184.588 217.687 L
184.69 217.698 L
184.895 217.722 L
185.304 217.767 L
186.122 217.854 L
186.224 217.864 L
186.326 217.875 L
186.531 217.895 L
186.939 217.935 L
187.757 218.01 L
187.86 218.019 L
187.962 218.028 L
188.166 218.045 L
188.575 218.079 L
189.393 218.142 L
189.488 218.149 L
189.584 218.156 L
189.774 218.17 L
190.156 218.196 L
190.918 218.244 L
191.014 218.25 L
191.109 218.256 L
191.3 218.267 L
191.681 218.288 L
192.444 218.326 L
192.539 218.331 L
192.635 218.335 L
192.825 218.344 L
193.207 218.36 L
193.302 218.363 L
193.397 218.367 L
193.588 218.374 L
193.969 218.388 L
194.065 218.391 L
194.16 218.394 L
194.351 218.4 L
194.446 218.403 L
194.541 218.406 L
194.732 218.411 L
194.827 218.413 L
194.923 218.416 L
195.113 218.421 L
195.495 218.429 L
195.598 218.431 L
195.702 218.433 L
195.908 218.437 L
196.012 218.438 L
196.115 218.44 L
196.322 218.443 L
196.425 218.444 L
196.529 218.445 L
196.632 218.447 L
196.736 218.448 L
196.839 218.449 L
196.942 218.449 L
197.046 218.45 L
197.149 218.451 L
197.253 218.451 L
197.356 218.452 L
197.459 218.452 L
197.563 218.453 L
197.666 218.453 L
197.77 218.453 L
197.873 218.453 L
197.976 218.453 L
198.08 218.453 L
198.183 218.452 L
198.287 218.452 L
198.39 218.451 L
198.493 218.451 L
198.597 218.45 L
198.7 218.45 L
198.804 218.449 L
198.907 218.448 L
199.011 218.447 L
199.114 218.446 L
199.217 218.444 L
199.321 218.443 L
199.424 218.442 L
199.631 218.439 L
199.734 218.437 L
199.838 218.435 L
200.045 218.432 L
200.148 218.429 L
200.251 218.427 L
200.458 218.423 L
200.562 218.42 L
200.665 218.418 L
200.872 218.413 L
201.285 218.401 L
201.389 218.398 L
201.492 218.395 L
201.699 218.388 L
202.113 218.373 L
202.209 218.369 L
202.306 218.366 L
202.499 218.358 L
202.885 218.342 L
202.981 218.337 L
203.078 218.333 L
203.271 218.324 L
203.657 218.305 L
203.753 218.3 L
203.85 218.295 L
204.043 218.285 L
204.429 218.263 L
205.201 218.217 L
205.298 218.21 L
205.394 218.204 L
205.587 218.191 L
205.973 218.164 L
206.745 218.107 L
208.29 217.977 L
208.394 217.968 L
208.499 217.958 L
208.708 217.938 L
209.126 217.898 L
209.963 217.813 L
211.636 217.624 L
211.741 217.612 L
211.846 217.599 L
212.055 217.573 L
212.473 217.521 L
213.31 217.412 L
214.983 217.175 L
215.086 217.159 L
215.188 217.144 L
215.394 217.113 L
215.804 217.049 L
216.626 216.918 L
218.269 216.639 L
218.371 216.62 L
218.474 216.602 L
218.679 216.565 L
219.09 216.49 L
219.912 216.336 L
221.554 216.009 L
221.65 215.99 L
221.746 215.97 L
221.938 215.93 L
222.321 215.849 L
223.087 215.684 L
224.62 215.338 L
227.685 214.586 L
227.789 214.559 L
227.893 214.532 L
228.1 214.478 L
228.516 214.368 L
229.347 214.144 L
231.008 213.679 L
234.332 212.676 L
234.429 212.646 L
234.526 212.615 L
234.72 212.553 L
235.107 212.429 L
235.883 212.176 L
237.435 211.654 L
240.538 210.549 L
246.622 208.142 L
253.222 205.17 L
259.381 202.057 L
266.057 198.314 L
272.61 194.264 L
278.723 190.152 L
285.352 185.326 L
291.54 180.477 L
297.606 175.398 L
304.189 169.523 L
310.33 163.698 L
316.988 157.006 L
323.205 150.401 L
329.3 143.589 L
335.911 135.819 L
342.081 128.207 L
348.768 119.558 L
355.332 110.655 L
361.456 101.974 L
368.096 92.139 L
374.295 82.544 L
380.372 72.728 L
386.965 61.575 L
393.118 50.614 L
393.225 50.417 L
393.333 50.22 L
393.547 49.825 L
393.976 49.032 L
394.835 47.435 L
396.552 44.187 L
396.659 43.981 L
396.767 43.775 L
396.981 43.361 L
397.411 42.53 L
398.269 40.844 L
398.376 40.631 L
398.484 40.417 L
398.698 39.987 L
399.128 39.117 L
399.235 38.896 L
399.342 38.675 L
399.557 38.227 L
399.664 38 L
399.771 37.77 L
399.879 37.536 L
399.986 37.289 L
s
[ 4 4 ] 0 setdash
87.406 338.802 m
87.411 327.478 L
87.507 310.443 L
87.603 300.533 L
87.699 293.539 L
87.795 288.143 L
87.89 283.756 L
87.986 280.066 L
88.082 276.886 L
88.178 274.096 L
88.274 271.612 L
88.37 269.376 L
88.466 267.346 L
88.562 265.487 L
88.658 263.775 L
88.849 260.713 L
88.945 259.333 L
89.041 258.038 L
89.233 255.67 L
89.329 254.582 L
89.425 253.549 L
89.617 251.632 L
89.713 250.739 L
89.808 249.886 L
90 248.286 L
90.384 245.445 L
90.48 244.799 L
90.576 244.175 L
90.767 242.99 L
91.151 240.838 L
91.247 240.34 L
91.343 239.857 L
91.535 238.931 L
91.918 237.226 L
92.014 236.827 L
92.11 236.438 L
92.302 235.69 L
92.685 234.297 L
92.781 233.969 L
92.877 233.648 L
93.069 233.028 L
93.452 231.866 L
93.556 231.568 L
93.66 231.276 L
93.868 230.712 L
94.284 229.655 L
94.388 229.405 L
94.492 229.159 L
94.7 228.683 L
95.116 227.787 L
95.22 227.573 L
95.324 227.364 L
95.532 226.957 L
95.948 226.189 L
96.779 224.811 L
96.883 224.652 L
96.987 224.496 L
97.195 224.192 L
97.611 223.614 L
97.715 223.475 L
97.819 223.339 L
98.027 223.074 L
98.443 222.569 L
98.547 222.447 L
98.651 222.328 L
98.858 222.095 L
99.274 221.652 L
100.106 220.845 L
100.203 220.758 L
100.3 220.671 L
100.494 220.502 L
100.883 220.179 L
101.659 219.586 L
101.756 219.516 L
101.853 219.448 L
102.047 219.314 L
102.436 219.057 L
103.212 218.586 L
103.309 218.531 L
103.406 218.477 L
103.601 218.371 L
103.989 218.167 L
104.086 218.118 L
104.183 218.07 L
104.377 217.975 L
104.765 217.795 L
104.863 217.751 L
104.96 217.708 L
105.154 217.624 L
105.542 217.464 L
106.319 217.171 L
106.414 217.137 L
106.509 217.104 L
106.699 217.04 L
107.08 216.917 L
107.175 216.887 L
107.27 216.858 L
107.461 216.801 L
107.841 216.693 L
107.936 216.667 L
108.032 216.641 L
108.222 216.591 L
108.603 216.496 L
109.364 216.325 L
109.459 216.305 L
109.554 216.286 L
109.745 216.248 L
110.125 216.177 L
110.22 216.16 L
110.316 216.143 L
110.506 216.111 L
110.887 216.05 L
110.982 216.035 L
111.077 216.021 L
111.267 215.994 L
111.648 215.942 L
111.743 215.93 L
111.838 215.918 L
112.029 215.895 L
112.409 215.853 L
112.513 215.842 L
112.616 215.831 L
112.822 215.811 L
112.926 215.802 L
113.029 215.792 L
113.235 215.774 L
113.338 215.766 L
113.442 215.758 L
113.648 215.742 L
114.061 215.714 L
114.164 215.708 L
114.268 215.702 L
114.474 215.69 L
114.577 215.685 L
114.68 215.68 L
114.887 215.67 L
114.99 215.666 L
115.093 215.661 L
115.197 215.658 L
115.3 215.654 L
115.403 215.65 L
115.506 215.647 L
115.713 215.641 L
115.816 215.639 L
115.919 215.636 L
116.023 215.634 L
116.126 215.632 L
116.229 215.63 L
116.332 215.629 L
116.435 215.627 L
116.539 215.626 L
116.642 215.625 L
116.745 215.625 L
116.848 215.624 L
116.952 215.624 L
117.055 215.623 L
117.158 215.623 L
117.261 215.624 L
117.365 215.624 L
117.468 215.625 L
117.571 215.625 L
117.674 215.626 L
117.778 215.627 L
117.881 215.629 L
117.984 215.63 L
118.087 215.632 L
118.19 215.634 L
118.294 215.636 L
118.397 215.638 L
118.5 215.64 L
118.603 215.643 L
118.707 215.645 L
118.81 215.648 L
119.016 215.654 L
119.113 215.657 L
119.209 215.66 L
119.402 215.667 L
119.498 215.671 L
119.594 215.674 L
119.787 215.682 L
119.883 215.686 L
119.98 215.69 L
120.172 215.699 L
120.558 215.718 L
120.654 215.723 L
120.751 215.728 L
120.943 215.739 L
121.329 215.762 L
122.099 215.812 L
122.196 215.819 L
122.292 215.826 L
122.485 215.84 L
122.87 215.869 L
123.641 215.931 L
125.182 216.072 L
125.287 216.082 L
125.391 216.092 L
125.6 216.113 L
126.018 216.156 L
126.853 216.245 L
128.524 216.435 L
131.865 216.856 L
138.425 217.769 L
144.545 218.641 L
151.18 219.529 L
151.277 219.541 L
151.374 219.553 L
151.568 219.577 L
151.955 219.626 L
152.729 219.721 L
154.278 219.906 L
157.375 220.253 L
157.47 220.263 L
157.565 220.273 L
157.755 220.293 L
158.134 220.333 L
158.894 220.411 L
160.412 220.56 L
160.507 220.569 L
160.602 220.578 L
160.791 220.596 L
161.171 220.631 L
161.93 220.7 L
163.448 220.83 L
163.551 220.839 L
163.654 220.847 L
163.86 220.864 L
164.272 220.897 L
165.096 220.961 L
166.743 221.079 L
166.846 221.086 L
166.949 221.093 L
167.155 221.107 L
167.567 221.134 L
168.39 221.185 L
170.037 221.279 L
170.134 221.284 L
170.23 221.289 L
170.422 221.299 L
170.806 221.318 L
171.575 221.354 L
171.671 221.358 L
171.767 221.363 L
171.959 221.371 L
172.343 221.387 L
173.112 221.418 L
173.208 221.421 L
173.304 221.425 L
173.496 221.432 L
173.88 221.445 L
173.976 221.448 L
174.072 221.451 L
174.264 221.458 L
174.649 221.469 L
174.745 221.472 L
174.841 221.475 L
175.033 221.481 L
175.417 221.491 L
175.513 221.493 L
175.609 221.496 L
175.802 221.5 L
176.186 221.509 L
176.29 221.511 L
176.394 221.514 L
176.602 221.518 L
176.706 221.52 L
176.811 221.522 L
177.019 221.526 L
177.123 221.527 L
177.227 221.529 L
177.435 221.532 L
177.852 221.538 L
177.956 221.54 L
178.06 221.541 L
178.268 221.543 L
178.373 221.544 L
178.477 221.545 L
178.685 221.547 L
178.789 221.548 L
178.893 221.549 L
178.997 221.55 L
179.102 221.55 L
179.206 221.551 L
179.31 221.552 L
179.414 221.552 L
179.518 221.553 L
179.622 221.553 L
179.726 221.553 L
179.83 221.554 L
179.935 221.554 L
180.039 221.554 L
180.143 221.554 L
180.247 221.554 L
180.351 221.554 L
180.455 221.554 L
180.559 221.554 L
180.664 221.554 L
180.768 221.554 L
180.872 221.553 L
180.976 221.553 L
181.08 221.552 L
181.184 221.552 L
181.288 221.551 L
181.392 221.551 L
181.497 221.55 L
181.601 221.549 L
181.705 221.549 L
181.809 221.548 L
182.017 221.546 L
182.121 221.545 L
182.226 221.544 L
182.434 221.541 L
182.538 221.54 L
182.642 221.539 L
182.85 221.536 L
182.953 221.535 L
183.055 221.533 L
183.259 221.53 L
183.361 221.528 L
183.464 221.526 L
183.668 221.523 L
183.77 221.521 L
183.873 221.519 L
184.077 221.515 L
184.486 221.506 L
184.588 221.503 L
184.69 221.501 L
184.895 221.496 L
185.304 221.485 L
186.122 221.46 L
186.224 221.457 L
186.326 221.453 L
186.531 221.446 L
186.939 221.431 L
187.757 221.399 L
187.86 221.395 L
187.962 221.39 L
188.166 221.381 L
188.575 221.363 L
189.393 221.323 L
189.488 221.318 L
189.584 221.313 L
189.774 221.303 L
190.156 221.282 L
190.918 221.238 L
191.014 221.232 L
191.109 221.226 L
191.3 221.214 L
191.681 221.19 L
192.444 221.139 L
192.539 221.132 L
192.635 221.125 L
192.825 221.112 L
193.207 221.084 L
193.969 221.026 L
195.495 220.9 L
195.598 220.891 L
195.702 220.881 L
195.908 220.863 L
196.322 220.825 L
197.149 220.747 L
198.804 220.577 L
198.907 220.566 L
199.011 220.555 L
199.217 220.532 L
199.631 220.486 L
200.458 220.391 L
202.113 220.187 L
202.209 220.175 L
202.306 220.163 L
202.499 220.138 L
202.885 220.087 L
203.657 219.983 L
205.201 219.763 L
205.298 219.749 L
205.394 219.734 L
205.587 219.706 L
205.973 219.647 L
206.745 219.528 L
208.29 219.279 L
208.394 219.261 L
208.499 219.244 L
208.708 219.208 L
209.126 219.137 L
209.963 218.991 L
211.636 218.686 L
214.983 218.022 L
215.086 218.001 L
215.188 217.979 L
215.394 217.936 L
215.804 217.848 L
216.626 217.67 L
218.269 217.301 L
221.554 216.51 L
227.685 214.846 L
234.332 212.765 L
240.538 210.559 L
246.622 208.151 L
253.222 205.263 L
259.381 202.309 L
266.057 198.828 L
272.61 195.129 L
278.723 191.432 L
285.352 187.156 L
291.54 182.919 L
297.606 178.541 L
304.189 173.549 L
310.33 168.674 L
316.988 163.165 L
323.205 157.828 L
329.3 152.433 L
335.911 146.429 L
342.081 140.718 L
348.768 134.468 L
355.332 128.35 L
361.456 122.765 L
368.096 117.024 L
368.193 116.944 L
368.29 116.864 L
368.483 116.705 L
368.871 116.388 L
369.646 115.762 L
371.195 114.54 L
371.292 114.465 L
371.389 114.39 L
371.583 114.241 L
371.97 113.946 L
372.745 113.365 L
374.295 112.245 L
374.39 112.178 L
374.485 112.112 L
374.675 111.98 L
375.055 111.719 L
375.814 111.21 L
377.333 110.248 L
377.428 110.19 L
377.523 110.133 L
377.713 110.02 L
378.093 109.798 L
378.853 109.372 L
378.948 109.32 L
379.043 109.269 L
379.233 109.168 L
379.612 108.971 L
380.372 108.598 L
380.475 108.55 L
380.578 108.502 L
380.784 108.408 L
381.196 108.228 L
381.299 108.185 L
381.402 108.142 L
381.608 108.058 L
382.02 107.898 L
382.123 107.86 L
382.226 107.822 L
382.433 107.749 L
382.845 107.612 L
382.948 107.579 L
383.051 107.547 L
383.257 107.487 L
383.669 107.374 L
383.772 107.349 L
383.875 107.323 L
384.081 107.276 L
384.184 107.254 L
384.287 107.232 L
384.493 107.192 L
384.596 107.173 L
384.699 107.156 L
384.802 107.139 L
384.905 107.124 L
385.008 107.109 L
385.111 107.095 L
385.214 107.083 L
385.317 107.071 L
385.42 107.061 L
385.523 107.052 L
385.626 107.044 L
385.729 107.037 L
385.832 107.031 L
385.935 107.026 L
386.038 107.022 L
386.141 107.02 L
386.244 107.019 L
386.347 107.019 L
386.45 107.021 L
386.553 107.024 L
386.656 107.028 L
386.759 107.033 L
386.862 107.04 L
386.965 107.048 L
387.062 107.057 L
387.158 107.067 L
387.254 107.078 L
387.35 107.091 L
387.446 107.105 L
387.542 107.12 L
387.735 107.155 L
387.831 107.174 L
387.927 107.195 L
388.023 107.217 L
388.119 107.241 L
388.215 107.266 L
388.311 107.293 L
388.504 107.351 L
388.6 107.383 L
388.696 107.416 L
388.888 107.487 L
388.984 107.525 L
389.08 107.565 L
389.273 107.651 L
389.369 107.696 L
389.465 107.743 L
389.657 107.844 L
390.042 108.069 L
390.138 108.131 L
390.234 108.195 L
390.426 108.329 L
390.522 108.4 L
390.619 108.473 L
390.811 108.627 L
390.907 108.708 L
391.003 108.791 L
391.195 108.966 L
391.58 109.35 L
391.676 109.454 L
391.772 109.561 L
391.964 109.784 L
392.349 110.272 L
392.445 110.403 L
392.541 110.538 L
392.733 110.82 L
393.118 111.435 L
393.225 111.62 L
393.333 111.81 L
393.547 112.21 L
393.655 112.421 L
393.762 112.637 L
393.976 113.093 L
394.084 113.332 L
394.191 113.579 L
394.406 114.098 L
394.835 115.247 L
394.942 115.559 L
395.05 115.882 L
395.264 116.563 L
395.372 116.923 L
395.479 117.295 L
395.693 118.081 L
395.801 118.497 L
395.908 118.929 L
396.123 119.844 L
396.552 121.909 L
396.659 122.481 L
396.767 123.079 L
396.981 124.358 L
397.089 125.044 L
397.196 125.763 L
397.411 127.312 L
397.518 128.15 L
397.625 129.033 L
397.732 129.968 L
397.84 130.958 L
397.947 132.009 L
398.054 133.129 L
398.269 135.606 L
398.376 136.984 L
398.484 138.471 L
398.591 140.085 L
398.698 141.845 L
398.806 143.776 L
398.913 145.913 L
399.02 148.297 L
399.128 150.989 L
399.235 154.069 L
399.342 157.659 L
399.449 161.946 L
399.557 167.243 L
399.664 174.137 L
399.771 183.946 L
399.879 200.881 L
399.94 338.802 L
s
P
0 g
0.5 w
[ ] 0 setdash
3.25 setmiterlimit
p
0 setlinecap
87.315 209.358 m
87.315 205.508 L
s
P
[1 0 0 1 0 0 ]  concat
0.5 w
[ ] 0 setdash
[1 0 0 1 81.059 212.358 ]  concat
0.5 w
[ ] 0 setdash
p
np -2.059 -2.358 m
-2.059 11.642 L
14.941 11.642 L
14.941 -2.358 L
cp
clip np
P
[1 0 0 1 -81.059 -212.358 ]  concat
0.5 w
[ ] 0 setdash
[1 0 0 1 0 0 ]  concat
0.5 w
[ ] 0 setdash
[ ] 0 setdash
p
0 setlinecap
102.949 209.358 m
102.949 207.048 L
s
P
p
0 setlinecap
118.582 209.358 m
118.582 207.048 L
s
P
p
0 setlinecap
134.216 209.358 m
134.216 207.048 L
s
P
p
0 setlinecap
149.849 209.358 m
149.849 205.508 L
s
P
[1 0 0 1 61.791 230.88 ]  concat
0.5 w
[ ] 0 setdash
p
p
0.85 g
p
0.1 w
2 setlinejoin
np 81.802 -18.522 m
94.315 -18.522 L
94.315 -9.522 L
81.802 -9.522 L
cp
false upath dup ufill ustroke
P
P
P
[1 0 0 1 -61.791 -230.88 ]  concat
0.5 w
[ ] 0 setdash
[1 0 0 1 0 0 ]  concat
0.5 w
[ ] 0 setdash
p
np 142 211 m
142 223 L
158 223 L
158 211 L
cp
clip np
p
1 w
0 g
0 g
[ ] 0 setdash
2 setlinecap
0 setlinejoin
10 setmiterlimit
[1 0 0 1 143.593 212.358 ]  concat
1 w
[ ] 0 setdash
p
np -2.593 -2.358 m
-2.593 11.642 L
15.407 11.642 L
15.407 -2.358 L
cp
clip np
%%IncludeResource: font Arial
%%IncludeFont: Arial
9 /Arial Msf
0 g
p
[1 0 0 1 -0.5 7.5 ]  concat
1 w
[ ] 0 setdash
0.422 -3.656 m
0.422 -4.531 0.513 -5.234 0.695 -5.766 C
0.878 -6.297 1.146 -6.708 1.5 -7 C
1.854 -7.292 2.302 -7.438 2.844 -7.438 C
3.24 -7.438 3.589 -7.357 3.891 -7.195 C
4.193 -7.034 4.44 -6.802 4.633 -6.5 C
4.826 -6.198 4.977 -5.831 5.086 -5.398 C
5.195 -4.966 5.25 -4.385 5.25 -3.656 C
5.25 -2.781 5.161 -2.078 4.984 -1.547 C
4.807 -1.016 4.542 -0.604 4.188 -0.312 C
3.833 -0.0208 3.385 0.125 2.844 0.125 C
2.125 0.125 1.562 -0.13 1.156 -0.641 C
0.667 -1.255 0.422 -2.26 0.422 -3.656 C
cp
1.359 -3.656 m
1.359 -2.438 1.503 -1.628 1.789 -1.227 C
2.076 -0.826 2.427 -0.625 2.844 -0.625 C
3.26 -0.625 3.612 -0.826 3.898 -1.227 C
4.185 -1.628 4.328 -2.438 4.328 -3.656 C
4.328 -4.875 4.185 -5.685 3.898 -6.086 C
3.612 -6.487 3.255 -6.688 2.828 -6.688 C
2.411 -6.688 2.078 -6.51 1.828 -6.156 C
1.516 -5.698 1.359 -4.865 1.359 -3.656 C
cp
F
[1 0 0 1 5.006 0 ]  concat
1 w
[ ] 0 setdash
0.938 0 m
0.938 -1.031 L
1.969 -1.031 L
1.969 0 L
0.938 0 L
cp
F
[1 0 0 1 2.501 0 ]  concat
1 w
[ ] 0 setdash
5.203 -0.875 m
5.203 0 L
0.312 0 L
0.302 -0.219 0.339 -0.427 0.422 -0.625 C
0.547 -0.958 0.745 -1.286 1.016 -1.609 C
1.286 -1.932 1.682 -2.307 2.203 -2.734 C
3.016 -3.401 3.562 -3.927 3.844 -4.312 C
4.125 -4.698 4.266 -5.062 4.266 -5.406 C
4.266 -5.76 4.135 -6.062 3.875 -6.312 C
3.615 -6.562 3.281 -6.688 2.875 -6.688 C
2.438 -6.688 2.086 -6.555 1.82 -6.289 C
1.555 -6.023 1.422 -5.661 1.422 -5.203 C
0.484 -5.297 L
0.547 -5.995 0.786 -6.526 1.203 -6.891 C
1.62 -7.255 2.182 -7.438 2.891 -7.438 C
3.599 -7.438 4.161 -7.24 4.578 -6.844 C
4.995 -6.448 5.203 -5.958 5.203 -5.375 C
5.203 -5.083 5.141 -4.794 5.016 -4.508 C
4.891 -4.221 4.688 -3.919 4.406 -3.602 C
4.125 -3.284 3.661 -2.849 3.016 -2.297 C
2.464 -1.839 2.112 -1.529 1.961 -1.367 C
1.81 -1.206 1.682 -1.042 1.578 -0.875 C
5.203 -0.875 L
cp
F
[1 0 0 1 5.006 0 ]  concat
1 w
[ ] 0 setdash
P
P
[1 0 0 1 -143.593 -212.358 ]  concat
1 w
[ ] 0 setdash
P
P
[1 0 0 1 0 0 ]  concat
0.5 w
[ ] 0 setdash
[ ] 0 setdash
p
0 setlinecap
165.483 209.358 m
165.483 207.048 L
s
P
p
0 setlinecap
181.116 209.358 m
181.116 207.048 L
s
P
p
0 setlinecap
196.75 209.358 m
196.75 207.048 L
s
P
p
0 setlinecap
212.383 209.358 m
212.383 205.508 L
s
P
[1 0 0 1 61.791 230.88 ]  concat
0.5 w
[ ] 0 setdash
p
p
0.85 g
p
0.1 w
2 setlinejoin
np 144.336 -18.522 m
156.849 -18.522 L
156.849 -9.522 L
144.336 -9.522 L
cp
false upath dup ufill ustroke
P
P
P
[1 0 0 1 -61.791 -230.88 ]  concat
0.5 w
[ ] 0 setdash
[1 0 0 1 0 0 ]  concat
0.5 w
[ ] 0 setdash
p
np 205 211 m
205 223 L
220 223 L
220 211 L
cp
clip np
p
1 w
0 g
0 g
[ ] 0 setdash
2 setlinecap
0 setlinejoin
10 setmiterlimit
[1 0 0 1 206.127 212.358 ]  concat
1 w
[ ] 0 setdash
p
np -2.127 -2.358 m
-2.127 11.642 L
14.873 11.642 L
14.873 -2.358 L
cp
clip np
%%IncludeResource: font Arial
%%IncludeFont: Arial
9 /Arial Msf
0 g
p
[1 0 0 1 -0.5 7.5 ]  concat
1 w
[ ] 0 setdash
0.422 -3.656 m
0.422 -4.531 0.513 -5.234 0.695 -5.766 C
0.878 -6.297 1.146 -6.708 1.5 -7 C
1.854 -7.292 2.302 -7.438 2.844 -7.438 C
3.24 -7.438 3.589 -7.357 3.891 -7.195 C
4.193 -7.034 4.44 -6.802 4.633 -6.5 C
4.826 -6.198 4.977 -5.831 5.086 -5.398 C
5.195 -4.966 5.25 -4.385 5.25 -3.656 C
5.25 -2.781 5.161 -2.078 4.984 -1.547 C
4.807 -1.016 4.542 -0.604 4.188 -0.312 C
3.833 -0.0208 3.385 0.125 2.844 0.125 C
2.125 0.125 1.562 -0.13 1.156 -0.641 C
0.667 -1.255 0.422 -2.26 0.422 -3.656 C
cp
1.359 -3.656 m
1.359 -2.438 1.503 -1.628 1.789 -1.227 C
2.076 -0.826 2.427 -0.625 2.844 -0.625 C
3.26 -0.625 3.612 -0.826 3.898 -1.227 C
4.185 -1.628 4.328 -2.438 4.328 -3.656 C
4.328 -4.875 4.185 -5.685 3.898 -6.086 C
3.612 -6.487 3.255 -6.688 2.828 -6.688 C
2.411 -6.688 2.078 -6.51 1.828 -6.156 C
1.516 -5.698 1.359 -4.865 1.359 -3.656 C
cp
F
[1 0 0 1 5.006 0 ]  concat
1 w
[ ] 0 setdash
0.938 0 m
0.938 -1.031 L
1.969 -1.031 L
1.969 0 L
0.938 0 L
cp
F
[1 0 0 1 2.501 0 ]  concat
1 w
[ ] 0 setdash
3.344 0 m
3.344 -1.766 L
0.125 -1.766 L
0.125 -2.609 L
3.516 -7.406 L
4.25 -7.406 L
4.25 -2.609 L
5.25 -2.609 L
5.25 -1.766 L
4.25 -1.766 L
4.25 0 L
3.344 0 L
cp
3.344 -2.609 m
3.344 -5.938 L
1.031 -2.609 L
3.344 -2.609 L
cp
F
[1 0 0 1 5.006 0 ]  concat
1 w
[ ] 0 setdash
P
P
[1 0 0 1 -206.127 -212.358 ]  concat
1 w
[ ] 0 setdash
P
P
[1 0 0 1 0 0 ]  concat
0.5 w
[ ] 0 setdash
[ ] 0 setdash
p
0 setlinecap
228.017 209.358 m
228.017 207.048 L
s
P
p
0 setlinecap
243.651 209.358 m
243.651 207.048 L
s
P
p
0 setlinecap
259.284 209.358 m
259.284 207.048 L
s
P
p
0 setlinecap
274.918 209.358 m
274.918 205.508 L
s
P
[1 0 0 1 61.791 230.88 ]  concat
0.5 w
[ ] 0 setdash
p
p
0.85 g
p
0.1 w
2 setlinejoin
np 206.871 -18.522 m
219.383 -18.522 L
219.383 -9.522 L
206.871 -9.522 L
cp
false upath dup ufill ustroke
P
P
P
[1 0 0 1 -61.791 -230.88 ]  concat
0.5 w
[ ] 0 setdash
[1 0 0 1 0 0 ]  concat
0.5 w
[ ] 0 setdash
p
np 267 211 m
267 223 L
283 223 L
283 211 L
cp
clip np
p
1 w
0 g
0 g
[ ] 0 setdash
2 setlinecap
0 setlinejoin
10 setmiterlimit
[1 0 0 1 268.661 212.358 ]  concat
1 w
[ ] 0 setdash
p
np -2.661 -2.358 m
-2.661 11.642 L
15.339 11.642 L
15.339 -2.358 L
cp
clip np
%%IncludeResource: font Arial
%%IncludeFont: Arial
9 /Arial Msf
0 g
p
[1 0 0 1 -0.5 7.5 ]  concat
1 w
[ ] 0 setdash
0.422 -3.656 m
0.422 -4.531 0.513 -5.234 0.695 -5.766 C
0.878 -6.297 1.146 -6.708 1.5 -7 C
1.854 -7.292 2.302 -7.438 2.844 -7.438 C
3.24 -7.438 3.589 -7.357 3.891 -7.195 C
4.193 -7.034 4.44 -6.802 4.633 -6.5 C
4.826 -6.198 4.977 -5.831 5.086 -5.398 C
5.195 -4.966 5.25 -4.385 5.25 -3.656 C
5.25 -2.781 5.161 -2.078 4.984 -1.547 C
4.807 -1.016 4.542 -0.604 4.188 -0.312 C
3.833 -0.0208 3.385 0.125 2.844 0.125 C
2.125 0.125 1.562 -0.13 1.156 -0.641 C
0.667 -1.255 0.422 -2.26 0.422 -3.656 C
cp
1.359 -3.656 m
1.359 -2.438 1.503 -1.628 1.789 -1.227 C
2.076 -0.826 2.427 -0.625 2.844 -0.625 C
3.26 -0.625 3.612 -0.826 3.898 -1.227 C
4.185 -1.628 4.328 -2.438 4.328 -3.656 C
4.328 -4.875 4.185 -5.685 3.898 -6.086 C
3.612 -6.487 3.255 -6.688 2.828 -6.688 C
2.411 -6.688 2.078 -6.51 1.828 -6.156 C
1.516 -5.698 1.359 -4.865 1.359 -3.656 C
cp
F
[1 0 0 1 5.006 0 ]  concat
1 w
[ ] 0 setdash
0.938 0 m
0.938 -1.031 L
1.969 -1.031 L
1.969 0 L
0.938 0 L
cp
F
[1 0 0 1 2.501 0 ]  concat
1 w
[ ] 0 setdash
5.141 -5.594 m
4.25 -5.516 L
4.167 -5.88 4.052 -6.141 3.906 -6.297 C
3.656 -6.557 3.349 -6.688 2.984 -6.688 C
2.703 -6.688 2.453 -6.604 2.234 -6.438 C
1.943 -6.229 1.714 -5.924 1.547 -5.523 C
1.38 -5.122 1.297 -4.552 1.297 -3.812 C
1.516 -4.146 1.784 -4.393 2.102 -4.555 C
2.419 -4.716 2.75 -4.797 3.094 -4.797 C
3.698 -4.797 4.214 -4.576 4.641 -4.133 C
5.068 -3.69 5.281 -3.115 5.281 -2.406 C
5.281 -1.938 5.18 -1.505 4.977 -1.109 C
4.773 -0.714 4.497 -0.409 4.148 -0.195 C
3.799 0.0182 3.401 0.125 2.953 0.125 C
2.203 0.125 1.589 -0.154 1.109 -0.711 C
0.63 -1.268 0.391 -2.188 0.391 -3.469 C
0.391 -4.896 0.656 -5.938 1.188 -6.594 C
1.646 -7.156 2.266 -7.438 3.047 -7.438 C
3.63 -7.438 4.107 -7.273 4.477 -6.945 C
4.846 -6.617 5.068 -6.167 5.141 -5.594 C
cp
1.438 -2.406 m
1.438 -2.083 1.503 -1.781 1.633 -1.5 C
1.763 -1.219 1.948 -1.003 2.188 -0.852 C
2.427 -0.701 2.677 -0.625 2.938 -0.625 C
3.323 -0.625 3.654 -0.779 3.93 -1.086 C
4.206 -1.393 4.344 -1.812 4.344 -2.344 C
4.344 -2.854 4.208 -3.258 3.938 -3.555 C
3.667 -3.852 3.323 -4 2.906 -4 C
2.5 -4 2.154 -3.852 1.867 -3.555 C
1.581 -3.258 1.438 -2.875 1.438 -2.406 C
cp
F
[1 0 0 1 5.006 0 ]  concat
1 w
[ ] 0 setdash
P
P
[1 0 0 1 -268.661 -212.358 ]  concat
1 w
[ ] 0 setdash
P
P
[1 0 0 1 0 0 ]  concat
0.5 w
[ ] 0 setdash
[ ] 0 setdash
p
0 setlinecap
290.551 209.358 m
290.551 207.048 L
s
P
p
0 setlinecap
306.185 209.358 m
306.185 207.048 L
s
P
p
0 setlinecap
321.818 209.358 m
321.818 207.048 L
s
P
p
0 setlinecap
337.452 209.358 m
337.452 205.508 L
s
P
[1 0 0 1 61.791 230.88 ]  concat
0.5 w
[ ] 0 setdash
p
p
0.85 g
p
0.1 w
2 setlinejoin
np 269.405 -18.522 m
281.917 -18.522 L
281.917 -9.522 L
269.405 -9.522 L
cp
false upath dup ufill ustroke
P
P
P
[1 0 0 1 -61.791 -230.88 ]  concat
0.5 w
[ ] 0 setdash
[1 0 0 1 0 0 ]  concat
0.5 w
[ ] 0 setdash
p
np 330 211 m
330 223 L
345 223 L
345 211 L
cp
clip np
p
1 w
0 g
0 g
[ ] 0 setdash
2 setlinecap
0 setlinejoin
10 setmiterlimit
[1 0 0 1 331.195 212.358 ]  concat
1 w
[ ] 0 setdash
p
np -2.195 -2.358 m
-2.195 11.642 L
14.805 11.642 L
14.805 -2.358 L
cp
clip np
%%IncludeResource: font Arial
%%IncludeFont: Arial
9 /Arial Msf
0 g
p
[1 0 0 1 -0.5 7.5 ]  concat
1 w
[ ] 0 setdash
0.422 -3.656 m
0.422 -4.531 0.513 -5.234 0.695 -5.766 C
0.878 -6.297 1.146 -6.708 1.5 -7 C
1.854 -7.292 2.302 -7.438 2.844 -7.438 C
3.24 -7.438 3.589 -7.357 3.891 -7.195 C
4.193 -7.034 4.44 -6.802 4.633 -6.5 C
4.826 -6.198 4.977 -5.831 5.086 -5.398 C
5.195 -4.966 5.25 -4.385 5.25 -3.656 C
5.25 -2.781 5.161 -2.078 4.984 -1.547 C
4.807 -1.016 4.542 -0.604 4.188 -0.312 C
3.833 -0.0208 3.385 0.125 2.844 0.125 C
2.125 0.125 1.562 -0.13 1.156 -0.641 C
0.667 -1.255 0.422 -2.26 0.422 -3.656 C
cp
1.359 -3.656 m
1.359 -2.438 1.503 -1.628 1.789 -1.227 C
2.076 -0.826 2.427 -0.625 2.844 -0.625 C
3.26 -0.625 3.612 -0.826 3.898 -1.227 C
4.185 -1.628 4.328 -2.438 4.328 -3.656 C
4.328 -4.875 4.185 -5.685 3.898 -6.086 C
3.612 -6.487 3.255 -6.688 2.828 -6.688 C
2.411 -6.688 2.078 -6.51 1.828 -6.156 C
1.516 -5.698 1.359 -4.865 1.359 -3.656 C
cp
F
[1 0 0 1 5.006 0 ]  concat
1 w
[ ] 0 setdash
0.938 0 m
0.938 -1.031 L
1.969 -1.031 L
1.969 0 L
0.938 0 L
cp
F
[1 0 0 1 2.501 0 ]  concat
1 w
[ ] 0 setdash
1.828 -4.016 m
1.453 -4.151 1.174 -4.346 0.992 -4.602 C
0.81 -4.857 0.719 -5.167 0.719 -5.531 C
0.719 -6.062 0.911 -6.513 1.297 -6.883 C
1.682 -7.253 2.198 -7.438 2.844 -7.438 C
3.49 -7.438 4.01 -7.25 4.406 -6.875 C
4.802 -6.5 5 -6.042 5 -5.5 C
5 -5.156 4.909 -4.857 4.727 -4.602 C
4.544 -4.346 4.271 -4.151 3.906 -4.016 C
4.365 -3.87 4.711 -3.63 4.945 -3.297 C
5.18 -2.964 5.297 -2.568 5.297 -2.109 C
5.297 -1.484 5.073 -0.956 4.625 -0.523 C
4.177 -0.0911 3.589 0.125 2.859 0.125 C
2.13 0.125 1.542 -0.0911 1.094 -0.523 C
0.646 -0.956 0.422 -1.495 0.422 -2.141 C
0.422 -2.62 0.544 -3.023 0.789 -3.352 C
1.034 -3.68 1.38 -3.901 1.828 -4.016 C
cp
1.641 -5.562 m
1.641 -5.208 1.755 -4.919 1.984 -4.695 C
2.214 -4.471 2.505 -4.359 2.859 -4.359 C
3.214 -4.359 3.503 -4.471 3.727 -4.695 C
3.951 -4.919 4.062 -5.188 4.062 -5.5 C
4.062 -5.833 3.948 -6.115 3.719 -6.344 C
3.49 -6.573 3.203 -6.688 2.859 -6.688 C
2.505 -6.688 2.214 -6.576 1.984 -6.352 C
1.755 -6.128 1.641 -5.865 1.641 -5.562 C
cp
1.359 -2.141 m
1.359 -1.88 1.419 -1.628 1.539 -1.383 C
1.659 -1.138 1.841 -0.951 2.086 -0.82 C
2.331 -0.69 2.594 -0.625 2.875 -0.625 C
3.302 -0.625 3.659 -0.763 3.945 -1.039 C
4.232 -1.315 4.375 -1.672 4.375 -2.109 C
4.375 -2.547 4.229 -2.909 3.938 -3.195 C
3.646 -3.482 3.281 -3.625 2.844 -3.625 C
2.417 -3.625 2.062 -3.482 1.781 -3.195 C
1.5 -2.909 1.359 -2.557 1.359 -2.141 C
cp
F
[1 0 0 1 5.006 0 ]  concat
1 w
[ ] 0 setdash
P
P
[1 0 0 1 -331.195 -212.358 ]  concat
1 w
[ ] 0 setdash
P
P
[1 0 0 1 0 0 ]  concat
0.5 w
[ ] 0 setdash
[ ] 0 setdash
p
0 setlinecap
353.085 209.358 m
353.085 207.048 L
s
P
p
0 setlinecap
368.719 209.358 m
368.719 207.048 L
s
P
p
0 setlinecap
384.352 209.358 m
384.352 207.048 L
s
P
p
0 setlinecap
399.986 209.358 m
399.986 205.508 L
s
P
[1 0 0 1 61.791 230.88 ]  concat
0.5 w
[ ] 0 setdash
p
p
0.85 g
p
0.1 w
2 setlinejoin
np 331.939 -18.522 m
344.452 -18.522 L
344.452 -9.522 L
331.939 -9.522 L
cp
false upath dup ufill ustroke
P
P
P
[1 0 0 1 -61.791 -230.88 ]  concat
0.5 w
[ ] 0 setdash
[1 0 0 1 0 0 ]  concat
0.5 w
[ ] 0 setdash
p
np 392 211 m
392 223 L
408 223 L
408 211 L
cp
clip np
p
1 w
0 g
0 g
[ ] 0 setdash
2 setlinecap
0 setlinejoin
10 setmiterlimit
[1 0 0 1 393.73 212.358 ]  concat
1 w
[ ] 0 setdash
p
np -2.73 -2.358 m
-2.73 11.642 L
15.27 11.642 L
15.27 -2.358 L
cp
clip np
%%IncludeResource: font Arial
%%IncludeFont: Arial
9 /Arial Msf
0 g
p
[1 0 0 1 -0.5 7.5 ]  concat
1 w
[ ] 0 setdash
3.859 0 m
2.938 0 L
2.938 -5.797 L
2.719 -5.589 2.432 -5.38 2.078 -5.172 C
1.724 -4.964 1.406 -4.807 1.125 -4.703 C
1.125 -5.578 L
1.635 -5.818 2.081 -6.107 2.461 -6.445 C
2.841 -6.784 3.109 -7.115 3.266 -7.438 C
3.859 -7.438 L
3.859 0 L
cp
F
[1 0 0 1 5.006 0 ]  concat
1 w
[ ] 0 setdash
0.938 0 m
0.938 -1.031 L
1.969 -1.031 L
1.969 0 L
0.938 0 L
cp
F
[1 0 0 1 2.501 0 ]  concat
1 w
[ ] 0 setdash
0.422 -3.656 m
0.422 -4.531 0.513 -5.234 0.695 -5.766 C
0.878 -6.297 1.146 -6.708 1.5 -7 C
1.854 -7.292 2.302 -7.438 2.844 -7.438 C
3.24 -7.438 3.589 -7.357 3.891 -7.195 C
4.193 -7.034 4.44 -6.802 4.633 -6.5 C
4.826 -6.198 4.977 -5.831 5.086 -5.398 C
5.195 -4.966 5.25 -4.385 5.25 -3.656 C
5.25 -2.781 5.161 -2.078 4.984 -1.547 C
4.807 -1.016 4.542 -0.604 4.188 -0.312 C
3.833 -0.0208 3.385 0.125 2.844 0.125 C
2.125 0.125 1.562 -0.13 1.156 -0.641 C
0.667 -1.255 0.422 -2.26 0.422 -3.656 C
cp
1.359 -3.656 m
1.359 -2.438 1.503 -1.628 1.789 -1.227 C
2.076 -0.826 2.427 -0.625 2.844 -0.625 C
3.26 -0.625 3.612 -0.826 3.898 -1.227 C
4.185 -1.628 4.328 -2.438 4.328 -3.656 C
4.328 -4.875 4.185 -5.685 3.898 -6.086 C
3.612 -6.487 3.255 -6.688 2.828 -6.688 C
2.411 -6.688 2.078 -6.51 1.828 -6.156 C
1.516 -5.698 1.359 -4.865 1.359 -3.656 C
cp
F
[1 0 0 1 5.006 0 ]  concat
1 w
[ ] 0 setdash
P
P
[1 0 0 1 -393.73 -212.358 ]  concat
1 w
[ ] 0 setdash
P
P
[1 0 0 1 0 0 ]  concat
0.5 w
[ ] 0 setdash
[ ] 0 setdash
p
0 setlinecap
80.801 209.358 m
406.5 209.358 L
s
P
[1 0 0 1 61.791 230.88 ]  concat
0.5 w
[ ] 0 setdash
p
p
0.85 g
p
0.1 w
2 setlinejoin
np 352.709 -26.022 m
357.209 -26.022 L
357.209 -17.022 L
352.709 -17.022 L
cp
false upath dup ufill ustroke
P
P
P
[1 0 0 1 -61.791 -230.88 ]  concat
0.5 w
[ ] 0 setdash
[1 0 0 1 0 0 ]  concat
0.5 w
[ ] 0 setdash
p
np 413 203 m
413 215 L
420 215 L
420 203 L
cp
clip np
p
1 w
0 g
0 g
[ ] 0 setdash
2 setlinecap
0 setlinejoin
10 setmiterlimit
[1 0 0 1 414.5 204.858 ]  concat
1 w
[ ] 0 setdash
p
np -2.5 -2.858 m
-2.5 11.142 L
6.5 11.142 L
6.5 -2.858 L
cp
clip np
%%IncludeResource: font Arial
%%IncludeFont: Arial
9 /Arial Msf
0 g
p
[1 0 0 1 -0.5 7.5 ]  concat
1 w
[ ] 0 setdash
0.0781 0 m
2.031 -2.781 L
0.219 -5.359 L
1.359 -5.359 L
2.188 -4.109 L
2.344 -3.87 2.469 -3.667 2.562 -3.5 C
2.708 -3.729 2.844 -3.927 2.969 -4.094 C
3.875 -5.359 L
4.953 -5.359 L
3.094 -2.844 L
5.094 0 L
3.984 0 L
2.875 -1.672 L
2.594 -2.109 L
1.172 0 L
0.0781 0 L
cp
F
[1 0 0 1 4.5 0 ]  concat
1 w
[ ] 0 setdash
P
P
[1 0 0 1 -414.5 -204.858 ]  concat
1 w
[ ] 0 setdash
P
P
[1 0 0 1 0 0 ]  concat
0.5 w
[ ] 0 setdash
[ ] 0 setdash
p
0 setlinecap
87.315 223.377 m
89.625 223.377 L
s
P
p
0 setlinecap
87.315 216.367 m
89.625 216.367 L
s
P
p
0 setlinecap
87.315 209.358 m
91.164 209.358 L
s
P
[1 0 0 1 0 0 ]  concat
0.5 w
[ ] 0 setdash
[1 0 0 1 61.791 204.858 ]  concat
0.5 w
[ ] 0 setdash
p
np -2.791 -2.858 m
-2.791 11.142 L
25.209 11.142 L
25.209 -2.858 L
cp
clip np
P
[1 0 0 1 -61.791 -204.858 ]  concat
0.5 w
[ ] 0 setdash
[1 0 0 1 0 0 ]  concat
0.5 w
[ ] 0 setdash
[ ] 0 setdash
p
0 setlinecap
87.315 202.348 m
89.625 202.348 L
s
P
p
0 setlinecap
87.315 195.338 m
89.625 195.338 L
s
P
p
0 setlinecap
87.315 188.329 m
89.625 188.329 L
s
P
p
0 setlinecap
87.315 181.319 m
91.164 181.319 L
s
P
[1 0 0 1 61.791 230.88 ]  concat
0.5 w
[ ] 0 setdash
p
p
0.85 g
p
0.1 w
2 setlinejoin
np -3.55e-15 -54.06 m
22.524 -54.06 L
22.524 -45.06 L
-3.55e-15 -45.06 L
cp
false upath dup ufill ustroke
P
P
P
[1 0 0 1 -61.791 -230.88 ]  concat
0.5 w
[ ] 0 setdash
[1 0 0 1 0 0 ]  concat
0.5 w
[ ] 0 setdash
p
np 60 175 m
60 187 L
86 187 L
86 175 L
cp
clip np
p
1 w
0 g
0 g
[ ] 0 setdash
2 setlinecap
0 setlinejoin
10 setmiterlimit
[1 0 0 1 61.791 176.819 ]  concat
1 w
[ ] 0 setdash
p
np -2.791 -2.819 m
-2.791 11.181 L
25.209 11.181 L
25.209 -2.819 L
cp
clip np
%%IncludeResource: font Arial
%%IncludeFont: Arial
9 /Arial Msf
0 g
p
[1 0 0 1 -0.5 7.5 ]  concat
1 w
[ ] 0 setdash
0.422 -3.656 m
0.422 -4.531 0.513 -5.234 0.695 -5.766 C
0.878 -6.297 1.146 -6.708 1.5 -7 C
1.854 -7.292 2.302 -7.438 2.844 -7.438 C
3.24 -7.438 3.589 -7.357 3.891 -7.195 C
4.193 -7.034 4.44 -6.802 4.633 -6.5 C
4.826 -6.198 4.977 -5.831 5.086 -5.398 C
5.195 -4.966 5.25 -4.385 5.25 -3.656 C
5.25 -2.781 5.161 -2.078 4.984 -1.547 C
4.807 -1.016 4.542 -0.604 4.188 -0.312 C
3.833 -0.0208 3.385 0.125 2.844 0.125 C
2.125 0.125 1.562 -0.13 1.156 -0.641 C
0.667 -1.255 0.422 -2.26 0.422 -3.656 C
cp
1.359 -3.656 m
1.359 -2.438 1.503 -1.628 1.789 -1.227 C
2.076 -0.826 2.427 -0.625 2.844 -0.625 C
3.26 -0.625 3.612 -0.826 3.898 -1.227 C
4.185 -1.628 4.328 -2.438 4.328 -3.656 C
4.328 -4.875 4.185 -5.685 3.898 -6.086 C
3.612 -6.487 3.255 -6.688 2.828 -6.688 C
2.411 -6.688 2.078 -6.51 1.828 -6.156 C
1.516 -5.698 1.359 -4.865 1.359 -3.656 C
cp
F
[1 0 0 1 5.006 0 ]  concat
1 w
[ ] 0 setdash
0.938 0 m
0.938 -1.031 L
1.969 -1.031 L
1.969 0 L
0.938 0 L
cp
F
[1 0 0 1 2.501 0 ]  concat
1 w
[ ] 0 setdash
0.422 -3.656 m
0.422 -4.531 0.513 -5.234 0.695 -5.766 C
0.878 -6.297 1.146 -6.708 1.5 -7 C
1.854 -7.292 2.302 -7.438 2.844 -7.438 C
3.24 -7.438 3.589 -7.357 3.891 -7.195 C
4.193 -7.034 4.44 -6.802 4.633 -6.5 C
4.826 -6.198 4.977 -5.831 5.086 -5.398 C
5.195 -4.966 5.25 -4.385 5.25 -3.656 C
5.25 -2.781 5.161 -2.078 4.984 -1.547 C
4.807 -1.016 4.542 -0.604 4.188 -0.312 C
3.833 -0.0208 3.385 0.125 2.844 0.125 C
2.125 0.125 1.562 -0.13 1.156 -0.641 C
0.667 -1.255 0.422 -2.26 0.422 -3.656 C
cp
1.359 -3.656 m
1.359 -2.438 1.503 -1.628 1.789 -1.227 C
2.076 -0.826 2.427 -0.625 2.844 -0.625 C
3.26 -0.625 3.612 -0.826 3.898 -1.227 C
4.185 -1.628 4.328 -2.438 4.328 -3.656 C
4.328 -4.875 4.185 -5.685 3.898 -6.086 C
3.612 -6.487 3.255 -6.688 2.828 -6.688 C
2.411 -6.688 2.078 -6.51 1.828 -6.156 C
1.516 -5.698 1.359 -4.865 1.359 -3.656 C
cp
F
[1 0 0 1 5.006 0 ]  concat
1 w
[ ] 0 setdash
0.422 -3.656 m
0.422 -4.531 0.513 -5.234 0.695 -5.766 C
0.878 -6.297 1.146 -6.708 1.5 -7 C
1.854 -7.292 2.302 -7.438 2.844 -7.438 C
3.24 -7.438 3.589 -7.357 3.891 -7.195 C
4.193 -7.034 4.44 -6.802 4.633 -6.5 C
4.826 -6.198 4.977 -5.831 5.086 -5.398 C
5.195 -4.966 5.25 -4.385 5.25 -3.656 C
5.25 -2.781 5.161 -2.078 4.984 -1.547 C
4.807 -1.016 4.542 -0.604 4.188 -0.312 C
3.833 -0.0208 3.385 0.125 2.844 0.125 C
2.125 0.125 1.562 -0.13 1.156 -0.641 C
0.667 -1.255 0.422 -2.26 0.422 -3.656 C
cp
1.359 -3.656 m
1.359 -2.438 1.503 -1.628 1.789 -1.227 C
2.076 -0.826 2.427 -0.625 2.844 -0.625 C
3.26 -0.625 3.612 -0.826 3.898 -1.227 C
4.185 -1.628 4.328 -2.438 4.328 -3.656 C
4.328 -4.875 4.185 -5.685 3.898 -6.086 C
3.612 -6.487 3.255 -6.688 2.828 -6.688 C
2.411 -6.688 2.078 -6.51 1.828 -6.156 C
1.516 -5.698 1.359 -4.865 1.359 -3.656 C
cp
F
[1 0 0 1 5.006 0 ]  concat
1 w
[ ] 0 setdash
5.203 -0.875 m
5.203 0 L
0.312 0 L
0.302 -0.219 0.339 -0.427 0.422 -0.625 C
0.547 -0.958 0.745 -1.286 1.016 -1.609 C
1.286 -1.932 1.682 -2.307 2.203 -2.734 C
3.016 -3.401 3.562 -3.927 3.844 -4.312 C
4.125 -4.698 4.266 -5.062 4.266 -5.406 C
4.266 -5.76 4.135 -6.062 3.875 -6.312 C
3.615 -6.562 3.281 -6.688 2.875 -6.688 C
2.438 -6.688 2.086 -6.555 1.82 -6.289 C
1.555 -6.023 1.422 -5.661 1.422 -5.203 C
0.484 -5.297 L
0.547 -5.995 0.786 -6.526 1.203 -6.891 C
1.62 -7.255 2.182 -7.438 2.891 -7.438 C
3.599 -7.438 4.161 -7.24 4.578 -6.844 C
4.995 -6.448 5.203 -5.958 5.203 -5.375 C
5.203 -5.083 5.141 -4.794 5.016 -4.508 C
4.891 -4.221 4.688 -3.919 4.406 -3.602 C
4.125 -3.284 3.661 -2.849 3.016 -2.297 C
2.464 -1.839 2.112 -1.529 1.961 -1.367 C
1.81 -1.206 1.682 -1.042 1.578 -0.875 C
5.203 -0.875 L
cp
F
[1 0 0 1 5.006 0 ]  concat
1 w
[ ] 0 setdash
P
P
[1 0 0 1 -61.791 -176.819 ]  concat
1 w
[ ] 0 setdash
P
P
[1 0 0 1 0 0 ]  concat
0.5 w
[ ] 0 setdash
[ ] 0 setdash
p
0 setlinecap
87.315 174.31 m
89.625 174.31 L
s
P
p
0 setlinecap
87.315 167.3 m
89.625 167.3 L
s
P
p
0 setlinecap
87.315 160.291 m
89.625 160.291 L
s
P
p
0 setlinecap
87.315 153.281 m
91.164 153.281 L
s
P
[1 0 0 1 61.791 230.88 ]  concat
0.5 w
[ ] 0 setdash
p
p
0.85 g
p
0.1 w
2 setlinejoin
np -3.55e-15 -82.099 m
22.524 -82.099 L
22.524 -73.099 L
-3.55e-15 -73.099 L
cp
false upath dup ufill ustroke
P
P
P
[1 0 0 1 -61.791 -230.88 ]  concat
0.5 w
[ ] 0 setdash
[1 0 0 1 0 0 ]  concat
0.5 w
[ ] 0 setdash
p
np 60 147 m
60 159 L
86 159 L
86 147 L
cp
clip np
p
1 w
0 g
0 g
[ ] 0 setdash
2 setlinecap
0 setlinejoin
10 setmiterlimit
[1 0 0 1 61.791 148.781 ]  concat
1 w
[ ] 0 setdash
p
np -2.791 -2.781 m
-2.791 11.219 L
25.209 11.219 L
25.209 -2.781 L
cp
clip np
%%IncludeResource: font Arial
%%IncludeFont: Arial
9 /Arial Msf
0 g
p
[1 0 0 1 -0.5 7.5 ]  concat
1 w
[ ] 0 setdash
0.422 -3.656 m
0.422 -4.531 0.513 -5.234 0.695 -5.766 C
0.878 -6.297 1.146 -6.708 1.5 -7 C
1.854 -7.292 2.302 -7.438 2.844 -7.438 C
3.24 -7.438 3.589 -7.357 3.891 -7.195 C
4.193 -7.034 4.44 -6.802 4.633 -6.5 C
4.826 -6.198 4.977 -5.831 5.086 -5.398 C
5.195 -4.966 5.25 -4.385 5.25 -3.656 C
5.25 -2.781 5.161 -2.078 4.984 -1.547 C
4.807 -1.016 4.542 -0.604 4.188 -0.312 C
3.833 -0.0208 3.385 0.125 2.844 0.125 C
2.125 0.125 1.562 -0.13 1.156 -0.641 C
0.667 -1.255 0.422 -2.26 0.422 -3.656 C
cp
1.359 -3.656 m
1.359 -2.438 1.503 -1.628 1.789 -1.227 C
2.076 -0.826 2.427 -0.625 2.844 -0.625 C
3.26 -0.625 3.612 -0.826 3.898 -1.227 C
4.185 -1.628 4.328 -2.438 4.328 -3.656 C
4.328 -4.875 4.185 -5.685 3.898 -6.086 C
3.612 -6.487 3.255 -6.688 2.828 -6.688 C
2.411 -6.688 2.078 -6.51 1.828 -6.156 C
1.516 -5.698 1.359 -4.865 1.359 -3.656 C
cp
F
[1 0 0 1 5.006 0 ]  concat
1 w
[ ] 0 setdash
0.938 0 m
0.938 -1.031 L
1.969 -1.031 L
1.969 0 L
0.938 0 L
cp
F
[1 0 0 1 2.501 0 ]  concat
1 w
[ ] 0 setdash
0.422 -3.656 m
0.422 -4.531 0.513 -5.234 0.695 -5.766 C
0.878 -6.297 1.146 -6.708 1.5 -7 C
1.854 -7.292 2.302 -7.438 2.844 -7.438 C
3.24 -7.438 3.589 -7.357 3.891 -7.195 C
4.193 -7.034 4.44 -6.802 4.633 -6.5 C
4.826 -6.198 4.977 -5.831 5.086 -5.398 C
5.195 -4.966 5.25 -4.385 5.25 -3.656 C
5.25 -2.781 5.161 -2.078 4.984 -1.547 C
4.807 -1.016 4.542 -0.604 4.188 -0.312 C
3.833 -0.0208 3.385 0.125 2.844 0.125 C
2.125 0.125 1.562 -0.13 1.156 -0.641 C
0.667 -1.255 0.422 -2.26 0.422 -3.656 C
cp
1.359 -3.656 m
1.359 -2.438 1.503 -1.628 1.789 -1.227 C
2.076 -0.826 2.427 -0.625 2.844 -0.625 C
3.26 -0.625 3.612 -0.826 3.898 -1.227 C
4.185 -1.628 4.328 -2.438 4.328 -3.656 C
4.328 -4.875 4.185 -5.685 3.898 -6.086 C
3.612 -6.487 3.255 -6.688 2.828 -6.688 C
2.411 -6.688 2.078 -6.51 1.828 -6.156 C
1.516 -5.698 1.359 -4.865 1.359 -3.656 C
cp
F
[1 0 0 1 5.006 0 ]  concat
1 w
[ ] 0 setdash
0.422 -3.656 m
0.422 -4.531 0.513 -5.234 0.695 -5.766 C
0.878 -6.297 1.146 -6.708 1.5 -7 C
1.854 -7.292 2.302 -7.438 2.844 -7.438 C
3.24 -7.438 3.589 -7.357 3.891 -7.195 C
4.193 -7.034 4.44 -6.802 4.633 -6.5 C
4.826 -6.198 4.977 -5.831 5.086 -5.398 C
5.195 -4.966 5.25 -4.385 5.25 -3.656 C
5.25 -2.781 5.161 -2.078 4.984 -1.547 C
4.807 -1.016 4.542 -0.604 4.188 -0.312 C
3.833 -0.0208 3.385 0.125 2.844 0.125 C
2.125 0.125 1.562 -0.13 1.156 -0.641 C
0.667 -1.255 0.422 -2.26 0.422 -3.656 C
cp
1.359 -3.656 m
1.359 -2.438 1.503 -1.628 1.789 -1.227 C
2.076 -0.826 2.427 -0.625 2.844 -0.625 C
3.26 -0.625 3.612 -0.826 3.898 -1.227 C
4.185 -1.628 4.328 -2.438 4.328 -3.656 C
4.328 -4.875 4.185 -5.685 3.898 -6.086 C
3.612 -6.487 3.255 -6.688 2.828 -6.688 C
2.411 -6.688 2.078 -6.51 1.828 -6.156 C
1.516 -5.698 1.359 -4.865 1.359 -3.656 C
cp
F
[1 0 0 1 5.006 0 ]  concat
1 w
[ ] 0 setdash
3.344 0 m
3.344 -1.766 L
0.125 -1.766 L
0.125 -2.609 L
3.516 -7.406 L
4.25 -7.406 L
4.25 -2.609 L
5.25 -2.609 L
5.25 -1.766 L
4.25 -1.766 L
4.25 0 L
3.344 0 L
cp
3.344 -2.609 m
3.344 -5.938 L
1.031 -2.609 L
3.344 -2.609 L
cp
F
[1 0 0 1 5.006 0 ]  concat
1 w
[ ] 0 setdash
P
P
[1 0 0 1 -61.791 -148.781 ]  concat
1 w
[ ] 0 setdash
P
P
[1 0 0 1 0 0 ]  concat
0.5 w
[ ] 0 setdash
[ ] 0 setdash
p
0 setlinecap
87.315 146.272 m
89.625 146.272 L
s
P
p
0 setlinecap
87.315 139.262 m
89.625 139.262 L
s
P
p
0 setlinecap
87.315 132.253 m
89.625 132.253 L
s
P
p
0 setlinecap
87.315 125.243 m
91.164 125.243 L
s
P
[1 0 0 1 61.791 230.88 ]  concat
0.5 w
[ ] 0 setdash
p
p
0.85 g
p
0.1 w
2 setlinejoin
np -3.55e-15 -110.137 m
22.524 -110.137 L
22.524 -101.137 L
-3.55e-15 -101.137 L
cp
false upath dup ufill ustroke
P
P
P
[1 0 0 1 -61.791 -230.88 ]  concat
0.5 w
[ ] 0 setdash
[1 0 0 1 0 0 ]  concat
0.5 w
[ ] 0 setdash
p
np 60 119 m
60 131 L
86 131 L
86 119 L
cp
clip np
p
1 w
0 g
0 g
[ ] 0 setdash
2 setlinecap
0 setlinejoin
10 setmiterlimit
[1 0 0 1 61.791 120.743 ]  concat
1 w
[ ] 0 setdash
p
np -2.791 -2.743 m
-2.791 11.257 L
25.209 11.257 L
25.209 -2.743 L
cp
clip np
%%IncludeResource: font Arial
%%IncludeFont: Arial
9 /Arial Msf
0 g
p
[1 0 0 1 -0.5 7.5 ]  concat
1 w
[ ] 0 setdash
0.422 -3.656 m
0.422 -4.531 0.513 -5.234 0.695 -5.766 C
0.878 -6.297 1.146 -6.708 1.5 -7 C
1.854 -7.292 2.302 -7.438 2.844 -7.438 C
3.24 -7.438 3.589 -7.357 3.891 -7.195 C
4.193 -7.034 4.44 -6.802 4.633 -6.5 C
4.826 -6.198 4.977 -5.831 5.086 -5.398 C
5.195 -4.966 5.25 -4.385 5.25 -3.656 C
5.25 -2.781 5.161 -2.078 4.984 -1.547 C
4.807 -1.016 4.542 -0.604 4.188 -0.312 C
3.833 -0.0208 3.385 0.125 2.844 0.125 C
2.125 0.125 1.562 -0.13 1.156 -0.641 C
0.667 -1.255 0.422 -2.26 0.422 -3.656 C
cp
1.359 -3.656 m
1.359 -2.438 1.503 -1.628 1.789 -1.227 C
2.076 -0.826 2.427 -0.625 2.844 -0.625 C
3.26 -0.625 3.612 -0.826 3.898 -1.227 C
4.185 -1.628 4.328 -2.438 4.328 -3.656 C
4.328 -4.875 4.185 -5.685 3.898 -6.086 C
3.612 -6.487 3.255 -6.688 2.828 -6.688 C
2.411 -6.688 2.078 -6.51 1.828 -6.156 C
1.516 -5.698 1.359 -4.865 1.359 -3.656 C
cp
F
[1 0 0 1 5.006 0 ]  concat
1 w
[ ] 0 setdash
0.938 0 m
0.938 -1.031 L
1.969 -1.031 L
1.969 0 L
0.938 0 L
cp
F
[1 0 0 1 2.501 0 ]  concat
1 w
[ ] 0 setdash
0.422 -3.656 m
0.422 -4.531 0.513 -5.234 0.695 -5.766 C
0.878 -6.297 1.146 -6.708 1.5 -7 C
1.854 -7.292 2.302 -7.438 2.844 -7.438 C
3.24 -7.438 3.589 -7.357 3.891 -7.195 C
4.193 -7.034 4.44 -6.802 4.633 -6.5 C
4.826 -6.198 4.977 -5.831 5.086 -5.398 C
5.195 -4.966 5.25 -4.385 5.25 -3.656 C
5.25 -2.781 5.161 -2.078 4.984 -1.547 C
4.807 -1.016 4.542 -0.604 4.188 -0.312 C
3.833 -0.0208 3.385 0.125 2.844 0.125 C
2.125 0.125 1.562 -0.13 1.156 -0.641 C
0.667 -1.255 0.422 -2.26 0.422 -3.656 C
cp
1.359 -3.656 m
1.359 -2.438 1.503 -1.628 1.789 -1.227 C
2.076 -0.826 2.427 -0.625 2.844 -0.625 C
3.26 -0.625 3.612 -0.826 3.898 -1.227 C
4.185 -1.628 4.328 -2.438 4.328 -3.656 C
4.328 -4.875 4.185 -5.685 3.898 -6.086 C
3.612 -6.487 3.255 -6.688 2.828 -6.688 C
2.411 -6.688 2.078 -6.51 1.828 -6.156 C
1.516 -5.698 1.359 -4.865 1.359 -3.656 C
cp
F
[1 0 0 1 5.006 0 ]  concat
1 w
[ ] 0 setdash
0.422 -3.656 m
0.422 -4.531 0.513 -5.234 0.695 -5.766 C
0.878 -6.297 1.146 -6.708 1.5 -7 C
1.854 -7.292 2.302 -7.438 2.844 -7.438 C
3.24 -7.438 3.589 -7.357 3.891 -7.195 C
4.193 -7.034 4.44 -6.802 4.633 -6.5 C
4.826 -6.198 4.977 -5.831 5.086 -5.398 C
5.195 -4.966 5.25 -4.385 5.25 -3.656 C
5.25 -2.781 5.161 -2.078 4.984 -1.547 C
4.807 -1.016 4.542 -0.604 4.188 -0.312 C
3.833 -0.0208 3.385 0.125 2.844 0.125 C
2.125 0.125 1.562 -0.13 1.156 -0.641 C
0.667 -1.255 0.422 -2.26 0.422 -3.656 C
cp
1.359 -3.656 m
1.359 -2.438 1.503 -1.628 1.789 -1.227 C
2.076 -0.826 2.427 -0.625 2.844 -0.625 C
3.26 -0.625 3.612 -0.826 3.898 -1.227 C
4.185 -1.628 4.328 -2.438 4.328 -3.656 C
4.328 -4.875 4.185 -5.685 3.898 -6.086 C
3.612 -6.487 3.255 -6.688 2.828 -6.688 C
2.411 -6.688 2.078 -6.51 1.828 -6.156 C
1.516 -5.698 1.359 -4.865 1.359 -3.656 C
cp
F
[1 0 0 1 5.006 0 ]  concat
1 w
[ ] 0 setdash
5.141 -5.594 m
4.25 -5.516 L
4.167 -5.88 4.052 -6.141 3.906 -6.297 C
3.656 -6.557 3.349 -6.688 2.984 -6.688 C
2.703 -6.688 2.453 -6.604 2.234 -6.438 C
1.943 -6.229 1.714 -5.924 1.547 -5.523 C
1.38 -5.122 1.297 -4.552 1.297 -3.812 C
1.516 -4.146 1.784 -4.393 2.102 -4.555 C
2.419 -4.716 2.75 -4.797 3.094 -4.797 C
3.698 -4.797 4.214 -4.576 4.641 -4.133 C
5.068 -3.69 5.281 -3.115 5.281 -2.406 C
5.281 -1.938 5.18 -1.505 4.977 -1.109 C
4.773 -0.714 4.497 -0.409 4.148 -0.195 C
3.799 0.0182 3.401 0.125 2.953 0.125 C
2.203 0.125 1.589 -0.154 1.109 -0.711 C
0.63 -1.268 0.391 -2.188 0.391 -3.469 C
0.391 -4.896 0.656 -5.938 1.188 -6.594 C
1.646 -7.156 2.266 -7.438 3.047 -7.438 C
3.63 -7.438 4.107 -7.273 4.477 -6.945 C
4.846 -6.617 5.068 -6.167 5.141 -5.594 C
cp
1.438 -2.406 m
1.438 -2.083 1.503 -1.781 1.633 -1.5 C
1.763 -1.219 1.948 -1.003 2.188 -0.852 C
2.427 -0.701 2.677 -0.625 2.938 -0.625 C
3.323 -0.625 3.654 -0.779 3.93 -1.086 C
4.206 -1.393 4.344 -1.812 4.344 -2.344 C
4.344 -2.854 4.208 -3.258 3.938 -3.555 C
3.667 -3.852 3.323 -4 2.906 -4 C
2.5 -4 2.154 -3.852 1.867 -3.555 C
1.581 -3.258 1.438 -2.875 1.438 -2.406 C
cp
F
[1 0 0 1 5.006 0 ]  concat
1 w
[ ] 0 setdash
P
P
[1 0 0 1 -61.791 -120.743 ]  concat
1 w
[ ] 0 setdash
P
P
[1 0 0 1 0 0 ]  concat
0.5 w
[ ] 0 setdash
[ ] 0 setdash
p
0 setlinecap
87.315 118.233 m
89.625 118.233 L
s
P
p
0 setlinecap
87.315 111.224 m
89.625 111.224 L
s
P
p
0 setlinecap
87.315 104.214 m
89.625 104.214 L
s
P
p
0 setlinecap
87.315 97.205 m
91.164 97.205 L
s
P
[1 0 0 1 61.791 230.88 ]  concat
0.5 w
[ ] 0 setdash
p
p
0.85 g
p
0.1 w
2 setlinejoin
np -3.55e-15 -138.175 m
22.524 -138.175 L
22.524 -129.175 L
-3.55e-15 -129.175 L
cp
false upath dup ufill ustroke
P
P
P
[1 0 0 1 -61.791 -230.88 ]  concat
0.5 w
[ ] 0 setdash
[1 0 0 1 0 0 ]  concat
0.5 w
[ ] 0 setdash
p
np 60 91 m
60 103 L
86 103 L
86 91 L
cp
clip np
p
1 w
0 g
0 g
[ ] 0 setdash
2 setlinecap
0 setlinejoin
10 setmiterlimit
[1 0 0 1 61.791 92.705 ]  concat
1 w
[ ] 0 setdash
p
np -2.791 -2.705 m
-2.791 11.295 L
25.209 11.295 L
25.209 -2.705 L
cp
clip np
%%IncludeResource: font Arial
%%IncludeFont: Arial
9 /Arial Msf
0 g
p
[1 0 0 1 -0.5 7.5 ]  concat
1 w
[ ] 0 setdash
0.422 -3.656 m
0.422 -4.531 0.513 -5.234 0.695 -5.766 C
0.878 -6.297 1.146 -6.708 1.5 -7 C
1.854 -7.292 2.302 -7.438 2.844 -7.438 C
3.24 -7.438 3.589 -7.357 3.891 -7.195 C
4.193 -7.034 4.44 -6.802 4.633 -6.5 C
4.826 -6.198 4.977 -5.831 5.086 -5.398 C
5.195 -4.966 5.25 -4.385 5.25 -3.656 C
5.25 -2.781 5.161 -2.078 4.984 -1.547 C
4.807 -1.016 4.542 -0.604 4.188 -0.312 C
3.833 -0.0208 3.385 0.125 2.844 0.125 C
2.125 0.125 1.562 -0.13 1.156 -0.641 C
0.667 -1.255 0.422 -2.26 0.422 -3.656 C
cp
1.359 -3.656 m
1.359 -2.438 1.503 -1.628 1.789 -1.227 C
2.076 -0.826 2.427 -0.625 2.844 -0.625 C
3.26 -0.625 3.612 -0.826 3.898 -1.227 C
4.185 -1.628 4.328 -2.438 4.328 -3.656 C
4.328 -4.875 4.185 -5.685 3.898 -6.086 C
3.612 -6.487 3.255 -6.688 2.828 -6.688 C
2.411 -6.688 2.078 -6.51 1.828 -6.156 C
1.516 -5.698 1.359 -4.865 1.359 -3.656 C
cp
F
[1 0 0 1 5.006 0 ]  concat
1 w
[ ] 0 setdash
0.938 0 m
0.938 -1.031 L
1.969 -1.031 L
1.969 0 L
0.938 0 L
cp
F
[1 0 0 1 2.501 0 ]  concat
1 w
[ ] 0 setdash
0.422 -3.656 m
0.422 -4.531 0.513 -5.234 0.695 -5.766 C
0.878 -6.297 1.146 -6.708 1.5 -7 C
1.854 -7.292 2.302 -7.438 2.844 -7.438 C
3.24 -7.438 3.589 -7.357 3.891 -7.195 C
4.193 -7.034 4.44 -6.802 4.633 -6.5 C
4.826 -6.198 4.977 -5.831 5.086 -5.398 C
5.195 -4.966 5.25 -4.385 5.25 -3.656 C
5.25 -2.781 5.161 -2.078 4.984 -1.547 C
4.807 -1.016 4.542 -0.604 4.188 -0.312 C
3.833 -0.0208 3.385 0.125 2.844 0.125 C
2.125 0.125 1.562 -0.13 1.156 -0.641 C
0.667 -1.255 0.422 -2.26 0.422 -3.656 C
cp
1.359 -3.656 m
1.359 -2.438 1.503 -1.628 1.789 -1.227 C
2.076 -0.826 2.427 -0.625 2.844 -0.625 C
3.26 -0.625 3.612 -0.826 3.898 -1.227 C
4.185 -1.628 4.328 -2.438 4.328 -3.656 C
4.328 -4.875 4.185 -5.685 3.898 -6.086 C
3.612 -6.487 3.255 -6.688 2.828 -6.688 C
2.411 -6.688 2.078 -6.51 1.828 -6.156 C
1.516 -5.698 1.359 -4.865 1.359 -3.656 C
cp
F
[1 0 0 1 5.006 0 ]  concat
1 w
[ ] 0 setdash
0.422 -3.656 m
0.422 -4.531 0.513 -5.234 0.695 -5.766 C
0.878 -6.297 1.146 -6.708 1.5 -7 C
1.854 -7.292 2.302 -7.438 2.844 -7.438 C
3.24 -7.438 3.589 -7.357 3.891 -7.195 C
4.193 -7.034 4.44 -6.802 4.633 -6.5 C
4.826 -6.198 4.977 -5.831 5.086 -5.398 C
5.195 -4.966 5.25 -4.385 5.25 -3.656 C
5.25 -2.781 5.161 -2.078 4.984 -1.547 C
4.807 -1.016 4.542 -0.604 4.188 -0.312 C
3.833 -0.0208 3.385 0.125 2.844 0.125 C
2.125 0.125 1.562 -0.13 1.156 -0.641 C
0.667 -1.255 0.422 -2.26 0.422 -3.656 C
cp
1.359 -3.656 m
1.359 -2.438 1.503 -1.628 1.789 -1.227 C
2.076 -0.826 2.427 -0.625 2.844 -0.625 C
3.26 -0.625 3.612 -0.826 3.898 -1.227 C
4.185 -1.628 4.328 -2.438 4.328 -3.656 C
4.328 -4.875 4.185 -5.685 3.898 -6.086 C
3.612 -6.487 3.255 -6.688 2.828 -6.688 C
2.411 -6.688 2.078 -6.51 1.828 -6.156 C
1.516 -5.698 1.359 -4.865 1.359 -3.656 C
cp
F
[1 0 0 1 5.006 0 ]  concat
1 w
[ ] 0 setdash
1.828 -4.016 m
1.453 -4.151 1.174 -4.346 0.992 -4.602 C
0.81 -4.857 0.719 -5.167 0.719 -5.531 C
0.719 -6.062 0.911 -6.513 1.297 -6.883 C
1.682 -7.253 2.198 -7.438 2.844 -7.438 C
3.49 -7.438 4.01 -7.25 4.406 -6.875 C
4.802 -6.5 5 -6.042 5 -5.5 C
5 -5.156 4.909 -4.857 4.727 -4.602 C
4.544 -4.346 4.271 -4.151 3.906 -4.016 C
4.365 -3.87 4.711 -3.63 4.945 -3.297 C
5.18 -2.964 5.297 -2.568 5.297 -2.109 C
5.297 -1.484 5.073 -0.956 4.625 -0.523 C
4.177 -0.0911 3.589 0.125 2.859 0.125 C
2.13 0.125 1.542 -0.0911 1.094 -0.523 C
0.646 -0.956 0.422 -1.495 0.422 -2.141 C
0.422 -2.62 0.544 -3.023 0.789 -3.352 C
1.034 -3.68 1.38 -3.901 1.828 -4.016 C
cp
1.641 -5.562 m
1.641 -5.208 1.755 -4.919 1.984 -4.695 C
2.214 -4.471 2.505 -4.359 2.859 -4.359 C
3.214 -4.359 3.503 -4.471 3.727 -4.695 C
3.951 -4.919 4.062 -5.188 4.062 -5.5 C
4.062 -5.833 3.948 -6.115 3.719 -6.344 C
3.49 -6.573 3.203 -6.688 2.859 -6.688 C
2.505 -6.688 2.214 -6.576 1.984 -6.352 C
1.755 -6.128 1.641 -5.865 1.641 -5.562 C
cp
1.359 -2.141 m
1.359 -1.88 1.419 -1.628 1.539 -1.383 C
1.659 -1.138 1.841 -0.951 2.086 -0.82 C
2.331 -0.69 2.594 -0.625 2.875 -0.625 C
3.302 -0.625 3.659 -0.763 3.945 -1.039 C
4.232 -1.315 4.375 -1.672 4.375 -2.109 C
4.375 -2.547 4.229 -2.909 3.938 -3.195 C
3.646 -3.482 3.281 -3.625 2.844 -3.625 C
2.417 -3.625 2.062 -3.482 1.781 -3.195 C
1.5 -2.909 1.359 -2.557 1.359 -2.141 C
cp
F
[1 0 0 1 5.006 0 ]  concat
1 w
[ ] 0 setdash
P
P
[1 0 0 1 -61.791 -92.705 ]  concat
1 w
[ ] 0 setdash
P
P
[1 0 0 1 0 0 ]  concat
0.5 w
[ ] 0 setdash
[ ] 0 setdash
p
0 setlinecap
87.315 90.195 m
89.625 90.195 L
s
P
p
0 setlinecap
87.315 83.186 m
89.625 83.186 L
s
P
p
0 setlinecap
87.315 76.176 m
89.625 76.176 L
s
P
p
0 setlinecap
87.315 69.167 m
91.164 69.167 L
s
P
[1 0 0 1 61.791 230.88 ]  concat
0.5 w
[ ] 0 setdash
p
p
0.85 g
p
0.1 w
2 setlinejoin
np -3.55e-15 -166.213 m
22.524 -166.213 L
22.524 -157.213 L
-3.55e-15 -157.213 L
cp
false upath dup ufill ustroke
P
P
P
[1 0 0 1 -61.791 -230.88 ]  concat
0.5 w
[ ] 0 setdash
[1 0 0 1 0 0 ]  concat
0.5 w
[ ] 0 setdash
p
np 60 63 m
60 75 L
86 75 L
86 63 L
cp
clip np
p
1 w
0 g
0 g
[ ] 0 setdash
2 setlinecap
0 setlinejoin
10 setmiterlimit
[1 0 0 1 61.791 64.667 ]  concat
1 w
[ ] 0 setdash
p
np -2.791 -2.667 m
-2.791 11.333 L
25.209 11.333 L
25.209 -2.667 L
cp
clip np
%%IncludeResource: font Arial
%%IncludeFont: Arial
9 /Arial Msf
0 g
p
[1 0 0 1 -0.5 7.5 ]  concat
1 w
[ ] 0 setdash
0.422 -3.656 m
0.422 -4.531 0.513 -5.234 0.695 -5.766 C
0.878 -6.297 1.146 -6.708 1.5 -7 C
1.854 -7.292 2.302 -7.438 2.844 -7.438 C
3.24 -7.438 3.589 -7.357 3.891 -7.195 C
4.193 -7.034 4.44 -6.802 4.633 -6.5 C
4.826 -6.198 4.977 -5.831 5.086 -5.398 C
5.195 -4.966 5.25 -4.385 5.25 -3.656 C
5.25 -2.781 5.161 -2.078 4.984 -1.547 C
4.807 -1.016 4.542 -0.604 4.188 -0.312 C
3.833 -0.0208 3.385 0.125 2.844 0.125 C
2.125 0.125 1.562 -0.13 1.156 -0.641 C
0.667 -1.255 0.422 -2.26 0.422 -3.656 C
cp
1.359 -3.656 m
1.359 -2.438 1.503 -1.628 1.789 -1.227 C
2.076 -0.826 2.427 -0.625 2.844 -0.625 C
3.26 -0.625 3.612 -0.826 3.898 -1.227 C
4.185 -1.628 4.328 -2.438 4.328 -3.656 C
4.328 -4.875 4.185 -5.685 3.898 -6.086 C
3.612 -6.487 3.255 -6.688 2.828 -6.688 C
2.411 -6.688 2.078 -6.51 1.828 -6.156 C
1.516 -5.698 1.359 -4.865 1.359 -3.656 C
cp
F
[1 0 0 1 5.006 0 ]  concat
1 w
[ ] 0 setdash
0.938 0 m
0.938 -1.031 L
1.969 -1.031 L
1.969 0 L
0.938 0 L
cp
F
[1 0 0 1 2.501 0 ]  concat
1 w
[ ] 0 setdash
0.422 -3.656 m
0.422 -4.531 0.513 -5.234 0.695 -5.766 C
0.878 -6.297 1.146 -6.708 1.5 -7 C
1.854 -7.292 2.302 -7.438 2.844 -7.438 C
3.24 -7.438 3.589 -7.357 3.891 -7.195 C
4.193 -7.034 4.44 -6.802 4.633 -6.5 C
4.826 -6.198 4.977 -5.831 5.086 -5.398 C
5.195 -4.966 5.25 -4.385 5.25 -3.656 C
5.25 -2.781 5.161 -2.078 4.984 -1.547 C
4.807 -1.016 4.542 -0.604 4.188 -0.312 C
3.833 -0.0208 3.385 0.125 2.844 0.125 C
2.125 0.125 1.562 -0.13 1.156 -0.641 C
0.667 -1.255 0.422 -2.26 0.422 -3.656 C
cp
1.359 -3.656 m
1.359 -2.438 1.503 -1.628 1.789 -1.227 C
2.076 -0.826 2.427 -0.625 2.844 -0.625 C
3.26 -0.625 3.612 -0.826 3.898 -1.227 C
4.185 -1.628 4.328 -2.438 4.328 -3.656 C
4.328 -4.875 4.185 -5.685 3.898 -6.086 C
3.612 -6.487 3.255 -6.688 2.828 -6.688 C
2.411 -6.688 2.078 -6.51 1.828 -6.156 C
1.516 -5.698 1.359 -4.865 1.359 -3.656 C
cp
F
[1 0 0 1 5.006 0 ]  concat
1 w
[ ] 0 setdash
3.859 0 m
2.938 0 L
2.938 -5.797 L
2.719 -5.589 2.432 -5.38 2.078 -5.172 C
1.724 -4.964 1.406 -4.807 1.125 -4.703 C
1.125 -5.578 L
1.635 -5.818 2.081 -6.107 2.461 -6.445 C
2.841 -6.784 3.109 -7.115 3.266 -7.438 C
3.859 -7.438 L
3.859 0 L
cp
F
[1 0 0 1 5.006 0 ]  concat
1 w
[ ] 0 setdash
0.422 -3.656 m
0.422 -4.531 0.513 -5.234 0.695 -5.766 C
0.878 -6.297 1.146 -6.708 1.5 -7 C
1.854 -7.292 2.302 -7.438 2.844 -7.438 C
3.24 -7.438 3.589 -7.357 3.891 -7.195 C
4.193 -7.034 4.44 -6.802 4.633 -6.5 C
4.826 -6.198 4.977 -5.831 5.086 -5.398 C
5.195 -4.966 5.25 -4.385 5.25 -3.656 C
5.25 -2.781 5.161 -2.078 4.984 -1.547 C
4.807 -1.016 4.542 -0.604 4.188 -0.312 C
3.833 -0.0208 3.385 0.125 2.844 0.125 C
2.125 0.125 1.562 -0.13 1.156 -0.641 C
0.667 -1.255 0.422 -2.26 0.422 -3.656 C
cp
1.359 -3.656 m
1.359 -2.438 1.503 -1.628 1.789 -1.227 C
2.076 -0.826 2.427 -0.625 2.844 -0.625 C
3.26 -0.625 3.612 -0.826 3.898 -1.227 C
4.185 -1.628 4.328 -2.438 4.328 -3.656 C
4.328 -4.875 4.185 -5.685 3.898 -6.086 C
3.612 -6.487 3.255 -6.688 2.828 -6.688 C
2.411 -6.688 2.078 -6.51 1.828 -6.156 C
1.516 -5.698 1.359 -4.865 1.359 -3.656 C
cp
F
[1 0 0 1 5.006 0 ]  concat
1 w
[ ] 0 setdash
P
P
[1 0 0 1 -61.791 -64.667 ]  concat
1 w
[ ] 0 setdash
P
P
[1 0 0 1 0 0 ]  concat
0.5 w
[ ] 0 setdash
[ ] 0 setdash
p
0 setlinecap
87.315 62.157 m
89.625 62.157 L
s
P
p
0 setlinecap
87.315 55.148 m
89.625 55.148 L
s
P
p
0 setlinecap
87.315 48.138 m
89.625 48.138 L
s
P
p
0 setlinecap
87.315 41.129 m
91.164 41.129 L
s
P
[1 0 0 1 61.791 230.88 ]  concat
0.5 w
[ ] 0 setdash
p
p
0.85 g
p
0.1 w
2 setlinejoin
np -3.55e-15 -194.251 m
22.524 -194.251 L
22.524 -185.251 L
-3.55e-15 -185.251 L
cp
false upath dup ufill ustroke
P
P
P
[1 0 0 1 -61.791 -230.88 ]  concat
0.5 w
[ ] 0 setdash
[1 0 0 1 0 0 ]  concat
0.5 w
[ ] 0 setdash
p
np 60 35 m
60 47 L
86 47 L
86 35 L
cp
clip np
p
1 w
0 g
0 g
[ ] 0 setdash
2 setlinecap
0 setlinejoin
10 setmiterlimit
[1 0 0 1 61.791 36.629 ]  concat
1 w
[ ] 0 setdash
p
np -2.791 -2.629 m
-2.791 11.371 L
25.209 11.371 L
25.209 -2.629 L
cp
clip np
%%IncludeResource: font Arial
%%IncludeFont: Arial
9 /Arial Msf
0 g
p
[1 0 0 1 -0.5 7.5 ]  concat
1 w
[ ] 0 setdash
0.422 -3.656 m
0.422 -4.531 0.513 -5.234 0.695 -5.766 C
0.878 -6.297 1.146 -6.708 1.5 -7 C
1.854 -7.292 2.302 -7.438 2.844 -7.438 C
3.24 -7.438 3.589 -7.357 3.891 -7.195 C
4.193 -7.034 4.44 -6.802 4.633 -6.5 C
4.826 -6.198 4.977 -5.831 5.086 -5.398 C
5.195 -4.966 5.25 -4.385 5.25 -3.656 C
5.25 -2.781 5.161 -2.078 4.984 -1.547 C
4.807 -1.016 4.542 -0.604 4.188 -0.312 C
3.833 -0.0208 3.385 0.125 2.844 0.125 C
2.125 0.125 1.562 -0.13 1.156 -0.641 C
0.667 -1.255 0.422 -2.26 0.422 -3.656 C
cp
1.359 -3.656 m
1.359 -2.438 1.503 -1.628 1.789 -1.227 C
2.076 -0.826 2.427 -0.625 2.844 -0.625 C
3.26 -0.625 3.612 -0.826 3.898 -1.227 C
4.185 -1.628 4.328 -2.438 4.328 -3.656 C
4.328 -4.875 4.185 -5.685 3.898 -6.086 C
3.612 -6.487 3.255 -6.688 2.828 -6.688 C
2.411 -6.688 2.078 -6.51 1.828 -6.156 C
1.516 -5.698 1.359 -4.865 1.359 -3.656 C
cp
F
[1 0 0 1 5.006 0 ]  concat
1 w
[ ] 0 setdash
0.938 0 m
0.938 -1.031 L
1.969 -1.031 L
1.969 0 L
0.938 0 L
cp
F
[1 0 0 1 2.501 0 ]  concat
1 w
[ ] 0 setdash
0.422 -3.656 m
0.422 -4.531 0.513 -5.234 0.695 -5.766 C
0.878 -6.297 1.146 -6.708 1.5 -7 C
1.854 -7.292 2.302 -7.438 2.844 -7.438 C
3.24 -7.438 3.589 -7.357 3.891 -7.195 C
4.193 -7.034 4.44 -6.802 4.633 -6.5 C
4.826 -6.198 4.977 -5.831 5.086 -5.398 C
5.195 -4.966 5.25 -4.385 5.25 -3.656 C
5.25 -2.781 5.161 -2.078 4.984 -1.547 C
4.807 -1.016 4.542 -0.604 4.188 -0.312 C
3.833 -0.0208 3.385 0.125 2.844 0.125 C
2.125 0.125 1.562 -0.13 1.156 -0.641 C
0.667 -1.255 0.422 -2.26 0.422 -3.656 C
cp
1.359 -3.656 m
1.359 -2.438 1.503 -1.628 1.789 -1.227 C
2.076 -0.826 2.427 -0.625 2.844 -0.625 C
3.26 -0.625 3.612 -0.826 3.898 -1.227 C
4.185 -1.628 4.328 -2.438 4.328 -3.656 C
4.328 -4.875 4.185 -5.685 3.898 -6.086 C
3.612 -6.487 3.255 -6.688 2.828 -6.688 C
2.411 -6.688 2.078 -6.51 1.828 -6.156 C
1.516 -5.698 1.359 -4.865 1.359 -3.656 C
cp
F
[1 0 0 1 5.006 0 ]  concat
1 w
[ ] 0 setdash
3.859 0 m
2.938 0 L
2.938 -5.797 L
2.719 -5.589 2.432 -5.38 2.078 -5.172 C
1.724 -4.964 1.406 -4.807 1.125 -4.703 C
1.125 -5.578 L
1.635 -5.818 2.081 -6.107 2.461 -6.445 C
2.841 -6.784 3.109 -7.115 3.266 -7.438 C
3.859 -7.438 L
3.859 0 L
cp
F
[1 0 0 1 5.006 0 ]  concat
1 w
[ ] 0 setdash
5.203 -0.875 m
5.203 0 L
0.312 0 L
0.302 -0.219 0.339 -0.427 0.422 -0.625 C
0.547 -0.958 0.745 -1.286 1.016 -1.609 C
1.286 -1.932 1.682 -2.307 2.203 -2.734 C
3.016 -3.401 3.562 -3.927 3.844 -4.312 C
4.125 -4.698 4.266 -5.062 4.266 -5.406 C
4.266 -5.76 4.135 -6.062 3.875 -6.312 C
3.615 -6.562 3.281 -6.688 2.875 -6.688 C
2.438 -6.688 2.086 -6.555 1.82 -6.289 C
1.555 -6.023 1.422 -5.661 1.422 -5.203 C
0.484 -5.297 L
0.547 -5.995 0.786 -6.526 1.203 -6.891 C
1.62 -7.255 2.182 -7.438 2.891 -7.438 C
3.599 -7.438 4.161 -7.24 4.578 -6.844 C
4.995 -6.448 5.203 -5.958 5.203 -5.375 C
5.203 -5.083 5.141 -4.794 5.016 -4.508 C
4.891 -4.221 4.688 -3.919 4.406 -3.602 C
4.125 -3.284 3.661 -2.849 3.016 -2.297 C
2.464 -1.839 2.112 -1.529 1.961 -1.367 C
1.81 -1.206 1.682 -1.042 1.578 -0.875 C
5.203 -0.875 L
cp
F
[1 0 0 1 5.006 0 ]  concat
1 w
[ ] 0 setdash
P
P
[1 0 0 1 -61.791 -36.629 ]  concat
1 w
[ ] 0 setdash
P
P
[1 0 0 1 0 0 ]  concat
0.5 w
[ ] 0 setdash
[ ] 0 setdash
p
0 setlinecap
87.315 34.119 m
89.625 34.119 L
s
P
p
0 setlinecap
87.315 27.109 m
89.625 27.109 L
s
P
[ ] 0 setdash
p
0 setlinecap
87.315 228.517 m
87.315 27.225 L
s
P
[1 0 0 1 61.791 230.88 ]  concat
0.5 w
[ ] 0 setdash
p
p
0.85 g
p
0.1 w
2 setlinejoin
np 17.027 -218.655 m
34.021 -218.655 L
34.021 -209.655 L
17.027 -209.655 L
cp
false upath dup ufill ustroke
P
P
P
[1 0 0 1 -61.791 -230.88 ]  concat
0.5 w
[ ] 0 setdash
[1 0 0 1 0 0 ]  concat
0.5 w
[ ] 0 setdash
p
np 77 11 m
77 23 L
97 23 L
97 11 L
cp
clip np
p
1 w
0 g
0 g
[ ] 0 setdash
2 setlinecap
0 setlinejoin
10 setmiterlimit
[1 0 0 1 78.818 12.225 ]  concat
1 w
[ ] 0 setdash
p
np -2.818 -2.225 m
-2.818 11.775 L
19.182 11.775 L
19.182 -2.225 L
cp
clip np
%%IncludeResource: font Arial
%%IncludeFont: Arial
9 /Arial Msf
0 g
p
[1 0 0 1 -0.5 7.5 ]  concat
1 w
[ ] 0 setdash
5.656 -7.406 m
6.641 -7.406 L
6.641 -3.125 L
6.641 -2.385 6.555 -1.797 6.383 -1.359 C
6.211 -0.922 5.906 -0.565 5.469 -0.289 C
5.031 -0.013 4.458 0.125 3.75 0.125 C
3.052 0.125 2.482 0.00521 2.039 -0.234 C
1.596 -0.474 1.281 -0.82 1.094 -1.273 C
0.906 -1.727 0.812 -2.344 0.812 -3.125 C
0.812 -7.406 L
1.797 -7.406 L
1.797 -3.125 L
1.797 -2.49 1.857 -2.018 1.977 -1.711 C
2.096 -1.404 2.302 -1.167 2.594 -1 C
2.885 -0.833 3.24 -0.75 3.656 -0.75 C
4.375 -0.75 4.888 -0.914 5.195 -1.242 C
5.503 -1.57 5.656 -2.198 5.656 -3.125 C
5.656 -7.406 L
cp
F
[1 0 0 1 6.5 0 ]  concat
1 w
[ ] 0 setdash
P
%%IncludeResource: font MathematicaSans
%%IncludeFont: MathematicaSans
9 /MathematicaSans Msf
p
[1 0 0 1 6 7.5 ]  concat
1 w
[ ] 0 setdash
3.078 2.172 m
2.422 2.172 L
2.151 1.828 1.906 1.466 1.688 1.086 C
1.469 0.706 1.279 0.31 1.117 -0.102 C
0.956 -0.513 0.833 -0.935 0.75 -1.367 C
0.667 -1.799 0.625 -2.234 0.625 -2.672 C
0.625 -3.12 0.669 -3.56 0.758 -3.992 C
0.846 -4.424 0.969 -4.844 1.125 -5.25 C
1.281 -5.656 1.469 -6.049 1.688 -6.43 C
1.906 -6.81 2.151 -7.177 2.422 -7.531 C
3.078 -7.531 L
2.839 -7.135 2.622 -6.75 2.43 -6.375 C
2.237 -6 2.078 -5.615 1.953 -5.219 C
1.828 -4.823 1.732 -4.419 1.664 -4.008 C
1.596 -3.596 1.562 -3.156 1.562 -2.688 C
1.562 -2.26 1.599 -1.833 1.672 -1.406 C
1.745 -0.979 1.846 -0.562 1.977 -0.156 C
2.107 0.25 2.266 0.648 2.453 1.039 C
2.641 1.43 2.849 1.807 3.078 2.172 C
cp
F
[1 0 0 1 2.997 0 ]  concat
1 w
[ ] 0 setdash
P
%%IncludeResource: font Arial
%%IncludeFont: Arial
9 /Arial Msf
p
[1 0 0 1 8.997 7.5 ]  concat
1 w
[ ] 0 setdash
0.0781 0 m
2.031 -2.781 L
0.219 -5.359 L
1.359 -5.359 L
2.188 -4.109 L
2.344 -3.87 2.469 -3.667 2.562 -3.5 C
2.708 -3.729 2.844 -3.927 2.969 -4.094 C
3.875 -5.359 L
4.953 -5.359 L
3.094 -2.844 L
5.094 0 L
3.984 0 L
2.875 -1.672 L
2.594 -2.109 L
1.172 0 L
0.0781 0 L
cp
F
[1 0 0 1 4.5 0 ]  concat
1 w
[ ] 0 setdash
P
%%IncludeResource: font MathematicaSans
%%IncludeFont: MathematicaSans
9 /MathematicaSans Msf
p
[1 0 0 1 13.497 7.5 ]  concat
1 w
[ ] 0 setdash
2.828 -2.672 m
2.828 -2.234 2.784 -1.799 2.695 -1.367 C
2.607 -0.935 2.482 -0.516 2.32 -0.109 C
2.159 0.297 1.969 0.69 1.75 1.07 C
1.531 1.451 1.292 1.818 1.031 2.172 C
0.375 2.172 L
0.615 1.786 0.828 1.404 1.016 1.023 C
1.203 0.643 1.359 0.255 1.484 -0.141 C
1.609 -0.536 1.708 -0.943 1.781 -1.359 C
1.854 -1.776 1.891 -2.214 1.891 -2.672 C
1.891 -3.099 1.854 -3.526 1.781 -3.953 C
1.708 -4.38 1.604 -4.797 1.469 -5.203 C
1.333 -5.609 1.174 -6.008 0.992 -6.398 C
0.81 -6.789 0.604 -7.167 0.375 -7.531 C
1.031 -7.531 L
1.292 -7.188 1.534 -6.826 1.758 -6.445 C
1.982 -6.065 2.172 -5.667 2.328 -5.25 C
2.484 -4.833 2.607 -4.409 2.695 -3.977 C
2.784 -3.544 2.828 -3.109 2.828 -2.672 C
cp
F
[1 0 0 1 2.997 0 ]  concat
1 w
[ ] 0 setdash
P
%%IncludeResource: font Arial
%%IncludeFont: Arial
9 /Arial Msf
P
[1 0 0 1 -78.818 -12.225 ]  concat
1 w
[ ] 0 setdash
P
P
[1 0 0 1 0 0 ]  concat
0.5 w
[ ] 0 setdash
p
np 80 26 m
80 229 L
407 229 L
407 26 L
cp
clip np
P
P
[1 0 0 1 0 0 ]  concat
1 w
[ ] 0 setdash
[1 0 0 1 0 0 ]  concat
1 w
[ ] 0 setdash
P
[1 0 0 1 0 0 ]  concat
1 w
[ ] 0 setdash
0 g
p
0.1 w
2 setlinejoin
np 115.372 118.384 m
115.372 46.942 L
195.744 46.942 L
195.744 118.384 L
cp
false upath dup ufill ustroke
P
1 g
p
0.1 w
2 setlinejoin
np 115.372 118.384 m
115.372 46.942 L
195.744 46.942 L
195.744 118.384 L
cp
false upath dup ufill ustroke
P
0 g
0.14 w
[ ] 0 setdash
3.25 setmiterlimit
115.372 118.384 m
115.372 46.942 L
195.744 46.942 L
195.744 118.384 L
cp
s
[1 0 0 1 59 120.447 ]  concat
0.14 w
[ ] 0 setdash
p
p
0.85 g
p
0.1 w
2 setlinejoin
np 56.372 -73.505 m
136.744 -73.505 L
136.744 -2.063 L
56.372 -2.063 L
cp
false upath dup ufill ustroke
P
P
P
[1 0 0 1 -59 -120.447 ]  concat
0.14 w
[ ] 0 setdash
[1 0 0 1 0 0 ]  concat
0.14 w
[ ] 0 setdash
p
np 114 45 m
114 120 L
197 120 L
197 45 L
cp
clip np
[1 0 0 1 0 0 ]  concat
0.14 w
[ ] 0 setdash
[1 0 0 1 0 0 ]  concat
0.14 w
[ ] 0 setdash
p
np 115 46 m
115 119 L
197 119 L
197 46 L
cp
clip np
3.239 setmiterlimit
[1 0 0 1 115.372 118.384 ]  concat
0.14 w
[ ] 0 setdash
p
p
0.85 g
p
0.1 w
2 setlinejoin
np 4.306 -31.219 m
28.226 -31.219 L
28.226 -2.869 L
4.306 -2.869 L
cp
false upath dup ufill ustroke
P
P
P
[1 0 0 1 -115.372 -118.384 ]  concat
0.14 w
[ ] 0 setdash
[1 0 0 1 0 0 ]  concat
0.14 w
[ ] 0 setdash
p
np 118 86 m
118 117 L
145 117 L
145 86 L
cp
clip np
[1 0 0 1 0 0 ]  concat
0.14 w
[ ] 0 setdash
[1 0 0 1 0 0 ]  concat
0.14 w
[ ] 0 setdash
p
np 119 88 m
119 114 L
144 114 L
144 88 L
cp
clip np
0.5 w
[ 4 4 ] 0 setdash
3.25 setmiterlimit
120.156 101.34 m
143.12 101.34 L
s
P
[1 0 0 1 0 0 ]  concat
0.14 w
[ ] 0 setdash
[1 0 0 1 0 0 ]  concat
0.14 w
[ ] 0 setdash
P
[1 0 0 1 0 0 ]  concat
0.14 w
[ ] 0 setdash
[1 0 0 1 115.372 118.384 ]  concat
0.14 w
[ ] 0 setdash
p
p
0.85 g
p
0.1 w
2 setlinejoin
np 31.336 -23.778 m
63.111 -23.778 L
63.111 -14.778 L
31.336 -14.778 L
cp
false upath dup ufill ustroke
P
P
P
[1 0 0 1 -115.372 -118.384 ]  concat
0.14 w
[ ] 0 setdash
[1 0 0 1 0 0 ]  concat
0.14 w
[ ] 0 setdash
p
np 145 93 m
145 105 L
180 105 L
180 93 L
cp
clip np
p
1 w
0 g
0 g
[ ] 0 setdash
2 setlinecap
0 setlinejoin
10 setmiterlimit
[1 0 0 1 146.708 94.606 ]  concat
1 w
[ ] 0 setdash
p
np -2.708 -2.606 m
-2.708 11.394 L
34.292 11.394 L
34.292 -2.606 L
cp
clip np
%%IncludeResource: font Arial
%%IncludeFont: Arial
9 /Arial Msf
0 g
p
[1 0 0 1 -0.5 7.5 ]  concat
1 w
[ ] 0 setdash
0.781 0 m
0.781 -7.406 L
1.797 -7.406 L
5.688 -1.594 L
5.688 -7.406 L
6.625 -7.406 L
6.625 0 L
5.609 0 L
1.734 -5.812 L
1.734 0 L
0.781 0 L
cp
F
[1 0 0 1 6.5 0 ]  concat
1 w
[ ] 0 setdash
P
%%IncludeResource: font MathematicaSans
%%IncludeFont: MathematicaSans
9 /MathematicaSans Msf
p
[1 0 0 1 8.501 7.5 ]  concat
1 w
[ ] 0 setdash
5.469 -3.391 m
0.578 -3.391 L
0.578 -4.234 L
5.469 -4.234 L
5.469 -3.391 L
cp
5.469 -1.125 m
0.578 -1.125 L
0.578 -1.984 L
5.469 -1.984 L
5.469 -1.125 L
cp
F
[1 0 0 1 5.256 0 ]  concat
1 w
[ ] 0 setdash
P
%%IncludeResource: font Arial
%%IncludeFont: Arial
9 /Arial Msf
p
[1 0 0 1 16.258 7.5 ]  concat
1 w
[ ] 0 setdash
3.859 0 m
2.938 0 L
2.938 -5.797 L
2.719 -5.589 2.432 -5.38 2.078 -5.172 C
1.724 -4.964 1.406 -4.807 1.125 -4.703 C
1.125 -5.578 L
1.635 -5.818 2.081 -6.107 2.461 -6.445 C
2.841 -6.784 3.109 -7.115 3.266 -7.438 C
3.859 -7.438 L
3.859 0 L
cp
F
[1 0 0 1 5.006 0 ]  concat
1 w
[ ] 0 setdash
0.422 -3.656 m
0.422 -4.531 0.513 -5.234 0.695 -5.766 C
0.878 -6.297 1.146 -6.708 1.5 -7 C
1.854 -7.292 2.302 -7.438 2.844 -7.438 C
3.24 -7.438 3.589 -7.357 3.891 -7.195 C
4.193 -7.034 4.44 -6.802 4.633 -6.5 C
4.826 -6.198 4.977 -5.831 5.086 -5.398 C
5.195 -4.966 5.25 -4.385 5.25 -3.656 C
5.25 -2.781 5.161 -2.078 4.984 -1.547 C
4.807 -1.016 4.542 -0.604 4.188 -0.312 C
3.833 -0.0208 3.385 0.125 2.844 0.125 C
2.125 0.125 1.562 -0.13 1.156 -0.641 C
0.667 -1.255 0.422 -2.26 0.422 -3.656 C
cp
1.359 -3.656 m
1.359 -2.438 1.503 -1.628 1.789 -1.227 C
2.076 -0.826 2.427 -0.625 2.844 -0.625 C
3.26 -0.625 3.612 -0.826 3.898 -1.227 C
4.185 -1.628 4.328 -2.438 4.328 -3.656 C
4.328 -4.875 4.185 -5.685 3.898 -6.086 C
3.612 -6.487 3.255 -6.688 2.828 -6.688 C
2.411 -6.688 2.078 -6.51 1.828 -6.156 C
1.516 -5.698 1.359 -4.865 1.359 -3.656 C
cp
F
[1 0 0 1 5.006 0 ]  concat
1 w
[ ] 0 setdash
0.422 -3.656 m
0.422 -4.531 0.513 -5.234 0.695 -5.766 C
0.878 -6.297 1.146 -6.708 1.5 -7 C
1.854 -7.292 2.302 -7.438 2.844 -7.438 C
3.24 -7.438 3.589 -7.357 3.891 -7.195 C
4.193 -7.034 4.44 -6.802 4.633 -6.5 C
4.826 -6.198 4.977 -5.831 5.086 -5.398 C
5.195 -4.966 5.25 -4.385 5.25 -3.656 C
5.25 -2.781 5.161 -2.078 4.984 -1.547 C
4.807 -1.016 4.542 -0.604 4.188 -0.312 C
3.833 -0.0208 3.385 0.125 2.844 0.125 C
2.125 0.125 1.562 -0.13 1.156 -0.641 C
0.667 -1.255 0.422 -2.26 0.422 -3.656 C
cp
1.359 -3.656 m
1.359 -2.438 1.503 -1.628 1.789 -1.227 C
2.076 -0.826 2.427 -0.625 2.844 -0.625 C
3.26 -0.625 3.612 -0.826 3.898 -1.227 C
4.185 -1.628 4.328 -2.438 4.328 -3.656 C
4.328 -4.875 4.185 -5.685 3.898 -6.086 C
3.612 -6.487 3.255 -6.688 2.828 -6.688 C
2.411 -6.688 2.078 -6.51 1.828 -6.156 C
1.516 -5.698 1.359 -4.865 1.359 -3.656 C
cp
F
[1 0 0 1 5.006 0 ]  concat
1 w
[ ] 0 setdash
P
P
[1 0 0 1 -146.708 -94.606 ]  concat
1 w
[ ] 0 setdash
P
P
[1 0 0 1 0 0 ]  concat
0.14 w
[ ] 0 setdash
[1 0 0 1 115.372 118.384 ]  concat
0.14 w
[ ] 0 setdash
p
p
0.85 g
p
0.1 w
2 setlinejoin
np 4.306 -64.105 m
28.226 -64.105 L
28.226 -35.755 L
4.306 -35.755 L
cp
false upath dup ufill ustroke
P
P
P
[1 0 0 1 -115.372 -118.384 ]  concat
0.14 w
[ ] 0 setdash
[1 0 0 1 0 0 ]  concat
0.14 w
[ ] 0 setdash
p
np 118 53 m
118 84 L
145 84 L
145 53 L
cp
clip np
[1 0 0 1 0 0 ]  concat
0.14 w
[ ] 0 setdash
[1 0 0 1 0 0 ]  concat
0.14 w
[ ] 0 setdash
p
np 119 55 m
119 81 L
144 81 L
144 55 L
cp
clip np
0.5 w
[ ] 0 setdash
3.25 setmiterlimit
120.156 68.454 m
143.12 68.454 L
s
P
[1 0 0 1 0 0 ]  concat
0.14 w
[ ] 0 setdash
[1 0 0 1 0 0 ]  concat
0.14 w
[ ] 0 setdash
P
[1 0 0 1 0 0 ]  concat
0.14 w
[ ] 0 setdash
[1 0 0 1 115.372 118.384 ]  concat
0.14 w
[ ] 0 setdash
p
p
0.85 g
p
0.1 w
2 setlinejoin
np 31.336 -56.664 m
54.452 -56.664 L
54.452 -47.664 L
31.336 -47.664 L
cp
false upath dup ufill ustroke
P
P
P
[1 0 0 1 -115.372 -118.384 ]  concat
0.14 w
[ ] 0 setdash
[1 0 0 1 0 0 ]  concat
0.14 w
[ ] 0 setdash
p
np 145 60 m
145 72 L
171 72 L
171 60 L
cp
clip np
p
1 w
0 g
0 g
[ ] 0 setdash
2 setlinecap
0 setlinejoin
10 setmiterlimit
[1 0 0 1 146.708 61.72 ]  concat
1 w
[ ] 0 setdash
p
np -2.708 -2.72 m
-2.708 11.28 L
25.292 11.28 L
25.292 -2.72 L
cp
clip np
%%IncludeResource: font Arial
%%IncludeFont: Arial
9 /Arial Msf
0 g
p
[1 0 0 1 -0.5 7.5 ]  concat
1 w
[ ] 0 setdash
0.781 0 m
0.781 -7.406 L
1.797 -7.406 L
5.688 -1.594 L
5.688 -7.406 L
6.625 -7.406 L
6.625 0 L
5.609 0 L
1.734 -5.812 L
1.734 0 L
0.781 0 L
cp
F
[1 0 0 1 6.5 0 ]  concat
1 w
[ ] 0 setdash
P
%%IncludeResource: font MathematicaSans
%%IncludeFont: MathematicaSans
9 /MathematicaSans Msf
p
[1 0 0 1 8.501 7.5 ]  concat
1 w
[ ] 0 setdash
5.469 -3.391 m
0.578 -3.391 L
0.578 -4.234 L
5.469 -4.234 L
5.469 -3.391 L
cp
5.469 -1.125 m
0.578 -1.125 L
0.578 -1.984 L
5.469 -1.984 L
5.469 -1.125 L
cp
F
[1 0 0 1 5.256 0 ]  concat
1 w
[ ] 0 setdash
P
%%IncludeResource: font Arial
%%IncludeFont: Arial
9 /Arial Msf
%%IncludeResource: font MathematicaSans
%%IncludeFont: MathematicaSans
9 /MathematicaSans Msf
p
[1 0 0 1 15.414 7.5 ]  concat
1 w
[ ] 0 setdash
5.984 -0.484 m
5.797 -0.484 5.62 -0.516 5.453 -0.578 C
5.286 -0.641 5.128 -0.724 4.977 -0.828 C
4.826 -0.932 4.68 -1.057 4.539 -1.203 C
4.398 -1.349 4.266 -1.505 4.141 -1.672 C
4.016 -1.505 3.883 -1.349 3.742 -1.203 C
3.602 -1.057 3.456 -0.932 3.305 -0.828 C
3.154 -0.724 2.995 -0.641 2.828 -0.578 C
2.661 -0.516 2.484 -0.484 2.297 -0.484 C
2.026 -0.484 1.771 -0.531 1.531 -0.625 C
1.292 -0.719 1.086 -0.849 0.914 -1.016 C
0.742 -1.182 0.607 -1.378 0.508 -1.602 C
0.409 -1.826 0.359 -2.062 0.359 -2.312 C
0.359 -2.573 0.409 -2.815 0.508 -3.039 C
0.607 -3.263 0.742 -3.456 0.914 -3.617 C
1.086 -3.779 1.292 -3.906 1.531 -4 C
1.771 -4.094 2.026 -4.141 2.297 -4.141 C
2.484 -4.141 2.661 -4.112 2.828 -4.055 C
2.995 -3.997 3.156 -3.917 3.312 -3.812 C
3.469 -3.708 3.615 -3.583 3.75 -3.438 C
3.885 -3.292 4.016 -3.13 4.141 -2.953 C
4.266 -3.13 4.398 -3.292 4.539 -3.438 C
4.68 -3.583 4.826 -3.708 4.977 -3.812 C
5.128 -3.917 5.286 -3.997 5.453 -4.055 C
5.62 -4.112 5.797 -4.141 5.984 -4.141 C
6.255 -4.141 6.508 -4.094 6.742 -4 C
6.977 -3.906 7.182 -3.779 7.359 -3.617 C
7.536 -3.456 7.674 -3.263 7.773 -3.039 C
7.872 -2.815 7.922 -2.573 7.922 -2.312 C
7.922 -2.062 7.872 -1.826 7.773 -1.602 C
7.674 -1.378 7.539 -1.182 7.367 -1.016 C
7.195 -0.849 6.99 -0.719 6.75 -0.625 C
6.51 -0.531 6.255 -0.484 5.984 -0.484 C
cp
5.984 -3.453 m
5.828 -3.453 5.68 -3.414 5.539 -3.336 C
5.398 -3.258 5.268 -3.161 5.148 -3.047 C
5.029 -2.932 4.919 -2.81 4.82 -2.68 C
4.721 -2.549 4.635 -2.427 4.562 -2.312 C
4.646 -2.188 4.734 -2.06 4.828 -1.93 C
4.922 -1.799 5.026 -1.677 5.141 -1.562 C
5.245 -1.458 5.367 -1.37 5.508 -1.297 C
5.648 -1.224 5.807 -1.188 5.984 -1.188 C
6.151 -1.188 6.307 -1.216 6.453 -1.273 C
6.599 -1.331 6.727 -1.411 6.836 -1.516 C
6.945 -1.62 7.031 -1.74 7.094 -1.875 C
7.156 -2.01 7.188 -2.156 7.188 -2.312 C
7.188 -2.469 7.156 -2.617 7.094 -2.758 C
7.031 -2.898 6.945 -3.018 6.836 -3.117 C
6.727 -3.216 6.599 -3.297 6.453 -3.359 C
6.307 -3.422 6.151 -3.453 5.984 -3.453 C
cp
2.297 -3.453 m
2.13 -3.453 1.974 -3.422 1.828 -3.359 C
1.682 -3.297 1.555 -3.216 1.445 -3.117 C
1.336 -3.018 1.25 -2.898 1.188 -2.758 C
1.125 -2.617 1.094 -2.469 1.094 -2.312 C
1.094 -2.156 1.125 -2.01 1.188 -1.875 C
1.25 -1.74 1.336 -1.62 1.445 -1.516 C
1.555 -1.411 1.682 -1.331 1.828 -1.273 C
1.974 -1.216 2.13 -1.188 2.297 -1.188 C
2.422 -1.188 2.539 -1.208 2.648 -1.25 C
2.758 -1.292 2.859 -1.346 2.953 -1.414 C
3.047 -1.482 3.135 -1.56 3.219 -1.648 C
3.302 -1.737 3.375 -1.828 3.438 -1.922 C
3.479 -1.974 3.521 -2.031 3.562 -2.094 C
3.604 -2.156 3.656 -2.229 3.719 -2.312 C
3.646 -2.427 3.56 -2.549 3.461 -2.68 C
3.362 -2.81 3.25 -2.932 3.125 -3.047 C
3 -3.161 2.867 -3.258 2.727 -3.336 C
2.586 -3.414 2.443 -3.453 2.297 -3.453 C
cp
F
[1 0 0 1 7.203 0 ]  concat
1 w
[ ] 0 setdash
P
P
[1 0 0 1 -146.708 -61.72 ]  concat
1 w
[ ] 0 setdash
P
P
[1 0 0 1 0 0 ]  concat
0.14 w
[ ] 0 setdash
P
[1 0 0 1 0 0 ]  concat
0.14 w
[ ] 0 setdash
[1 0 0 1 0 0 ]  concat
0.14 w
[ ] 0 setdash
P
[1 0 0 1 0 0 ]  concat
0.14 w
[ ] 0 setdash
P
P
1 w
0 g
0 g
[ ] 0 setdash
2 setlinecap
0 setlinejoin
10 setmiterlimit
P
p
[ ] 0 setdash
50.5 239.947 m
50.5 0.5 L
s
[ ] 0 setdash
493.5 239.947 m
493.5 0.5 L
s
[ ] 0 setdash
50.5 239.947 m
493.5 239.947 L
s
P
P
%Trailer
%EOF
