%!PS-Adobe-3.0 EPSF-1.2
%%BoundingBox: 0 0 360 32
%%HiResBoundingBox: 0 0 360 32
%%Creator: (Wolfram Mathematica 10.0 for Linux x86 (64-bit) (December 4, 2014))
%%CreationDate: (Friday, November 6, 2015)(15:26:46)
%%Title: Clipboard
%%DocumentNeededResources: font Arial
%%DocumentSuppliedResources:
%%DocumentNeededFonts: Arial
%%DocumentSuppliedFonts:
%%DocumentFonts: Arial
%%EndComments
/p{gsave}bind def
/P{grestore}bind def
/g{setgray}bind def
/r{setrgbcolor}bind def
/k{setcmykcolor}bind def
/w{setlinewidth}bind def
/np{newpath}bind def
/m{moveto}bind def
/Mr{rmoveto}bind def
/Mx{currentpoint exch pop moveto}bind def
/My{currentpoint pop exch moveto}bind def
/X{0 rmoveto}bind def
/Y{0 exch rmoveto}bind def
/N{currentpoint 3 -1 roll show moveto}bind def
/L{lineto}bind def
/rL{rlineto}bind def
/C{curveto}bind def
/cp{closepath}bind def
/F{eofill}bind def
/f{fill}bind def
/s{stroke}bind def
/S{show}bind def
/tri{p 9 6 roll r 6 4 roll m 4 2 roll L L cp F P}bind def
/Msf{findfont exch scalefont[1 0 0 -1 0 0]makefont setfont}bind def
1 -1 scale 0 -31.104 translate
-57 -11 translate
[1 0 0 1 0 0 ]  concat
1 w
0 g
0 g
[ ] 0 setdash
2 setlinecap
0 setlinejoin
10 setmiterlimit
p
0.263 0.675 0.91 r
0 0 m
F
P
p
1 w
0 g
0 g
[ ] 0 setdash
2 setlinecap
0 setlinejoin
10 setmiterlimit
p
np 0 3 m
0 51 L
550 51 L
550 3 L
cp
clip np
P
p
np 57 11 m
57 43 L
417 43 L
417 11 L
cp
clip np
p
np 55 9 m
55 45 L
419 45 L
419 9 L
cp
clip np
p
np 56 10 m
56 43 L
417 43 L
417 10 L
cp
clip np
3.239 setmiterlimit
0 0 1 r
0.5 w
[ ] 0 setdash
3.25 setmiterlimit
p 1 setlinecap 7 w
409.8 17.912 m 0 0 rL s
P
1 0 0 r
[ ] 0 setdash
p 1 setlinecap 7 w
178.248 17.912 m 0 0 rL s
P
0 g
[ ] 0 setdash
64.2 17.912 m
409.8 17.912 L
s
[ ] 0 setdash
p
0 setlinecap
64.2 17.912 m
101.342 17.912 L
s
P
0 g
p
0.1 w
2 setlinejoin
np 99.496 12.649 m
99.789 13.247 L
100.431 14.684 L
100.772 15.547 L
101.067 16.418 L
101.272 17.229 L
101.342 17.912 L
101.272 18.53 L
101.067 19.33 L
100.772 20.23 L
100.431 21.149 L
99.789 22.718 L
99.496 23.386 L
119.496 17.912 L
99.496 12.649 L
cp
false upath dup ufill ustroke
P
0 g
[ ] 0 setdash
p
0 setlinecap
409.8 17.912 m
310.45 17.912 L
s
P
0 g
p
0.1 w
2 setlinejoin
np 312.296 23.175 m
312.003 22.577 L
311.361 21.14 L
311.02 20.277 L
310.725 19.406 L
310.52 18.595 L
310.45 17.912 L
310.52 17.294 L
310.725 16.494 L
311.02 15.594 L
311.361 14.675 L
312.003 13.106 L
312.296 12.438 L
292.296 17.912 L
312.296 23.175 L
cp
false upath dup ufill ustroke
P
0 0 1 r
[ ] 0 setdash
p 1 setlinecap 7 w
64.2 17.912 m 0 0 rL s
P
p
np 59 28 m
59 43 L
69 43 L
69 28 L
cp
clip np
p
1 w
0 0 1 r
0 g
[ ] 0 setdash
2 setlinecap
0 setlinejoin
10 setmiterlimit
[1 0 0 1 60.863 29.192 ]  concat
1 w
[ ] 0 setdash
p
np -2.863 -2.192 m
-2.863 14.808 L
9.137 14.808 L
9.137 -2.192 L
cp
clip np
%%IncludeResource: font Arial
%%IncludeFont: Arial
12 /Arial Msf
0 g
p
[1 0 0 1 -0.5 9.5 ]  concat
1 w
[ ] 0 setdash
0.547 -4.703 m
0.547 -5.839 0.664 -6.75 0.898 -7.438 C
1.133 -8.125 1.479 -8.656 1.938 -9.031 C
2.396 -9.406 2.974 -9.594 3.672 -9.594 C
4.182 -9.594 4.63 -9.49 5.016 -9.281 C
5.401 -9.073 5.721 -8.776 5.977 -8.391 C
6.232 -8.005 6.43 -7.531 6.57 -6.969 C
6.711 -6.406 6.781 -5.651 6.781 -4.703 C
6.781 -3.589 6.667 -2.688 6.438 -2 C
6.208 -1.312 5.865 -0.781 5.406 -0.406 C
4.948 -0.0312 4.37 0.156 3.672 0.156 C
2.745 0.156 2.021 -0.172 1.5 -0.828 C
0.865 -1.62 0.547 -2.911 0.547 -4.703 C
cp
1.766 -4.703 m
1.766 -3.141 1.948 -2.099 2.312 -1.578 C
2.677 -1.057 3.13 -0.797 3.672 -0.797 C
4.203 -0.797 4.654 -1.057 5.023 -1.578 C
5.393 -2.099 5.578 -3.141 5.578 -4.703 C
5.578 -6.276 5.393 -7.323 5.023 -7.844 C
4.654 -8.365 4.198 -8.625 3.656 -8.625 C
3.115 -8.625 2.682 -8.396 2.359 -7.938 C
1.964 -7.354 1.766 -6.276 1.766 -4.703 C
cp
F
[1 0 0 1 6.674 0 ]  concat
1 w
[ ] 0 setdash
P
P
[1 0 0 1 -60.863 -29.192 ]  concat
1 w
[ ] 0 setdash
P
P
p
np 405 28 m
405 43 L
415 43 L
415 28 L
cp
clip np
p
1 w
0 0 1 r
0 g
[ ] 0 setdash
2 setlinecap
0 setlinejoin
10 setmiterlimit
[1 0 0 1 406.463 29.192 ]  concat
1 w
[ ] 0 setdash
p
np -2.463 -2.192 m
-2.463 14.808 L
9.537 14.808 L
9.537 -2.192 L
cp
clip np
%%IncludeResource: font Arial
%%IncludeFont: Arial
12 /Arial Msf
0 g
p
[1 0 0 1 -0.5 9.5 ]  concat
1 w
[ ] 0 setdash
4.969 0 m
3.797 0 L
3.797 -7.469 L
3.516 -7.198 3.146 -6.93 2.688 -6.664 C
2.229 -6.398 1.818 -6.198 1.453 -6.062 C
1.453 -7.188 L
2.109 -7.5 2.682 -7.875 3.172 -8.312 C
3.661 -8.75 4.01 -9.177 4.219 -9.594 C
4.969 -9.594 L
4.969 0 L
cp
F
[1 0 0 1 6.674 0 ]  concat
1 w
[ ] 0 setdash
P
P
[1 0 0 1 -406.463 -29.192 ]  concat
1 w
[ ] 0 setdash
P
P
P
P
1 w
0 g
0 g
[ ] 0 setdash
2 setlinecap
0 setlinejoin
10 setmiterlimit
P
P
%Trailer
%EOF
