0.000999000999000999	0.
0.001998001998001998	40.800533044056934
0.002997002997002997	74.08205588877313
0.003996003996003996	102.52671762823431
0.004995004995004995	127.3737679340938
0.005994005994005994	149.38016034018787
0.006993006993006993	169.06549394219377
0.007992007992007992	186.81048482388564
0.008991008991008992	202.90611025081398
0.00999000999000999	217.58149601099646
0.01098901098901099	231.0211516244575
0.011988011988011988	243.3762914371935
0.012987012987012988	254.77261885249376
0.013986013986013986	265.31587269500005
0.014985014985014986	275.0958935406067
0.015984015984015984	284.1896756613079
0.016983016983016984	292.6637030019336
0.017982017982017984	300.5757672155047
0.01898101898101898	307.97640307790283
0.01998001998001998	314.91003609706195
0.02097902097902098	321.4159102030704
0.02197802197802198	327.5288450507448
0.022977022977022976	333.27985967954305
0.023976023976023976	338.696690194843
0.024975024975024976	343.80422257427574
0.025974025974025976	348.6248568902275
0.026973026973026972	353.17881566015495
0.027972027972027972	357.4844063406059
0.028971028971028972	361.55824592742624
0.029970029970029972	365.4154540441908
0.030969030969030968	369.06981967284065
0.03196803196803197	372.53394571785765
0.03296703296703297	375.81937483456016
0.03396603396603397	378.9366993463709
0.03496503496503497	381.8956575902208
0.03596403596403597	384.705218637269
0.03696303696303696	387.3736570178234
0.03796203796203796	389.90861881940646
0.03896103896103896	392.3171803134811
0.03996003996003996	394.6059000902243
0.04095904095904096	396.7808655346905
0.04195804195804196	398.84773435606775
0.04295704295704296	400.8117717799712
0.04395604395604396	402.6778839282592
0.04495504495504495	404.45064783879974
0.04595404595404595	406.1343385166393
0.04695304695304695	407.7329533562486
0.04795204795204795	409.2502342304023
0.04895104895104895	410.68968750354344
0.04995004995004995	412.0546021951558
0.05094905094905095	413.3480664908734
0.05194805194805195	414.57298277508943
0.052947052947052944	415.7320813381089
0.053946053946053944	416.8279328929309
0.054945054945054944	417.8629600211417
0.055944055944055944	418.8394476538119
0.056943056943056944	419.75955268142513
0.057942057942057944	420.6253127764885
0.058941058941058944	421.43865450337154
0.059940059940059943	422.2014007819305
0.060939060939060936	422.91527776443314
0.061938061938061936	423.5819211790945
0.06293706293706294	424.2028821880483
0.06393606393606394	424.7796328027237
0.06493506493506493	425.3135708952922
0.06593406593406594	425.8060248410259
0.06693306693306693	426.2582578230058
0.06793206793206794	426.6714718275864
0.06893106893106893	427.0468113563185
0.06993006993006994	427.3853668776137
0.07092907092907093	427.6881780392672
0.07192807192807193	427.95623666101847
0.07292707292707293	428.1904895245858
0.07392607392607392	428.3918409770451
0.07492507492507493	428.5611553620157
0.07592407592407592	428.6992592918457
0.07692307692307693	428.80694377284345
0.07792207792207792	428.88496619456924
0.07892107892107893	428.9340521932632
0.07992007992007992	428.9548973986394
0.08091908091908091	428.94816907250873
0.08191808191808192	428.91450764699556
0.08291708291708291	428.8545281694797
0.08391608391608392	428.7688216608222
0.08491508491508491	428.6579563929068
0.08591408591408592	428.52247909105216
0.08691308691308691	428.36291606641737
0.08791208791208792	428.1797742831211
0.08891108891108891	427.9735423644366
0.0899100899100899	427.7446915420888
0.09090909090909091	427.49367655237774
0.0919080919080919	427.2209364825749
0.09290709290709291	426.9268955707801
0.0939060939060939	426.6119639621968
0.09490509490509491	426.2765384245652
0.0959040959040959	425.92100302529605
0.0969030969030969	425.54572977266565
0.0979020979020979	425.15107922326524
0.0989010989010989	424.73740105774357
0.0999000999000999	424.305034626739
0.1008991008991009	423.8543094687671
0.1018981018981019	423.38554580170586
0.1028971028971029	422.8990549894127
0.1038961038961039	422.39513998490025
0.1048951048951049	421.87409575140424
0.10589410589410589	421.3362096625871
0.1068931068931069	420.78176188304036
0.10789210789210789	420.21102573016935
0.1088911088911089	419.6242680184782
0.10989010989010989	419.0217493872023
0.1108891108891109	418.403724612179
0.11188811188811189	417.77044290278764
0.11288711288711288	417.1221481847393
0.11388611388611389	416.4590793694476
0.11488511488511488	415.7814706106651
0.11588411588411589	415.0895515490297
0.11688311688311688	414.3835475451241
0.11788211788211789	413.66367990161564
0.11888111888111888	412.93016607501
0.11988011988011989	412.1832198775178
0.12087912087912088	411.4230516695081
0.12187812187812187	410.6498685429897
0.12287712287712288	409.8638744965392
0.12387612387612387	409.06527060206747
0.12487512487512488	408.25425516379624
0.1258741258741259	407.43102386979393
0.12687312687312688	406.59576993639865
0.12787212787212787	405.74868424584105
0.12887112887112886	404.88995547735993
0.12987012987012986	404.0197702320864
0.13086913086913088	403.1383131519615
0.13186813186813187	402.24576703293184
0.13286713286713286	401.3423129326598
0.13386613386613386	400.4281302729694
0.13486513486513488	399.503396937238
0.13586413586413587	398.5682893629333
0.13686313686313686	397.6229826294842
0.13786213786213786	396.667650541664
0.13886113886113885	395.7024657086572
0.13986013986013987	394.7275996189716
0.14085914085914086	393.7432227113473
0.14185814185814186	392.7495044418109
0.14285714285714285	391.7466133470136
0.14385614385614387	390.7347171039836
0.14485514485514486	389.71398258642216
0.14585414585414586	388.68457591766156
0.14685314685314685	387.6466625204005
0.14785214785214784	386.60040716332753
0.14885114885114886	385.54597400473654
0.14985014985014986	384.48352663323544
0.15084915084915085	383.41322810564463
0.15184815184815184	382.33524098217674
0.15284715284715283	381.24972735898723
0.15384615384615385	380.1568488981802
0.15484515484515485	379.05676685535235
0.15584415584415584	377.949642104752
0.15684315684315683	376.83563516213144
0.15784215784215785	375.7149062053637
0.15884115884115885	374.587615092896
0.15984015984015984	373.4539213801067
0.16083916083916083	372.313984333633
0.16183816183816183	371.16796294373336
0.16283716283716285	370.016015934745
0.16383616383616384	368.8583017736988
0.16483516483516483	367.6949786771492
0.16583416583416583	366.52620461627475
0.16683316683316685	365.3521373203069
0.16783216783216784	364.17293427833954
0.16883116883116883	362.98875273957105
0.16983016983016982	361.7997497120331
0.17082917082917082	360.6060819598535
0.17182817182817184	359.40790599910326
0.17282717282717283	358.2053780922772
0.17382617382617382	356.99865424145213
0.17482517482517482	355.78789018017306
0.17582417582417584	354.573241364109
0.17682317682317683	353.35486296052557
0.17782217782217782	352.13290983661665
0.17882117882117882	350.9075365467396
0.1798201798201798	349.67889731859566
0.18081918081918083	348.44714603839765
0.18181818181818182	347.2124362350665
0.18281718281718282	345.9749210634973
0.1838161838161838	344.7347532869354
0.1848151848151848	343.49208525850156
0.18581418581418582	342.2470689019061
0.18681318681318682	340.9998556913908
0.1878121878121878	339.7505966309369
0.1888111888111888	338.499442232777
0.18981018981018982	337.24654249524883
0.19080919080919082	335.99204688002726
0.1918081918081918	334.7361042887732
0.1928071928071928	333.47886303923326
0.1938061938061938	332.2204708408279
0.19480519480519481	330.9610747697644
0.1958041958041958	329.70082124370794
0.1968031968031968	328.4398559960479
0.1978021978021978	327.1783240497929
0.19880119880119881	325.91636969112875
0.1998001998001998	324.6541364426747
0.2007992007992008	323.39176703646973
0.2017982017982018	322.129403386724
0.20279720279720279	320.8671865623673
0.2037962037962038	319.6052567594272
0.2047952047952048	318.3437532732692
0.2057942057942058	317.0828144707312
0.20679320679320679	315.82257776218336
0.2077922077922078	314.5631795735447
0.2087912087912088	313.304755318286
0.2097902097902098	312.0474393694515
0.21078921078921078	310.7913650317269
0.21178821178821178	309.5366645135856
0.2127872127872128	308.2834688995397
0.2137862137862138	307.031908122526
0.21478521478521478	305.7821109364552
0.21578421578421578	304.5342048889506
0.21678321678321677	303.28831629430556
0.2177822177822178	302.0445702066839
0.21878121878121878	300.8030903935924
0.21978021978021978	299.5639993096491
0.22077922077922077	298.3274180706722
0.2217782217782218	297.0934664281168
0.22277722277722278	295.862262743881
0.22377622377622378	294.63392396550574
0.22477522477522477	293.40856560179276
0.22577422577422576	292.18630169886046
0.22677322677322678	290.96724481666234
0.22777222777222778	289.7515060059871
0.22877122877122877	288.53919478596214
0.22977022977022976	287.3304191220802
0.23076923076923078	286.1252854047682
0.23176823176823177	284.92389842851844
0.23276723276723277	283.72636137159793
0.23376623376623376	282.5327757763553
0.23476523476523475	281.3432415301409
0.23576423576423577	280.15785684685716
0.23676323676323677	278.97671824915335
0.23776223776223776	277.79992055128105
0.23876123876123875	276.6275568426225
0.23976023976023977	275.45971847190685
0.24075924075924077	274.2964950321265
0.24175824175824176	273.1379743461641
0.24275724275724275	271.98424245314385
0.24375624375624375	270.83538359551454
0.24475524475524477	269.69148020687743
0.24575424575424576	268.55261290056484
0.24675324675324675	267.41886045898
0.24775224775224775	266.2902998237047
0.24875124875124874	265.16700608638115
0.24975024975024976	264.04905248037545
0.25074925074925075	262.9365103732267
0.2517482517482518	261.82944925988716
0.25274725274725274	260.72793675675683
0.25374625374625376	259.6320385965161
0.2547452547452547	258.5418186237588
0.25574425574425574	257.4573387914264
0.25674325674325676	256.3786591580466
0.25774225774225773	255.30583788577349
0.25874125874125875	254.23893123923185
0.2597402597402597	253.1779935851624
0.26073926073926074	252.12307739286712
0.26173826173826176	251.07423323545189
0.2627372627372627	250.03150979186313
0.26373626373626374	248.99495384971507
0.2647352647352647	247.96461030890256
0.26573426573426573	246.9405221859945
0.26673326673326675	245.922730619402
0.2677322677322677	244.91127487531523
0.26873126873126874	243.90619235440136
0.26973026973026976	242.90751859925615
0.2707292707292707	241.91528730260092
0.27172827172827174	240.92953031621633
0.2727272727272727	239.95027766060312
0.27372627372627373	238.97755753536046
0.27472527472527475	238.01139633027057
0.2757242757242757	237.05181863707983
0.27672327672327673	236.0988472619634
0.2777222777222777	235.1525032386628
0.2787212787212787	234.21280584228285
0.27972027972027974	233.2797726037359
0.2807192807192807	232.35341932481927
0.2817182817182817	231.43376009391278
0.2827172827172827	230.52080730228178
0.2837162837162837	229.61457166097068
0.28471528471528473	228.71506221827372
0.2857142857142857	227.82228637776527
0.2867132867132867	226.93624991687568
0.28771228771228774	226.05695700599688
0.2887112887112887	225.18441022810015
0.2897102897102897	224.31861059885097
0.2907092907092907	223.45955758720336
0.2917082917082917	222.60724913645666
0.29270729270729273	221.76168168575833
0.2937062937062937	220.9228501920344
0.2947052947052947	220.09074815233035
0.2957042957042957	219.26536762654524
0.2967032967032967	218.44669926054
0.2977022977022977	217.63473230960287
0.2987012987012987	216.82945466225365
0.2997002997002997	216.030852864368
0.3006993006993007	215.23891214360404
0.3016983016983017	214.45361643411317
0.3026973026973027	213.6749484015162
0.3036963036963037	212.90288946812652
0.3046953046953047	212.13741983840225
0.30569430569430567	211.3785185246089
0.3066933066933067	210.62616337267417
0.3076923076923077	209.88033108821705
0.3086913086913087	209.14099726273233
0.3096903096903097	208.4081363999133
0.3106893106893107	207.68172194209438
0.3116883116883117	206.96172629679555
0.3126873126873127	206.24812086335155
0.31368631368631367	205.54087605960785
0.3146853146853147	204.83996134866635
0.3156843156843157	204.14534526566356
0.3166833166833167	203.45699544456403
0.3176823176823177	202.77487864495302
0.31868131868131866	202.09896077881143
0.3196803196803197	201.4292069372565
0.3206793206793207	200.76558141723297
0.32167832167832167	200.1080477481383
0.3226773226773227	199.45656871836712
0.32367632367632365	198.81110640175925
0.3246753246753247	198.1716221839364
0.3256743256743257	197.53807678851365
0.32667332667332666	196.91043030317056
0.3276723276723277	196.28864220556892
0.32867132867132864	195.67267138910285
0.32967032967032966	195.06247618846814
0.3306693306693307	194.4580144050386
0.33166833166833165	193.85924333203567
0.33266733266733267	193.26611977948068
0.3336663336663337	192.6786000989165
0.33466533466533466	192.09664020788836
0.3356643356643357	191.52019561417166
0.33666333666333664	190.9492214397375
0.33766233766233766	190.38367244444433
0.3386613386613387	189.82350304944674
0.33966033966033965	189.26866736031158
0.34065934065934067	188.7191191898322
0.34165834165834164	188.17481208053275
0.34265734265734266	187.63569932685363
0.3436563436563437	187.10173399701014
0.34465534465534464	186.57286895451773
0.34565434565434566	186.04905687937574
0.34665334665334663	185.53025028890372
0.34765234765234765	185.0164015582237
0.34865134865134867	184.50746294038234
0.34965034965034963	184.00338658610852
0.35064935064935066	183.50412456319947
0.3516483516483517	183.00962887553268
0.35264735264735264	182.51985148169808
0.35364635364635366	182.03474431324688
0.3546453546453546	181.55425929255364
0.35564435564435565	181.07834835028854
0.35664335664335667	180.60696344249658
0.35764235764235763	180.14005656728182
0.35864135864135865	179.67757978109418
0.3596403596403596	179.21948521461758
0.36063936063936064	178.76572508825748
0.36163836163836166	178.31625172722755
0.3626373626373626	177.87101757623404
0.36363636363636365	177.42997521375813
0.3646353646353646	176.9930773659359
0.36563436563436563	176.5602769200364
0.36663336663336665	176.13152693753835
0.3676323676323676	175.7067806668068
0.36863136863136864	175.28599155536986
0.3696303696303696	174.86911326179884
0.3706293706293706	174.4560996671919
0.37162837162837165	174.0469048862639
0.3726273726273726	173.64148327804526
0.37362637362637363	173.23978945619174
0.37462537462537465	172.8417782989081
0.3756243756243756	172.4474049584894
0.37662337662337664	172.0566248704819
0.3776223776223776	171.6693937624687
0.3786213786213786	171.28566766248258
0.37962037962037964	170.90540290705073
0.3806193806193806	170.52855614887525
0.38161838161838163	170.15508436415342
0.3826173826173826	169.78494485954332
0.3836163836163836	169.41809527877825
0.38461538461538464	169.05449360893536
0.3856143856143856	168.69409818636373
0.3866133866133866	168.33686770227644
0.3876123876123876	167.98276120801248
0.3886113886113886	167.63173811997368
0.38961038961038963	167.28375822424186
0.3906093906093906	166.93878168088247
0.3916083916083916	166.5967690279399
0.3926073926073926	166.25768118513056
0.3936063936063936	165.92147945723968
0.3946053946053946	165.5881255372276
0.3956043956043956	165.2575815090517
0.3966033966033966	164.92980985021026
0.39760239760239763	164.60477343401422
0.3986013986013986	164.28243553159314
0.3996003996003996	163.96275981364153
0.4005994005994006	163.64571035191213
0.4015984015984016	163.33125162046196
0.4025974025974026	163.01934849665793
0.4035964035964036	162.70996626194844
0.4045954045954046	162.4030706024065
0.40559440559440557	162.098627609052
0.4065934065934066	161.7966037779581
0.4075924075924076	161.49696601014958
0.4085914085914086	161.1996816112978
0.4095904095904096	160.90471829121984
0.41058941058941056	160.61204416318787
0.4115884115884116	160.3216277430543
0.4125874125874126	160.03343794819978
0.41358641358641357	159.74744409630932
0.4145854145854146	159.46361590398357
0.4155844155844156	159.18192348519065
0.4165834165834166	158.90233734956445
0.4175824175824176	158.62482840055583
0.41858141858141856	158.34936793344232
0.4195804195804196	158.07592763320196
0.4205794205794206	157.80447957225698
0.42157842157842157	157.5349962080936
0.4225774225774226	157.26745038076245
0.42357642357642356	157.0018153102661
0.4245754245754246	156.73806459383826
0.4255744255744256	156.47617220312088
0.42657342657342656	156.21611248124327
0.4275724275724276	155.95786013980924
0.42857142857142855	155.701390255797
0.42957042957042957	155.44667826837667
0.4305694305694306	155.19369997565028
0.43156843156843155	154.94243153131913
0.4325674325674326	154.69284944128307
0.43356643356643354	154.444930560176
0.43456543456543456	154.1986520878426
0.4355644355644356	153.95399156576005
0.43656343656343655	153.71092687340936
0.43756243756243757	153.46943622460017
0.4385614385614386	153.22949816375308
0.43956043956043955	152.9910915621437
0.4405594405594406	152.75419561411206
0.44155844155844154	152.51878983324082
0.44255744255744256	152.2848540485063
0.4435564435564436	152.05236840040573
0.44455544455544455	151.8213133370637
0.44555444555444557	151.59166961032193
0.44655344655344653	151.3634182718146
0.44755244755244755	151.1365406690331
0.4485514485514486	150.91101844138262
0.44955044955044954	150.68683351623378
0.45054945054945056	150.46396810497188
0.4515484515484515	150.2424046990469
0.45254745254745254	150.02212606602592
0.45354645354645357	149.80311524565138
0.45454545454545453	149.58535554590708
0.45554445554445555	149.36883053909435
0.4565434565434565	149.15352405792038
0.45754245754245754	148.93942019160116
0.45854145854145856	148.72650328198063
0.4595404595404595	148.51475791966834
0.46053946053946054	148.30416894019731
0.46153846153846156	148.09472142020357
0.46253746253746253	147.88640067362957
0.46353646353646355	147.67919224795259
0.4645354645354645	147.47308192043982
0.46553446553446554	147.26805569443138
0.46653346653346656	147.06409979565302
0.4675324675324675	146.86120066855932
0.46853146853146854	146.65934497270862
0.4695304695304695	146.45851957917117
0.47052947052947053	146.25871156697102
0.47152847152847155	146.0599082195631
0.4725274725274725	145.862097021346
0.47352647352647353	145.66526565421137
0.4745254745254745	145.4694019941313
0.4755244755244755	145.27449410778334
0.47652347652347654	145.08053024921455
0.4775224775224775	144.88749885654508
0.4785214785214785	144.6953885487117
0.47952047952047955	144.50418812225175
0.4805194805194805	144.31388654812798
0.48151848151848153	144.12447296859463
0.4825174825174825	143.9359366941052
0.4835164835164835	143.74826720026203
0.48451548451548454	143.56145412480785
0.4855144855144855	143.37548726466008
0.4865134865134865	143.19035657298693
0.4875124875124875	143.0060521563266
0.4885114885114885	142.82256427174877
0.48951048951048953	142.6398833240589
0.4905094905094905	142.45799986304513
0.4915084915084915	142.27690458076768
0.4925074925074925	142.09658830889094
0.4935064935064935	141.91704201605785
0.4945054945054945	141.7382568053066
0.4955044955044955	141.5602239115294
0.4965034965034965	141.38293469897317
0.4975024975024975	141.20638065878208
0.4985014985014985	141.0305534065814
0.4995004995004995	140.8554446801025
0.5004995004995005	140.68104633684885
0.5014985014985015	140.50735035180273
0.5024975024975025	140.3343488151718
0.5034965034965035	140.16203393017605
0.5044955044955045	139.9903980108741
0.5054945054945055	139.81943348002847
0.5064935064935064	139.6491328670101
0.5074925074925075	139.47948880574089
0.5084915084915085	139.3104940326742
0.5094905094905094	139.14214138481313
0.5104895104895105	138.9744237977655
0.5114885114885115	138.80733430383577
0.5124875124875125	138.64086603015295
0.5134865134865135	138.47501219683423
0.5144855144855145	138.30976611518398
0.5154845154845155	138.14512118592708
0.5164835164835165	137.98107089747703
0.5174825174825175	137.8176088242371
0.5184815184815185	137.65472862493547
0.5194805194805194	137.49242404099274
0.5204795204795205	137.33068889492148
0.5214785214785215	137.1695170887579
0.5224775224775224	137.00890260252444
0.5234765234765235	136.84883949272316
0.5244755244755245	136.6893218908595
0.5254745254745254	136.53034400199536
0.5264735264735265	136.37190010333163
0.5274725274725275	136.21398454281925
0.5284715284715285	136.05659173779839
0.5294705294705294	135.89971617366552
0.5304695304695305	135.7433524025673
0.5314685314685315	135.58749504212116
0.5324675324675324	135.43213877416224
0.5334665334665335	135.27727834351577
0.5344655344655345	135.1229085567946
0.5354645354645354	134.9690242812215
0.5364635364635365	134.81562044347544
0.5374625374625375	134.66269202856182
0.5384615384615384	134.51023407870582
0.5394605394605395	134.35824169226822
0.5404595404595405	134.20671002268406
0.5414585414585414	134.0556342774225
0.5424575424575424	133.90500971696864
0.5434565434565435	133.75483165382565
0.5444555444555444	133.60509545153798
0.5454545454545454	133.45579652373414
0.5464535464535465	133.3069303331893
0.5474525474525475	133.15849239090716
0.5484515484515484	133.0104782552201
0.5494505494505495	132.86288353090836
0.5504495504495505	132.71570386833667
0.5514485514485514	132.56893496260855
0.5524475524475524	132.42257255273785
0.5534465534465535	132.27661242083684
0.5544455544455544	132.13105039132094
0.5554445554445554	131.98588233012921
0.5564435564435565	131.84110414396054
0.5574425574425574	131.69671177952526
0.5584415584415584	131.55270122281135
0.5594405594405595	131.40906849836568
0.5604395604395604	131.265809668589
0.5614385614385614	131.1229208330449
0.5624375624375625	130.98039812778273
0.5634365634365635	130.8382377246733
0.5644355644355644	130.6964358307576
0.5654345654345654	130.5549886876084
0.5664335664335665	130.41389257070372
0.5674325674325674	130.2731437888127
0.5684315684315684	130.13273868339272
0.5694305694305695	129.99267362799864
0.5704295704295704	129.85294502770242
0.5714285714285714	129.71354931852412
0.5724275724275725	129.57448296687335
0.5734265734265734	129.43574246900099
0.5744255744255744	129.29732435046103
0.5754245754245755	129.15922516558237
0.5764235764235764	129.0214414969501
0.5774225774225774	128.88396995489597
0.5784215784215784	128.74680717699826
0.5794205794205795	128.60994982759027
0.5804195804195804	128.47339459727783
0.5814185814185814	128.33713820246464
0.5824175824175825	128.2011773848864
0.5834165834165834	128.06550891115262
0.5844155844155844	127.93012957229648
0.5854145854145855	127.79503618333197
0.5864135864135864	127.6602255828188
0.5874125874125874	127.52569463243418
0.5884115884115884	127.39144021655184
0.5894105894105894	127.25745924182787
0.5904095904095904	127.12374863679314
0.5914085914085914	126.99030535145221
0.5924075924075924	126.85712635688876
0.5934065934065934	126.72420864487687
0.5944055944055944	126.59154922749858
0.5954045954045954	126.45914513676696
0.5964035964035964	126.32699342425525
0.5974025974025974	126.19509116073108
0.5984015984015985	126.06343543579644
0.5994005994005994	125.93202335753274
0.6003996003996004	125.80085205215084
0.6013986013986014	125.66991866364633
0.6023976023976024	125.5392203534592
0.6033966033966034	125.40875430013863
0.6043956043956044	125.27851769901196
0.6053946053946054	125.1485077618584
0.6063936063936064	125.01872171658684
0.6073926073926074	124.88915680691792
0.6083916083916084	124.75981029207018
0.6093906093906094	124.63067944645007
0.6103896103896104	124.501761559346
0.6113886113886113	124.37305393462569
0.6123876123876124	124.24455389043769
0.6133866133866134	124.1162587589161
0.6143856143856143	123.98816588588878
0.6153846153846154	123.86027263058868
0.6163836163836164	123.73257636536871
0.6173826173826173	123.60507447541947
0.6183816183816184	123.47776435849006
0.6193806193806194	123.35064342461189
0.6203796203796204	123.2237090958253
0.6213786213786214	123.09695880590881
0.6223776223776224	122.97039000011112
0.6233766233766234	122.84400013488573
0.6243756243756243	122.71778667762791
0.6253746253746254	122.59174710641425
0.6263736263736264	122.46587890974425
0.6273726273726273	122.34017958628452
0.6283716283716284	122.21464664461489
0.6293706293706294	122.08927760297662
0.6303696303696303	121.9640699890227
0.6313686313686314	121.83902133957001
0.6323676323676324	121.71412920035345
0.6333666333666333	121.58939112578182
0.6343656343656343	121.46480467869534
0.6353646353646354	121.34036743012496
0.6363636363636364	121.21607695905298
0.6373626373626373	121.09193085217557
0.6383616383616384	120.96792670366638
0.6393606393606394	120.84406211494175
0.6403596403596403	120.7203346944272
0.6413586413586414	120.596742057325
0.6423576423576424	120.47328182538325
0.6433566433566433	120.34995162666566
0.6443556443556444	120.22674909532276
0.6453546453546454	120.10367187136393
0.6463536463536463	119.98071760043041
0.6473526473526473	119.8578839335691
0.6483516483516484	119.73516852700737
0.6493506493506493	119.61256904192847
0.6503496503496503	119.49008314424758
0.6513486513486514	119.3677085043887
0.6523476523476524	119.24544279706198
0.6533466533466533	119.12328370104157
0.6543456543456544	119.00122889894396
0.6553446553446554	118.87927607700684
0.6563436563436563	118.75742292486805
0.6573426573426573	118.63566713534516
0.6583416583416584	118.51400640421492
0.6593406593406593	118.39243842999326
0.6603396603396603	118.27096091371509
0.6613386613386614	118.14957155871434
0.6623376623376623	118.02826807040404
0.6633366633366633	117.90704815605629
0.6643356643356644	117.78590952458204
0.6653346653346653	117.66484988631089
0.6663336663336663	117.5438669527706
0.6673326673326674	117.42295843646642
0.6683316683316683	117.30212205065986
0.6693306693306693	117.18135550914728
0.6703296703296703	117.06065652603797
0.6713286713286714	116.94002281553185
0.6723276723276723	116.81945209169643
0.6733266733266733	116.69894206824326
0.6743256743256744	116.57849045830368
0.6753246753246753	116.458094974204
0.6763236763236763	116.33775332723964
0.6773226773226774	116.21746322744865
0.6783216783216783	116.09722238338422
0.6793206793206793	115.97702850188618
0.6803196803196803	115.85687928785157
0.6813186813186813	115.73677244400415
0.6823176823176823	115.61670567066272
0.6833166833166833	115.4966766655082
0.6843156843156843	115.37668312334952
0.6853146853146853	115.25672273588806
0.6863136863136863	115.13679319148089
0.6873126873126874	115.01689217490234
0.6883116883116883	114.89701736710421
0.6893106893106893	114.77716644497433
0.6903096903096904	114.65733708109343
0.6913086913086913	114.5375269434903
0.6923076923076923	114.41773369539528
0.6933066933066933	114.29795499499164
0.6943056943056943	114.17818849516524
0.6953046953046953	114.05843184325212
0.6963036963036963	113.93868268078396
0.6973026973026973	113.81893864323145
0.6983016983016983	113.69919735974547
0.6993006993006993	113.57945645289588
0.7002997002997003	113.45971353840795
0.7012987012987013	113.33996622489636
0.7022977022977023	113.22021211359665
0.7032967032967034	113.10044879809404
0.7042957042957043	112.9806738640496
0.7052947052947053	112.86088488892354
0.7062937062937062	112.74107944169563
0.7072927072927073	112.62125508258283
0.7082917082917083	112.50140936275363
0.7092907092907093	112.38153982403945
0.7102897102897103	112.26164399864267
0.7112887112887113	112.14171940884131
0.7122877122877123	112.02176356669052
0.7132867132867133	111.90177397372018
0.7142857142857143	111.78174812062932
0.7152847152847153	111.66168348697641
0.7162837162837162	111.54157754086599
0.7172827172827173	111.42142773863145
0.7182817182817183	111.30123152451364
0.7192807192807192	111.18098633033526
0.7202797202797203	111.0606895751712
0.7212787212787213	110.94033866501435
0.7222777222777222	110.81993099243692
0.7232767232767233	110.69946393624713
0.7242757242757243	110.57893486114114
0.7252747252747253	110.45834111735014
0.7262737262737263	110.33768004028246
0.7272727272727273	110.21694895016043
0.7282717282717283	110.09614515165197
0.7292707292707292	109.975265933497
0.7302697302697303	109.85430856812798
0.7312687312687313	109.73327031128488
0.7322677322677322	109.61214840162435
0.7332667332667333	109.49094006032279
0.7342657342657343	109.3696424906732
0.7352647352647352	109.248252877676
0.7362637362637363	109.12676838762297
0.7372627372627373	109.0051861676748
0.7382617382617382	108.88350334543162
0.7392607392607392	108.76171702849679
0.7402597402597403	108.6398243040332
0.7412587412587412	108.51782223831233
0.7422577422577422	108.39570787625577
0.7432567432567433	108.27347824096884
0.7442557442557443	108.15113033326642
0.7452547452547452	108.02866113119042
0.7462537462537463	107.90606758951898
0.7472527472527473	107.78334663926708
0.7482517482517482	107.66049518717819
0.7492507492507493	107.53751011520687
0.7502497502497503	107.4143882799923
0.7512487512487512	107.29112651232198
0.7522477522477522	107.16772161658575
0.7532467532467533	107.04417037021976
0.7542457542457542	106.92046952314013
0.7552447552447552	106.79661579716606
0.7562437562437563	106.67260588543195
0.7572427572427572	106.54843645178855
0.7582417582417582	106.42410413019246
0.7592407592407593	106.29960552408407
0.7602397602397603	106.17493720575325
0.7612387612387612	106.05009571569286
0.7622377622377622	105.9250775619394
0.7632367632367633	105.79987921940065
0.7642357642357642	105.67449712916992
0.7652347652347652	105.54892769782656
0.7662337662337663	105.42316729672224
0.7672327672327672	105.29721226125277
0.7682317682317682	105.17105889011503
0.7692307692307693	105.04470344454863
0.7702297702297702	104.91814214756165
0.7712287712287712	104.79137118314053
0.7722277722277723	104.664386695443
0.7732267732267732	104.53718478797423
0.7742257742257742	104.40976152274517
0.7752247752247752	104.28211291941334
0.7762237762237763	104.15423495440446
0.7772227772227772	104.02612356001565
0.7782217782217782	103.89777462349865
0.7792207792207793	103.76918398612311
0.7802197802197802	103.64034744221917
0.7812187812187812	103.51126073819874
0.7822177822177823	103.38191957155504
0.7832167832167832	103.25231958983943
0.7842157842157842	103.12245638961521
0.7852147852147852	102.99232551538775
0.7862137862137862	102.86192245850982
0.7872127872127872	102.73124265606221
0.7882117882117882	102.60028148970791
0.7892107892107892	102.46903428451996
0.7902097902097902	102.33749630778166
0.7912087912087912	102.20566276775872
0.7922077922077922	102.07352881244205
0.7932067932067932	101.94108952826075
0.7942057942057942	101.80833993876425
0.7952047952047953	101.67527500327272
0.7962037962037962	101.54188961549457
0.7972027972027972	101.40817860211043
0.7982017982017982	101.27413672132234
0.7992007992007992	101.13975866136722
0.8001998001998002	101.00503903899329
0.8011988011988012	100.86997239789856
0.8021978021978022	100.73455320713033
0.8031968031968032	100.59877585944409
0.8041958041958042	100.46263466962071
0.8051948051948052	100.326123872741
0.8061938061938062	100.18923762241567
0.8071928071928072	100.05196998896983
0.8081918081918081	99.91431495758019
0.8091908091908092	99.77626642636365
0.8101898101898102	99.63781820441584
0.8111888111888111	99.4989640097977
0.8121878121878122	99.35969746746872
0.8131868131868132	99.22001210716489
0.8141858141858141	99.07990136121963
0.8151848151848152	98.93935856232596
0.8161838161838162	98.7983769412377
0.8171828171828172	98.65694962440801
0.8181818181818182	98.51506963156288
0.8191808191808192	98.37272987320755
0.8201798201798202	98.22992314806373
0.8211788211788211	98.08664214043506
0.8221778221778222	97.94287941749829
0.8231768231768232	97.798627426518
0.8241758241758241	97.65387849198208
0.8251748251748252	97.50862481265506
0.8261738261738262	97.36285845854655
0.8271728271728271	97.21657136779214
0.8281718281718282	97.069755343443
0.8291708291708292	96.92240205016166
0.8301698301698301	96.77450301082023
0.8311688311688312	96.62604960299771
0.8321678321678322	96.47703305537291
0.8331668331668332	96.32744444400879
0.8341658341658341	96.17727468852469
0.8351648351648352	96.02651454815239
0.8361638361638362	95.87515461767131
0.8371628371628371	95.7231853232188
0.8381618381618382	95.57059691797068
0.8391608391608392	95.41737947768733
0.8401598401598401	95.2635228961201
0.8411588411588412	95.10901688027289
0.8421578421578422	94.95385094551342
0.8431568431568431	94.79801441052831
0.8441558441558441	94.64149639211603
0.8451548451548452	94.48428579981153
0.8461538461538461	94.32637133033587
0.8471528471528471	94.16774146186403
0.8481518481518482	94.0083844481037
0.8491508491508492	93.84828831217774
0.8501498501498501	93.68744084030209
0.8511488511488512	93.52582957525138
0.8521478521478522	93.36344180960323
0.8531468531468531	93.20026457875252
0.8541458541458542	93.03628465368607
0.8551448551448552	92.87148853350784
0.8561438561438561	92.70586243770443
0.8571428571428571	92.53939229813983
0.8581418581418582	92.37206375076829
0.8591408591408591	92.20386212705304
0.8601398601398601	92.03477244507859
0.8611388611388612	91.8647794003433
0.8621378621378621	91.69386735621866
0.8631368631368631	91.5220203340604
0.8641358641358642	91.34922200295644
0.8651348651348651	91.17545566909544
0.8661338661338661	91.00070426473943
0.8671328671328671	90.82495033678244
0.8681318681318682	90.64817603487666
0.8691308691308691	90.47036309910645
0.8701298701298701	90.29149284718952
0.8711288711288712	90.11154616118348
0.8721278721278721	89.9305034736749
0.8731268731268731	89.74834475342644
0.8741258741258742	89.56504949045683
0.8751248751248751	89.38059668052661
0.8761238761238761	89.19496480900116
0.8771228771228772	89.00813183406115
0.8781218781218781	88.8200751692285
0.8791208791208791	88.63077166517475
0.8801198801198801	88.44019759077595
0.8811188811188811	88.24832861337696
0.8821178821178821	88.05513977822532
0.8831168831168831	87.86060548703291
0.8841158841158842	87.66469947562074
0.8851148851148851	87.46739479060015
0.8861138861138861	87.2686637650401
0.8871128871128872	87.06847799306794
0.8881118881118881	86.86680830334737
0.8891108891108891	86.66362473137393
0.8901098901098901	86.45889649052491
0.8911088911088911	86.25259194179617
0.8921078921078921	86.04467856215436
0.8931068931068931	85.83512291142873
0.8941058941058941	85.62389059766119
0.8951048951048951	85.41094624082862
0.8961038961038961	85.19625343484537
0.8971028971028971	84.97977470774819
0.8981018981018981	84.76147147995904
0.8991008991008991	84.54130402051416
0.9000999000999002	84.31923140114054
0.9010989010989011	84.0952114480523
0.9020979020979021	83.8692006913312
0.903096903096903	83.64115431174544
0.9040959040959041	83.41102608485123
0.9050949050949051	83.17876832220986
0.906093906093906	82.94433180954161
0.9070929070929071	82.70766574162448
0.9080919080919081	82.46871765373156
0.9090909090909091	82.22743334938595
0.9100899100899101	81.98375682419513
0.9110889110889111	81.73763018550899
0.9120879120879121	81.48899356762594
0.913086913086913	81.23778504225015
0.9140859140859141	80.98394052388026
0.9150849150849151	80.72739366978388
0.916083916083916	80.46807577418518
0.9170829170829171	80.20591565626229
0.9180819180819181	79.94083954151881
0.919080919080919	79.67277093605716
0.9200799200799201	79.40163049324252
0.9210789210789211	79.1273358722022
0.922077922077922	78.84980158755843
0.9230769230769231	78.56893884974043
0.9240759240759241	78.28465539516311
0.9250749250749251	77.9968553054981
0.926073926073926	77.70543881519221
0.9270729270729271	77.4103021063115
0.9280719280719281	77.11133708970497
0.929070929070929	76.8084311713867
0.9300699300699301	76.5014670029324
0.9310689310689311	76.19032221456978
0.932067932067932	75.8748691295145
0.9330669330669331	75.55497445796067
0.9340659340659341	75.23049896897555
0.935064935064935	74.90129713837153
0.936063936063936	74.56721677042948
0.9370629370629371	74.22809859112712
0.938061938061938	73.88377581027653
0.939060939060939	73.53407364969748
0.9400599400599401	73.17880883423868
0.9410589410589411	72.81778904210726
0.942057942057942	72.45081231056787
0.9430569430569431	72.07766639262296
0.9440559440559441	71.6981280597763
0.945054945054945	71.31196234540339
0.9460539460539461	70.9189217225945
0.9470529470529471	70.51874520958765
0.948051948051948	70.11115739505264
0.949050949050949	69.69586737450908
0.9500499500499501	69.27256758803762
0.951048951048951	68.84093254815353
0.952047952047952	68.40061744522298
0.9530469530469531	67.95125661608289
0.954045954045954	67.4924618595328
0.955044955044955	67.0238205800517
0.9560439560439561	66.54489373839445
0.957042957042957	66.05521358456923
0.958041958041958	65.55428114499934
0.9590409590409591	65.04156343132298
0.9600399600399601	64.51649033314995
0.961038961038961	63.97845115101126
0.962037962037962	63.42679071850573
0.9630369630369631	62.860805054013
0.964035964035964	62.27973647199419
0.965034965034965	61.68276807144266
0.9660339660339661	61.06901750398187
0.967032967032967	60.437529905801846
0.968031968031968	59.78726985527021
0.9690309690309691	59.117112190608864
0.97002997002997	58.42583148814342
0.971028971028971	57.71208995954904
0.972027972027972	56.9744234739198
0.973026973026973	56.21122534430834
0.974025974025974	55.42072743451421
0.975024975024975	54.600978034799255
0.9760239760239761	53.74981581732108
0.977022977022977	52.86483900298446
0.978021978021978	51.94336863659878
0.9790209790209791	50.98240455620721
0.98001998001998	49.97857222591542
0.981018981018981	48.92805803697053
0.9820179820179821	47.82652990653905
0.983016983016983	46.66903892359485
0.984015984015984	45.44989626287804
0.985014985014985	44.16251738681539
0.986013986013986	42.799222323551206
0.987012987012987	41.35097596010855
0.988011988011988	39.807044833536175
0.989010989010989	38.15453511486155
0.99000999000999	36.37775724013086
0.991008991008991	34.45733005528131
0.9920079920079921	32.3688796991961
0.993006993006993	30.081081072213305
0.994005994005994	27.552576737902946
0.995004995004995	24.72685125967058
0.996003996003996	21.52305602250554
0.997002997002997	17.817845876563972
0.998001998001998	13.403686975312448
0.999000999000999	7.866849228028989
1.	0.