<?xml version="1.0" encoding="UTF-8" standalone="no"?>
<!-- Created with Inkscape (http://www.inkscape.org/) -->

<svg
   xmlns:dc="http://purl.org/dc/elements/1.1/"
   xmlns:cc="http://creativecommons.org/ns#"
   xmlns:rdf="http://www.w3.org/1999/02/22-rdf-syntax-ns#"
   xmlns:svg="http://www.w3.org/2000/svg"
   xmlns="http://www.w3.org/2000/svg"
   xmlns:sodipodi="http://sodipodi.sourceforge.net/DTD/sodipodi-0.dtd"
   xmlns:inkscape="http://www.inkscape.org/namespaces/inkscape"
   id="svg2"
   version="1.1"
   inkscape:version="0.48.4 r9939"
   width="558.75"
   height="291.25"
   xml:space="preserve"
   sodipodi:docname="coord3.pdf"><metadata
     id="metadata8"><rdf:RDF><cc:Work
         rdf:about=""><dc:format>image/svg+xml</dc:format><dc:type
           rdf:resource="http://purl.org/dc/dcmitype/StillImage" /><dc:title></dc:title></cc:Work></rdf:RDF></metadata><defs
     id="defs6"><clipPath
       clipPathUnits="userSpaceOnUse"
       id="clipPath18"><path
         d="m 19,197 325,0 0,-186 -325,0 0,186 z"
         id="path20" /></clipPath><clipPath
       clipPathUnits="userSpaceOnUse"
       id="clipPath28"><path
         d="m 25,14 314,0 0,177 -314,0 0,-177 z"
         id="path30" /></clipPath><clipPath
       clipPathUnits="userSpaceOnUse"
       id="clipPath38"><path
         d="m 25,191 314,0 0,-177 -314,0 0,177 z"
         id="path40" /></clipPath><clipPath
       clipPathUnits="userSpaceOnUse"
       id="clipPath48"><path
         d="m 25,14 314,0 0,177 -314,0 0,-177 z"
         id="path50" /></clipPath><clipPath
       clipPathUnits="userSpaceOnUse"
       id="clipPath64"><path
         d="m 19,212 325,0 0,-201 -325,0 0,201 z"
         id="path66" /></clipPath><clipPath
       clipPathUnits="userSpaceOnUse"
       id="clipPath74"><path
         d="m 25,14 314,0 0,195 -314,0 0,-195 z"
         id="path76" /></clipPath><clipPath
       clipPathUnits="userSpaceOnUse"
       id="clipPath84"><path
         d="m 25,209 314,0 0,-195 -314,0 0,195 z"
         id="path86" /></clipPath><clipPath
       clipPathUnits="userSpaceOnUse"
       id="clipPath94"><path
         d="m 25,14 314,0 0,195 -314,0 0,-195 z"
         id="path96" /></clipPath><clipPath
       clipPathUnits="userSpaceOnUse"
       id="clipPath106"><path
         d="m 21,212 321,0 0,-200 -321,0 0,200 z"
         id="path108" /></clipPath><clipPath
       clipPathUnits="userSpaceOnUse"
       id="clipPath116"><path
         d="m 25,15 310,0 0,218 -310,0 0,-218 z"
         id="path118" /></clipPath><clipPath
       clipPathUnits="userSpaceOnUse"
       id="clipPath126"><path
         d="m 28,233 307,0 0,-212 -307,0 0,212 z"
         id="path128" /></clipPath><clipPath
       clipPathUnits="userSpaceOnUse"
       id="clipPath136"><path
         d="m 28,21 307,0 0,212 -307,0 0,-212 z"
         id="path138" /></clipPath><clipPath
       clipPathUnits="userSpaceOnUse"
       id="clipPath250"><path
         d="m 350,133.199 20,0 0,-3 -20,0 0,3 z"
         id="path252" /></clipPath><clipPath
       clipPathUnits="userSpaceOnUse"
       id="clipPath260"><path
         d="m 350,130 19,0 0,3 -19,0 0,-3 z"
         id="path262" /></clipPath><clipPath
       clipPathUnits="userSpaceOnUse"
       id="clipPath270"><path
         d="m 350,133 19,0 0,-3 -19,0 0,3 z"
         id="path272" /></clipPath><clipPath
       clipPathUnits="userSpaceOnUse"
       id="clipPath280"><path
         d="m 350,130 19,0 0,3 -19,0 0,-3 z"
         id="path282" /></clipPath><clipPath
       clipPathUnits="userSpaceOnUse"
       id="clipPath292"><path
         d="m 349.949,90.086 20,0 0,-3 -20,0 0,3 z"
         id="path294" /></clipPath><clipPath
       clipPathUnits="userSpaceOnUse"
       id="clipPath302"><path
         d="m 349,87 20,0 0,3 -20,0 0,-3 z"
         id="path304" /></clipPath><clipPath
       clipPathUnits="userSpaceOnUse"
       id="clipPath312"><path
         d="m 349,90 20,0 0,-3 -20,0 0,3 z"
         id="path314" /></clipPath><clipPath
       clipPathUnits="userSpaceOnUse"
       id="clipPath322"><path
         d="m 349,87 20,0 0,3 -20,0 0,-3 z"
         id="path324" /></clipPath></defs><sodipodi:namedview
     pagecolor="#ffffff"
     bordercolor="#666666"
     borderopacity="1"
     objecttolerance="10"
     gridtolerance="10"
     guidetolerance="10"
     inkscape:pageopacity="0"
     inkscape:pageshadow="2"
     inkscape:window-width="1301"
     inkscape:window-height="744"
     id="namedview4"
     showgrid="false"
     inkscape:zoom="2.190604"
     inkscape:cx="210.67408"
     inkscape:cy="87.093393"
     inkscape:window-x="65"
     inkscape:window-y="24"
     inkscape:window-maximized="1"
     inkscape:current-layer="g10" /><g
     id="g10"
     inkscape:groupmode="layer"
     inkscape:label="coord3"
     transform="matrix(1.25,0,0,-1.25,0,291.25)"><g
       id="g12" /><g
       id="g14"><g
         id="g16"
         clip-path="url(#clipPath18)"><g
           id="g22"><g
             id="g24"><g
               id="g26"
               clip-path="url(#clipPath28)"><g
                 id="g32" /><g
                 id="g34"><g
                   id="g36"
                   clip-path="url(#clipPath38)"><g
                     id="g42"><g
                       id="g44"><g
                         id="g46"
                         clip-path="url(#clipPath48)"><g
                           id="g52"><path
                             d="m 26.312,15.465 0.309,28.883 0.313,22.156 0.312,17.801 0.309,14.636 0.312,12.215 0.313,10.317 0.308,8.781 0.313,7.535 0.312,6.5 0.309,5.633 0.312,4.906 0.313,4.285 0.308,3.754 0.313,3.297 0.312,2.906 0.309,2.563 0.313,2.262 0.312,2 0.309,1.769 0.312,1.566 0.313,1.387 0.308,1.227 0.313,1.082 0.312,0.961 0.309,0.843 0.312,0.743 0.313,0.652 0.308,0.57 0.313,0.496 0.312,0.43 0.309,0.371 0.313,0.313 0.312,0.265 0.309,0.219 0.312,0.18 0.313,0.14 0.308,0.11 0.313,0.074 0.312,0.047 0.309,0.023 0.312,-0.004 0.313,-0.023 0.308,-0.043 0.313,-0.066 0.312,-0.079 0.309,-0.097 0.313,-0.11 0.312,-0.125 0.309,-0.132 0.312,-0.149 0.313,-0.156 0.308,-0.168 0.313,-0.18 0.312,-0.183 0.309,-0.192 0.312,-0.199 0.313,-0.207 0.308,-0.211 0.313,-0.219 0.312,-0.222 0.309,-0.231 0.312,-0.23 0.313,-0.239 0.309,-0.238 0.625,-0.492 0.308,-0.254 0.625,-0.508 0.309,-0.261 0.625,-0.524 0.308,-0.266 0.625,-0.539 0.309,-0.269 0.625,-0.547 0.309,-0.273 0.625,-0.555 0.308,-0.277 0.313,-0.282 0.312,-0.277 0.309,-0.281 0.312,-0.282 0.313,-0.285 0.308,-0.281 0.313,-0.285 0.312,-0.281 0.309,-0.286 0.625,-0.57 0.308,-0.285 0.626,-0.57 0.308,-0.289 0.625,-0.571 0.309,-0.289 0.312,-0.285 0.313,-0.289 0.308,-0.285 0.313,-0.289 0.312,-0.285 0.309,-0.286 0.312,-0.289 0.313,-0.285 0.308,-0.289 0.313,-0.285 0.312,-0.289 0.309,-0.285 0.625,-0.57 0.309,-0.29 0.625,-0.57 0.308,-0.285 0.625,-0.57 0.309,-0.285 0.312,-0.282 0.313,-0.285 0.308,-0.285 0.313,-0.281 0.312,-0.285 0.309,-0.282 0.313,-0.285 0.312,-0.281 0.309,-0.281 0.625,-0.563 0.308,-0.281 0.625,-0.563 0.309,-0.281 0.312,-0.277 0.313,-0.281 0.308,-0.278 0.625,-0.554 0.309,-0.278 0.625,-0.555 0.309,-0.277 0.312,-0.273 0.313,-0.278 0.308,-0.273 0.313,-0.277 0.312,-0.274 0.309,-0.273 0.312,-0.274 0.313,-0.269 0.308,-0.274 0.313,-0.269 0.312,-0.274 0.309,-0.269 0.625,-0.539 0.309,-0.27 0.312,-0.269 0.313,-0.266 0.308,-0.269 0.625,-0.532 0.309,-0.265 0.625,-0.532 0.308,-0.261 0.313,-0.266 0.312,-0.262 0.309,-0.261 0.625,-0.524 0.309,-0.262 0.312,-0.257 0.313,-0.262 0.308,-0.258 0.625,-0.515 0.309,-0.258 0.312,-0.254 0.313,-0.258 0.308,-0.254 0.625,-0.508 0.309,-0.254 0.312,-0.25 0.313,-0.254 0.309,-0.25 0.624,-0.5 0.309,-0.25 0.313,-0.246 0.312,-0.25 0.309,-0.246 0.625,-0.492 0.308,-0.246 0.625,-0.484 0.309,-0.246 0.312,-0.243 0.313,-0.238 0.308,-0.242 0.313,-0.238 0.312,-0.243 0.309,-0.238 0.313,-0.234 0.312,-0.239 0.309,-0.238 0.625,-0.469 0.308,-0.234 0.313,-0.234 0.312,-0.231 0.309,-0.234 0.625,-0.461 0.308,-0.227 0.313,-0.23 0.312,-0.227 0.309,-0.226 0.625,-0.453 0.309,-0.227 0.625,-0.445 0.308,-0.223 0.625,-0.445 0.309,-0.219 0.625,-0.438 0.308,-0.218 0.313,-0.215 0.312,-0.219 0.309,-0.215 0.625,-0.429 0.309,-0.211 0.312,-0.211 0.313,-0.215 0.308,-0.207 0.625,-0.422 0.309,-0.207 0.625,-0.414 0.308,-0.207 0.625,-0.406 0.309,-0.204 0.625,-0.406 0.309,-0.199 0.312,-0.203 0.313,-0.199 0.308,-0.196 0.625,-0.398 0.309,-0.195 0.625,-0.391 0.308,-0.191 0.313,-0.192 0.312,-0.195 0.309,-0.192 0.312,-0.187 0.313,-0.191 0.309,-0.188 0.625,-0.375 0.308,-0.187 0.313,-0.188 0.312,-0.184 0.309,-0.183 0.625,-0.367 0.308,-0.18 0.313,-0.184 0.312,-0.179 0.309,-0.18 0.312,-0.176 0.313,-0.179 0.308,-0.176 0.626,-0.352 0.308,-0.176 0.313,-0.171 0.312,-0.176 0.309,-0.172 0.312,-0.172 0.313,-0.168 0.308,-0.172 0.625,-0.336 0.309,-0.168 0.625,-0.336 0.308,-0.164 0.625,-0.328 0.309,-0.164 0.313,-0.164 0.312,-0.16 0.309,-0.16 0.625,-0.321 0.308,-0.16 0.313,-0.156 0.312,-0.16 0.309,-0.156 0.312,-0.157 0.313,-0.152 0.308,-0.156 0.625,-0.305 0.309,-0.152 0.625,-0.305 0.309,-0.148 0.312,-0.153 0.313,-0.148 0.308,-0.149 0.313,-0.148 0.312,-0.145 0.309,-0.148 0.625,-0.289 0.308,-0.145 0.313,-0.144 0.312,-0.141 0.309,-0.144 0.625,-0.282 0.309,-0.14 0.312,-0.141 0.313,-0.137 0.308,-0.14 0.625,-0.274 0.309,-0.136 0.312,-0.137 0.313,-0.133 0.308,-0.137 0.625,-0.265 0.309,-0.133 0.625,-0.266 0.309,-0.129 0.312,-0.132 0.313,-0.129 0.308,-0.129 0.625,-0.258 0.309,-0.125 0.312,-0.129 0.313,-0.125 0.308,-0.125 0.625,-0.25 0.309,-0.125 0.312,-0.125 0.313,-0.121 0.309,-0.121 0.312,-0.125 0.313,-0.121 0.308,-0.121 0.313,-0.117 0.312,-0.122 0.309,-0.121 0.625,-0.234 0.308,-0.117 0.625,-0.235 0.309,-0.117 0.312,-0.117 0.313,-0.113 0.309,-0.114 0.312,-0.117 0.312,-0.113 0.309,-0.113 0.313,-0.114 0.312,-0.109 0.309,-0.113 0.312,-0.11 0.313,-0.113 0.308,-0.109 0.625,-0.219 0.309,-0.109 0.625,-0.219 0.308,-0.106 0.313,-0.109 0.312,-0.105 0.309,-0.106 0.625,-0.211 0.309,-0.105 0.625,-0.211 0.308,-0.102 0.313,-0.105 0.312,-0.102 0.309,-0.101 0.625,-0.203 0.308,-0.102 0.625,-0.203 0.309,-0.102 0.313,-0.097 0.312,-0.102 0.309,-0.098 0.625,-0.195 0.308,-0.098 0.625,-0.195 0.309,-0.098 0.312,-0.097 0.313,-0.094 0.308,-0.098 0.625,-0.187 0.309,-0.098 0.625,-0.187 0.309,-0.094 0.312,-0.094 0.313,-0.09 0.308,-0.093 0.313,-0.094 0.312,-0.09 0.309,-0.094 0.625,-0.179 0.308,-0.09 0.313,-0.09 0.312,-0.094 0.309,-0.086 0.625,-0.179 0.309,-0.09 0.312,-0.086 0.313,-0.09 0.308,-0.09 0.625,-0.172 0.309,-0.09 0.625,-0.172 0.308,-0.085 0.625,-0.172 0.309,-0.086 0.312,-0.082 0.313,-0.086 0.309,-0.086 0.312,-0.082 0.313,-0.086 0.308,-0.082 0.313,-0.082 0.312,-0.086 0.309,-0.082 0.625,-0.164 0.308,-0.082 0.625,-0.164 0.309,-0.082 0.312,-0.079 0.313,-0.082 0.308,-0.082 0.313,-0.078 0.313,-0.082 0.308,-0.078 0.313,-0.082 0.312,-0.078 0.309,-0.078 0.312,-0.078 0.313,-0.082 0.308,-0.078 0.625,-0.157 0.309,-0.078 0.312,-0.078 0.313,-0.074 0.308,-0.078 0.313,-0.078 0.312,-0.075 0.309,-0.078 0.313,-0.078 0.312,-0.074 0.309,-0.078 0.625,-0.149 0.308,-0.078 0.625,-0.148 0.309,-0.074 0.625,-0.149 0.308,-0.074 0.625,-0.148 0.309,-0.075 0.625,-0.148 0.309,-0.07 0.625,-0.149 0.308,-0.07 0.313,-0.074 0.312,-0.071 0.309,-0.074 0.625,-0.141 0.308,-0.074 0.625,-0.14 0.309,-0.071 0.312,-0.074 0.313,-0.07 0.309,-0.071 0.625,-0.14 0.308,-0.071 0.625,-0.14 0.309,-0.067 0.625,-0.14 0.308,-0.07 0.313,-0.067 0.312,-0.07 0.309,-0.071 0.312,-0.066 0.313,-0.07 0.309,-0.067 0.312,-0.07 0.313,-0.066 0.308,-0.071 0.625,-0.132 0.309,-0.071 0.625,-0.133 0.308,-0.066 0.313,-0.07 0.312,-0.067 0.309,-0.066 0.625,-0.133 0.309,-0.066 0.625,-0.133 0.308,-0.067 0.625,-0.132 0.309,-0.063 0.625,-0.133 0.308,-0.066 0.313,-0.067 0.312,-0.062 0.309,-0.066 0.312,-0.067 0.313,-0.062 0.309,-0.067 0.312,-0.062 0.312,-0.067 0.309,-0.066 0.313,-0.063 0.312,-0.066 0.309,-0.062 0.312,-0.063 0.313,-0.066 0.308,-0.063 0.313,-0.066 0.312,-0.063 0.309,-0.062 0.312,-0.067 0.313,-0.062 0.308,-0.063 0.313,-0.062 0.312,-0.067 0.309,-0.062 0.625,-0.125 0.309,-0.063 0.625,-0.125 0.312,-0.066 0.309,-0.062 0.625,-0.126 0.308,-0.062 0.625,-0.125 0.309,-0.063 0.312,-0.062 0.313,-0.059 0.309,-0.062 0.625,-0.125 0.308,-0.063 0.625,-0.125 0.309,-0.058 0.625,-0.125 0.308,-0.063 0.313,-0.058 0.312,-0.063 0.309,-0.062 0.312,-0.063 0.313,-0.058 0.309,-0.063 0.312,-0.062 0.312,-0.059 0.309,-0.062 0.313,-0.063 0.312,-0.059 0.309,-0.062 0.312,-0.063 0.313,-0.058 0.308,-0.063 0.313,-0.058 0.312,-0.063 0.309,-0.058 0.312,-0.063 0.313,-0.058 0.308,-0.063 0.313,-0.062 0.312,-0.059 0.309,-0.063 0.313,-0.058 0.312,-0.063 0.309,-0.058 0.312,-0.063 0.313,-0.058 0.308,-0.059 0.313,-0.062 0.312,-0.059 0.309,-0.063 0.312,-0.058 0.313,-0.063 0.308,-0.058 0.313,-0.063 0.312,-0.058 0.309,-0.059 0.313,-0.062 0.312,-0.059 0.309,-0.062 0.625,-0.118 0.308,-0.062 0.313,-0.059 0.312,-0.062 0.309,-0.059 0.312,-0.058 0.313,-0.063 0.308,-0.059 0.313,-0.062 0.312,-0.059 0.309,-0.058 0.313,-0.063 0.312,-0.058 0.309,-0.063 0.625,-0.117 0.308,-0.062 0.313,-0.059 0.312,-0.063 0.309,-0.058 0.312,-0.059 0.313,-0.062 0.308,-0.059 0.313,-0.062 0.312,-0.059 0.309,-0.062 0.625,-0.118 0.309,-0.062 0.312,-0.059 0.313,-0.062 0.308,-0.059 0.313,-0.062 0.312,-0.059 0.309,-0.062 0.312,-0.059 0.313,-0.063 0.308,-0.058 0.313,-0.063 0.312,-0.058 0.309,-0.063 0.312,-0.058 0.313,-0.063 0.309,-0.058 0.625,-0.125 0.308,-0.059 0.313,-0.063 0.312,-0.058 0.309,-0.063 0.312,-0.062 0.313,-0.059 0.308,-0.062 0.313,-0.063 0.312,-0.058 0.309,-0.063 0.312,-0.062 0.313,-0.059 0.308,-0.062 0.626,-0.125 0.308,-0.059 0.625,-0.125 0.309,-0.062 0.625,-0.125 0.308,-0.063 0.313,-0.062 0.312,-0.059 0.309,-0.063 0.625,-0.125 0.308,-0.062 0.625,-0.125 0.309,-0.066 0.625,-0.125 0.309,-0.063 0.625,-0.125 0.308,-0.062 0.313,-0.067 0.312,-0.062 0.309,-0.063 0.312,-0.066 0.313,-0.063 0.308,-0.062 0.313,-0.067 0.312,-0.062 0.309,-0.067 0.313,-0.062 0.312,-0.066 0.309,-0.063 0.312,-0.066 0.313,-0.063 0.308,-0.066 0.313,-0.067 0.312,-0.062 0.309,-0.067 0.625,-0.132 0.308,-0.063 0.625,-0.133 0.309,-0.066 0.625,-0.133 0.309,-0.066 0.625,-0.133 0.308,-0.07 0.625,-0.133 0.309,-0.067 0.312,-0.07 0.313,-0.066 0.308,-0.067 0.313,-0.07 0.312,-0.067 0.309,-0.07 0.312,-0.07 0.313,-0.067 0.309,-0.07 0.312,-0.07 0.313,-0.067 0.308,-0.07 0.625,-0.141 0.309,-0.07 0.625,-0.141 0.308,-0.07 0.313,-0.074 0.312,-0.07 0.309,-0.071 0.312,-0.074 0.313,-0.07 0.309,-0.071 0.625,-0.148 0.308,-0.07 0.625,-0.149 0.309,-0.074 0.625,-0.148 0.308,-0.075 0.625,-0.148 0.309,-0.074 0.312,-0.078 0.313,-0.075 0.309,-0.078 0.312,-0.074 0.312,-0.078 0.309,-0.074 0.625,-0.157 0.309,-0.078 0.625,-0.156 0.308,-0.078 0.313,-0.082 0.312,-0.078 0.309,-0.082 0.312,-0.078 0.313,-0.082 0.308,-0.078 0.625,-0.165 0.309,-0.082 0.313,-0.082 0.312,-0.086 0.309,-0.082 0.312,-0.082 0.313,-0.086 0.308,-0.082 0.625,-0.171 0.309,-0.086 0.625,-0.172 0.308,-0.09 0.313,-0.086 0.312,-0.09 0.309,-0.086 0.625,-0.18 0.309,-0.089 0.312,-0.09 0.313,-0.094 0.308,-0.09 0.313,-0.094 0.312,-0.089 0.309,-0.094 0.625,-0.188 0.308,-0.097 0.313,-0.094 0.312,-0.098 0.309,-0.097 0.625,-0.196 0.309,-0.097 0.312,-0.098 0.313,-0.102 0.308,-0.101 0.625,-0.203 0.309,-0.102 0.625,-0.211 0.308,-0.105 0.625,-0.211 0.309,-0.11 0.312,-0.105 0.313,-0.109 0.309,-0.114 0.312,-0.109 0.313,-0.113 0.308,-0.114 0.625,-0.226 0.309,-0.117 0.625,-0.235 0.308,-0.117 0.625,-0.242 0.309,-0.121 0.625,-0.25 0.309,-0.125 0.312,-0.125 0.313,-0.129 0.308,-0.129 0.313,-0.133 0.312,-0.129 0.309,-0.136 0.312,-0.133 0.313,-0.137 0.308,-0.137 0.625,-0.281 0.309,-0.141 0.625,-0.289 0.308,-0.148 0.313,-0.148 0.313,-0.153 0.308,-0.152 0.313,-0.153 0.312,-0.156 0.309,-0.16 0.312,-0.16 0.313,-0.164 0.308,-0.164 0.625,-0.336 0.309,-0.172 0.312,-0.172 0.313,-0.18 0.308,-0.175 0.625,-0.368 0.309,-0.187 0.625,-0.383 0.309,-0.195 0.312,-0.203 0.313,-0.199 0.308,-0.208 0.313,-0.21 0.312,-0.215 0.309,-0.215 0.625,-0.445 0.308,-0.231 0.313,-0.234 0.312,-0.239 0.309,-0.242 0.625,-0.5 0.309,-0.261 0.312,-0.262 0.313,-0.27 0.308,-0.277 0.313,-0.281 0.312,-0.289 0.309,-0.293 0.312,-0.305 0.313,-0.309 0.308,-0.32 0.313,-0.324 0.312,-0.336 0.309,-0.344 0.312,-0.351 0.313,-0.364 0.309,-0.375 0.312,-0.386 0.313,-0.395 0.308,-0.41 0.313,-0.422 0.312,-0.437 0.309,-0.454 0.312,-0.464 0.313,-0.485 0.308,-0.504 0.313,-0.519 0.312,-0.543 0.309,-0.567 0.312,-0.586 0.313,-0.613 0.309,-0.644 0.312,-0.672 0.313,-0.703 0.308,-0.739 0.313,-0.777 0.312,-0.82 0.309,-0.871 0.312,-0.918 0.313,-0.977 0.308,-1.039 0.313,-1.113 0.312,-1.192 0.309,-1.285 0.312,-1.391 0.313,-1.511 0.309,-1.653 0.312,-1.82 0.313,-2.019 0.308,-2.266 0.313,-2.574 0.312,-2.977 0.309,-3.523 0.312,-4.352 0.313,-5.902"
                             style="fill:none;stroke:#fd0000;stroke-opacity:1;stroke-width:1.6;stroke-linecap:square;stroke-linejoin:miter;stroke-miterlimit:3.25;stroke-dasharray:none"
                             id="path54" /></g></g></g></g></g></g></g></g></g></g></g><g
       id="g56"
       transform="translate(4.8,-1.6)"><path
         d="m 29.113,201.973 3.117,-5.989 3.114,-4.535 3.117,-3.91 3.113,-3.559 3.117,-3.343 3.114,-3.199 3.117,-3.086 3.113,-3 3.117,-2.93 3.114,-2.863 3.117,-2.801 3.113,-2.735 3.117,-2.671 3.114,-2.602 3.113,-2.527 3.117,-2.45 3.113,-2.371 3.118,-2.293 3.113,-2.207 3.117,-2.125 3.113,-2.039 3.117,-1.957 3.114,-1.875 3.117,-1.797 3.113,-1.718 3.117,-1.645 3.114,-1.574 3.117,-1.508 3.113,-1.441 3.113,-1.379 3.118,-1.321 3.113,-1.269 3.117,-1.215 3.113,-1.168 3.118,-1.121 3.113,-1.082 3.117,-1.039 3.113,-1.004 3.117,-0.965 3.114,-0.937 3.117,-0.903 3.113,-0.875 3.117,-0.851 3.114,-0.824 3.113,-0.801 3.117,-0.778 3.113,-0.761 3.118,-0.742 3.113,-0.723 3.117,-0.711 3.113,-0.695 3.118,-0.68 3.113,-0.668 3.117,-0.66 3.113,-0.645 3.117,-0.64 3.114,-0.629 3.117,-0.625 3.113,-0.617 3.114,-0.61 3.117,-0.609 3.113,-0.606 3.117,-0.601 3.113,-0.602 3.118,-0.597 3.113,-0.602 3.117,-0.602 3.113,-0.605 3.118,-0.609 3.113,-0.614 3.117,-0.621 3.113,-0.629 3.114,-0.64 3.117,-0.649 3.113,-0.664 3.117,-0.676 3.114,-0.699 3.117,-0.719 3.113,-0.738 3.117,-0.769 3.114,-0.805 3.117,-0.84 3.113,-0.887 3.117,-0.937 3.113,-1 3.118,-1.078 3.113,-1.168 3.113,-1.285 3.117,-1.43 3.114,-1.621 3.117,-1.871 3.113,-2.227 3.117,-2.75 3.114,-3.586 3.117,-5.101 3.113,-8.555 3.117,-23.016"
         style="fill:none;stroke:#fd0000;stroke-width:1.60000002;stroke-linecap:square;stroke-linejoin:miter;stroke-miterlimit:3.25;stroke-opacity:0.5;stroke-dasharray:4, 4;stroke-dashoffset:0"
         id="path58"
         inkscape:connector-curvature="0" /></g><g
       id="g60"><g
         id="g62"
         clip-path="url(#clipPath64)"><g
           id="g68"><g
             id="g70"><g
               id="g72"
               clip-path="url(#clipPath74)"><g
                 id="g78" /><g
                 id="g80"><g
                   id="g82"
                   clip-path="url(#clipPath84)"><g
                     id="g88"><g
                       id="g90"><g
                         id="g92"
                         clip-path="url(#clipPath94)"><g
                           id="g98"><path
                             d="m 26.312,15.465 0.309,18.273 0.313,14.907 0.312,12.738 0.309,11.129 0.312,9.855 0.313,8.817 0.308,7.945 0.313,7.207 0.312,6.574 0.309,6.02 0.312,5.531 0.313,5.105 0.308,4.723 0.313,4.379 0.312,4.074 0.309,3.793 0.313,3.543 0.312,3.317 0.309,3.105 0.312,2.914 0.313,2.738 0.308,2.575 0.313,2.425 0.312,2.289 0.309,2.157 0.312,2.039 0.313,1.929 0.308,1.825 0.313,1.726 0.312,1.637 0.309,1.551 0.313,1.472 0.312,1.399 0.309,1.324 0.312,1.258 0.313,1.195 0.308,1.133 0.313,1.082 0.312,1.023 0.309,0.973 0.312,0.926 0.313,0.883 0.308,0.832 0.313,0.797 0.312,0.753 0.309,0.715 0.313,0.68 0.312,0.645 0.309,0.613 0.312,0.578 0.313,0.547 0.308,0.519 0.313,0.493 0.312,0.46 0.309,0.438 0.312,0.414 0.313,0.387 0.308,0.363 0.313,0.344 0.312,0.32 0.309,0.297 0.312,0.277 0.313,0.258 0.309,0.242 0.312,0.219 0.313,0.203 0.308,0.184 0.313,0.168 0.312,0.152 0.309,0.137 0.312,0.121 0.313,0.101 0.308,0.094 0.313,0.074 0.312,0.063 0.309,0.047 0.312,0.035 0.313,0.023 0.309,0.008 0.312,-0.004 0.313,-0.011 0.308,-0.028 0.313,-0.039 0.312,-0.051 0.309,-0.058 0.312,-0.074 0.313,-0.082 0.308,-0.09 0.313,-0.106 0.312,-0.109 0.309,-0.125 0.312,-0.129 0.313,-0.141 0.308,-0.152 0.313,-0.16 0.313,-0.168 0.308,-0.176 0.313,-0.183 0.312,-0.196 0.309,-0.203 0.312,-0.207 0.313,-0.219 0.308,-0.226 0.313,-0.235 0.312,-0.238 0.309,-0.25 0.312,-0.254 0.313,-0.265 0.308,-0.27 0.313,-0.277 0.312,-0.282 0.309,-0.289 0.625,-0.601 0.309,-0.313 0.312,-0.312 0.313,-0.324 0.308,-0.329 0.313,-0.336 0.312,-0.339 0.309,-0.348 0.312,-0.352 0.313,-0.355 0.308,-0.363 0.625,-0.743 0.309,-0.378 0.313,-0.387 0.312,-0.391 0.309,-0.394 0.312,-0.399 0.313,-0.406 0.308,-0.406 0.625,-0.836 0.309,-0.422 0.625,-0.859 0.308,-0.438 0.313,-0.441 0.312,-0.446 0.309,-0.449 0.312,-0.453 0.313,-0.457 0.309,-0.461 0.312,-0.465 0.313,-0.469 0.308,-0.472 0.625,-0.953 0.309,-0.485 0.312,-0.484 0.313,-0.492 0.308,-0.492 0.625,-0.993 0.309,-0.504 0.312,-0.503 0.313,-0.508 0.309,-0.512 0.312,-0.512 0.313,-0.515 0.308,-0.52 0.313,-0.519 0.312,-0.524 0.309,-0.527 0.312,-0.528 0.313,-0.531 0.308,-0.531 0.625,-1.07 0.309,-0.539 0.625,-1.086 0.309,-0.543 0.312,-0.543 0.313,-0.551 0.308,-0.547 0.625,-1.101 0.309,-0.555 0.625,-1.11 0.308,-0.554 0.625,-1.117 0.309,-0.559 0.312,-0.563 0.313,-0.558 0.309,-0.563 0.624,-1.125 0.309,-0.566 0.625,-1.125 0.309,-0.566 0.312,-0.567 0.313,-0.562 0.308,-0.567 0.313,-0.566 0.312,-0.563 0.309,-0.566 0.625,-1.133 0.308,-0.562 0.313,-0.567 0.312,-0.562 0.309,-0.563 0.625,-1.125 0.309,-0.562 0.312,-0.563 0.313,-0.558 0.308,-0.563 0.625,-1.117 0.309,-0.555 0.312,-0.558 0.313,-0.555 0.308,-0.551 0.313,-0.554 0.312,-0.551 0.309,-0.551 0.625,-1.094 0.309,-0.547 0.312,-0.547 0.313,-0.542 0.308,-0.54 0.625,-1.078 0.309,-0.535 0.625,-1.07 0.308,-0.531 0.625,-1.055 0.309,-0.524 0.625,-1.046 0.309,-0.516 0.312,-0.52 0.313,-0.511 0.308,-0.516 0.625,-1.016 0.309,-0.503 0.312,-0.504 0.313,-0.5 0.308,-0.5 0.313,-0.496 0.312,-0.493 0.309,-0.492 0.312,-0.488 0.313,-0.484 0.309,-0.485 0.312,-0.48 0.313,-0.477 0.308,-0.476 0.313,-0.473 0.312,-0.469 0.309,-0.469 0.312,-0.461 0.313,-0.464 0.308,-0.457 0.313,-0.457 0.312,-0.454 0.309,-0.449 0.625,-0.89 0.309,-0.442 0.625,-0.875 0.308,-0.433 0.313,-0.43 0.312,-0.426 0.309,-0.422 0.312,-0.422 0.313,-0.418 0.308,-0.414 0.313,-0.414 0.312,-0.41 0.309,-0.402 0.312,-0.406 0.313,-0.399 0.308,-0.394 0.313,-0.395 0.313,-0.391 0.308,-0.39 0.625,-0.766 0.309,-0.379 0.312,-0.375 0.313,-0.371 0.308,-0.371 0.313,-0.367 0.312,-0.363 0.309,-0.36 0.312,-0.359 0.313,-0.356 0.308,-0.351 0.313,-0.348 0.312,-0.344 0.309,-0.343 0.313,-0.34 0.312,-0.336 0.309,-0.336 0.312,-0.332 0.313,-0.328 0.308,-0.324 0.313,-0.325 0.312,-0.316 0.309,-0.316 0.312,-0.317 0.313,-0.308 0.308,-0.309 0.313,-0.309 0.312,-0.3 0.309,-0.301 0.313,-0.297 0.312,-0.293 0.309,-0.293 0.312,-0.289 0.313,-0.285 0.308,-0.285 0.313,-0.282 0.312,-0.277 0.309,-0.277 0.312,-0.274 0.313,-0.269 0.308,-0.27 0.313,-0.265 0.312,-0.262 0.309,-0.262 0.312,-0.258 0.313,-0.254 0.309,-0.254 0.625,-0.5 0.308,-0.246 0.313,-0.246 0.312,-0.238 0.309,-0.242 0.625,-0.469 0.308,-0.234 0.313,-0.231 0.312,-0.226 0.309,-0.227 0.625,-0.445 0.309,-0.219 0.312,-0.215 0.313,-0.219 0.308,-0.211 0.625,-0.421 0.309,-0.207 0.625,-0.407 0.308,-0.203 0.313,-0.199 0.312,-0.195 0.309,-0.2 0.625,-0.382 0.309,-0.192 0.625,-0.375 0.308,-0.183 0.625,-0.368 0.309,-0.179 0.312,-0.176 0.313,-0.18 0.308,-0.172 0.313,-0.175 0.312,-0.172 0.309,-0.168 0.312,-0.172 0.313,-0.164 0.309,-0.168 0.624,-0.328 0.309,-0.16 0.625,-0.321 0.309,-0.156 0.312,-0.156 0.313,-0.153 0.308,-0.152 0.625,-0.305 0.309,-0.148 0.625,-0.297 0.308,-0.144 0.313,-0.145 0.312,-0.141 0.309,-0.144 0.625,-0.281 0.309,-0.137 0.625,-0.274 0.308,-0.136 0.625,-0.266 0.309,-0.133 0.312,-0.132 0.313,-0.129 0.308,-0.129 0.313,-0.129 0.312,-0.125 0.309,-0.129 0.313,-0.125 0.312,-0.121 0.309,-0.125 0.625,-0.242 0.308,-0.121 0.625,-0.243 0.309,-0.117 0.625,-0.234 0.308,-0.114 0.313,-0.117 0.312,-0.113 0.309,-0.113 0.313,-0.114 0.312,-0.109 0.309,-0.113 0.625,-0.219 0.308,-0.109 0.313,-0.11 0.312,-0.105 0.309,-0.106 0.312,-0.109 0.313,-0.102 0.308,-0.105 0.313,-0.106 0.312,-0.101 0.309,-0.106 0.625,-0.203 0.309,-0.101 0.312,-0.102 0.313,-0.097 0.308,-0.098 0.313,-0.102 0.312,-0.097 0.309,-0.098 0.312,-0.098 0.313,-0.093 0.308,-0.098 0.313,-0.094 0.312,-0.097 0.309,-0.094 0.625,-0.188 0.309,-0.09 0.625,-0.187 0.308,-0.09 0.625,-0.18 0.309,-0.089 0.625,-0.18 0.308,-0.09 0.313,-0.086 0.312,-0.09 0.309,-0.086 0.625,-0.172 0.308,-0.085 0.626,-0.172 0.308,-0.086 0.313,-0.086 0.312,-0.082 0.309,-0.082 0.312,-0.086 0.313,-0.082 0.308,-0.082 0.625,-0.164 0.309,-0.082 0.312,-0.082 0.313,-0.079 0.308,-0.082 0.313,-0.078 0.312,-0.082 0.309,-0.078 0.313,-0.078 0.312,-0.082 0.309,-0.078 0.625,-0.156 0.308,-0.075 0.625,-0.156 0.309,-0.074 0.312,-0.078 0.313,-0.074 0.308,-0.079 0.625,-0.148 0.309,-0.078 0.625,-0.149 0.309,-0.074 0.312,-0.07 0.313,-0.074 0.308,-0.074 0.313,-0.075 0.312,-0.07 0.309,-0.074 0.312,-0.071 0.313,-0.074 0.308,-0.07 0.313,-0.07 0.312,-0.075 0.309,-0.07 0.625,-0.141 0.309,-0.07 0.625,-0.14 0.308,-0.067 0.625,-0.141 0.309,-0.07 0.312,-0.066 0.313,-0.071 0.308,-0.066 0.313,-0.07 0.312,-0.067 0.309,-0.066 0.312,-0.07 0.313,-0.067 0.309,-0.066 0.625,-0.133 0.308,-0.066 0.625,-0.133 0.309,-0.067 0.625,-0.132 0.308,-0.063 0.625,-0.133 0.309,-0.062 0.312,-0.067 0.313,-0.062 0.309,-0.067 0.312,-0.062 0.313,-0.066 0.308,-0.063 0.625,-0.125 0.309,-0.066 0.625,-0.125 0.308,-0.063 0.625,-0.125 0.309,-0.062 0.625,-0.125 0.309,-0.063 0.312,-0.062 0.312,-0.059 0.309,-0.062 0.625,-0.126 0.309,-0.058 0.625,-0.125 0.308,-0.059 0.313,-0.062 0.312,-0.059 0.309,-0.062 0.625,-0.117 0.308,-0.063 0.625,-0.117 0.309,-0.063 0.625,-0.117 0.309,-0.058 0.312,-0.059 0.313,-0.063 0.312,-0.058 0.309,-0.059 0.625,-0.117 0.308,-0.058 0.625,-0.118 0.309,-0.058 0.312,-0.055 0.313,-0.059 0.309,-0.058 0.625,-0.117 0.308,-0.055 0.625,-0.117 0.309,-0.059 0.312,-0.054 0.313,-0.059 0.308,-0.055 0.625,-0.117 0.309,-0.055 0.312,-0.058 0.313,-0.055 0.309,-0.059 0.312,-0.054 0.312,-0.059 0.309,-0.055 0.313,-0.058 0.312,-0.055 0.309,-0.054 0.312,-0.059 0.313,-0.055 0.308,-0.054 0.313,-0.059 0.312,-0.055 0.309,-0.054 0.312,-0.055 0.313,-0.059 0.308,-0.054 0.625,-0.11 0.309,-0.054 0.313,-0.059 0.312,-0.055 0.309,-0.054 0.625,-0.11 0.308,-0.054 0.625,-0.11 0.309,-0.055 0.625,-0.109 0.308,-0.055 0.625,-0.109 0.309,-0.055 0.625,-0.109 0.309,-0.055 0.625,-0.109 0.308,-0.055 0.625,-0.109 0.309,-0.055 0.312,-0.051 0.313,-0.054 0.308,-0.055 0.625,-0.109 0.309,-0.055 0.313,-0.051 0.312,-0.055 0.309,-0.054 0.625,-0.11 0.308,-0.05 0.625,-0.11 0.309,-0.054 0.312,-0.055 0.313,-0.051 0.308,-0.055 0.625,-0.109 0.309,-0.051 0.625,-0.109 0.309,-0.055 0.312,-0.051 0.313,-0.054 0.308,-0.055 0.313,-0.055 0.312,-0.05 0.309,-0.055 0.312,-0.055 0.313,-0.051 0.308,-0.054 0.625,-0.11 0.309,-0.05 0.625,-0.11 0.309,-0.055 0.312,-0.05 0.313,-0.055 0.308,-0.055 0.313,-0.054 0.312,-0.051 0.309,-0.055 0.625,-0.109 0.308,-0.051 0.625,-0.109 0.309,-0.055 0.312,-0.051 0.313,-0.055 0.308,-0.054 0.626,-0.11 0.308,-0.05 0.625,-0.11 0.309,-0.054 0.312,-0.055 0.313,-0.051 0.308,-0.055 0.625,-0.109 0.309,-0.055 0.625,-0.109 0.308,-0.055 0.313,-0.054 0.312,-0.051 0.309,-0.055 0.625,-0.109 0.309,-0.055 0.625,-0.109 0.308,-0.055 0.625,-0.109 0.309,-0.055 0.312,-0.055 0.313,-0.058 0.308,-0.055 0.625,-0.109 0.309,-0.055 0.625,-0.109 0.309,-0.059 0.625,-0.109 0.308,-0.055 0.313,-0.059 0.312,-0.054 0.309,-0.055 0.312,-0.059 0.313,-0.054 0.308,-0.055 0.313,-0.059 0.312,-0.054 0.309,-0.055 0.312,-0.059 0.313,-0.054 0.309,-0.059 0.312,-0.055 0.313,-0.058 0.308,-0.059 0.313,-0.054 0.312,-0.059 0.309,-0.059 0.312,-0.054 0.313,-0.059 0.308,-0.058 0.313,-0.055 0.312,-0.059 0.309,-0.058 0.625,-0.118 0.309,-0.058 0.625,-0.117 0.308,-0.059 0.625,-0.117 0.309,-0.059 0.625,-0.117 0.308,-0.059 0.313,-0.062 0.312,-0.059 0.309,-0.058 0.312,-0.063 0.313,-0.058 0.309,-0.063 0.312,-0.058 0.313,-0.063 0.308,-0.058 0.313,-0.063 0.312,-0.059 0.309,-0.062 0.625,-0.125 0.308,-0.059 0.625,-0.125 0.309,-0.062 0.625,-0.125 0.309,-0.063 0.312,-0.066 0.312,-0.063 0.309,-0.062 0.313,-0.063 0.312,-0.066 0.309,-0.062 0.312,-0.067 0.313,-0.062 0.308,-0.067 0.313,-0.062 0.312,-0.067 0.309,-0.066 0.625,-0.133 0.308,-0.066 0.625,-0.133 0.309,-0.067 0.625,-0.132 0.309,-0.071 0.312,-0.066 0.313,-0.07 0.308,-0.067 0.625,-0.14 0.309,-0.067 0.625,-0.14 0.308,-0.071 0.625,-0.14 0.309,-0.075 0.313,-0.07 0.312,-0.074 0.309,-0.07 0.312,-0.075 0.313,-0.07 0.308,-0.074 0.625,-0.149 0.309,-0.074 0.312,-0.074 0.313,-0.078 0.308,-0.074 0.313,-0.079 0.312,-0.074 0.309,-0.078 0.625,-0.156 0.309,-0.078 0.625,-0.157 0.308,-0.078 0.625,-0.164 0.309,-0.078 0.625,-0.164 0.308,-0.082 0.313,-0.086 0.312,-0.082 0.309,-0.086 0.312,-0.082 0.313,-0.086 0.309,-0.086 0.312,-0.086 0.313,-0.09 0.308,-0.085 0.313,-0.09 0.312,-0.086 0.309,-0.09 0.312,-0.094 0.313,-0.09 0.308,-0.089 0.625,-0.188 0.309,-0.094 0.625,-0.187 0.309,-0.098 0.625,-0.195 0.308,-0.098 0.313,-0.101 0.312,-0.098 0.309,-0.102 0.312,-0.101 0.313,-0.106 0.308,-0.101 0.625,-0.211 0.309,-0.11 0.312,-0.105 0.313,-0.109 0.308,-0.114 0.313,-0.109 0.313,-0.113 0.308,-0.114 0.313,-0.113 0.312,-0.117 0.309,-0.117 0.312,-0.121 0.313,-0.118 0.308,-0.121 0.625,-0.25 0.309,-0.125 0.625,-0.257 0.308,-0.129 0.625,-0.266 0.309,-0.137 0.313,-0.136 0.312,-0.141 0.309,-0.141 0.312,-0.14 0.313,-0.149 0.308,-0.144 0.625,-0.305 0.309,-0.152 0.312,-0.157 0.313,-0.16 0.308,-0.16 0.313,-0.164 0.312,-0.168 0.309,-0.172 0.313,-0.172 0.312,-0.175 0.309,-0.18 0.625,-0.367 0.308,-0.192 0.313,-0.191 0.312,-0.199 0.309,-0.2 0.312,-0.207 0.313,-0.211 0.308,-0.21 0.625,-0.446 0.309,-0.23 0.312,-0.235 0.313,-0.242 0.309,-0.246 0.312,-0.254 0.313,-0.258 0.308,-0.269 0.313,-0.274 0.312,-0.285 0.309,-0.289 0.312,-0.301 0.313,-0.308 0.308,-0.321 0.313,-0.332 0.312,-0.339 0.309,-0.356 0.312,-0.367 0.313,-0.379 0.309,-0.398 0.312,-0.414 0.313,-0.43 0.308,-0.449 0.313,-0.469 0.312,-0.496 0.309,-0.516 0.312,-0.547 0.313,-0.578 0.308,-0.609 0.313,-0.649 0.312,-0.691 0.309,-0.738 0.312,-0.797 0.313,-0.86 0.309,-0.937 0.312,-1.023 0.313,-1.133 0.308,-1.266 0.313,-1.434 0.312,-1.66 0.309,-1.976 0.312,-2.481 0.313,-3.523"
                             style="fill:none;stroke:#000000;stroke-opacity:1;stroke-width:1.6;stroke-linecap:square;stroke-linejoin:miter;stroke-miterlimit:3.25;stroke-dasharray:none"
                             id="path100" /></g></g></g></g></g></g></g></g></g></g></g><g
       clip-path="url(#clipPath106)"
       id="g104"><path
         d="m 30.713,315.853 3.117,-11.176 3.114,-9.375 3.117,-8.886 3.113,-8.887 3.117,-9.133 3.114,-9.523 3.117,-9.977 3.113,-10.422 3.117,-10.793 3.114,-11.019 3.117,-11.043 3.113,-10.832 3.117,-10.403 3.114,-9.789 3.113,-9.05 3.117,-8.258 3.113,-7.457 3.118,-6.692 3.113,-5.984 3.117,-5.34 3.113,-4.777 3.117,-4.274 3.114,-3.836 3.117,-3.457 3.113,-3.129 3.117,-2.832 3.114,-2.586 3.117,-2.363 3.113,-2.168 3.113,-2 3.118,-1.847 3.113,-1.715 3.117,-1.598 3.113,-1.492 3.118,-1.399 3.113,-1.312 3.117,-1.234 3.113,-1.172 3.117,-1.106 3.114,-1.055 3.117,-1 3.113,-0.953 3.117,-0.914 3.114,-0.875 3.113,-0.84 3.117,-0.808 3.113,-0.781 3.118,-0.75 3.113,-0.731 3.117,-0.703 3.113,-0.687 3.118,-0.668 3.113,-0.649 3.117,-0.633 3.113,-0.621 3.117,-0.605 3.114,-0.594 3.117,-0.586 3.113,-0.574 3.114,-0.567 3.117,-0.558 3.113,-0.555 3.117,-0.547 3.113,-0.543 3.118,-0.539 3.113,-0.539 3.117,-0.535 3.113,-0.535 3.118,-0.535 3.113,-0.539 3.117,-0.539 3.113,-0.543 3.114,-0.551 3.117,-0.555 3.113,-0.562 3.117,-0.575 3.114,-0.585 3.117,-0.594 3.113,-0.614 3.117,-0.632 3.114,-0.653 3.117,-0.675 3.113,-0.708 3.117,-0.738 3.113,-0.781 3.118,-0.828 3.113,-0.887 3.113,-0.957 3.117,-1.043 3.114,-1.156 3.117,-1.297 3.113,-1.484 3.117,-1.75 3.114,-2.133 3.117,-2.742 3.113,-3.828 3.117,-6.231 3.114,-15.027"
         style="fill:none;stroke:#000000;stroke-width:1.60000002;stroke-linecap:square;stroke-linejoin:miter;stroke-miterlimit:3.25;stroke-opacity:0.5;stroke-dasharray:4, 4;stroke-dashoffset:0"
         id="path142"
         inkscape:connector-curvature="0" /><path
         inkscape:connector-curvature="0"
         id="path146"
         style="fill:none;stroke:#636363;stroke-width:1;stroke-linecap:butt;stroke-linejoin:miter;stroke-miterlimit:3.25;stroke-opacity:1;stroke-dasharray:none"
         d="m 26,15.465 0,3.836" /><path
         inkscape:connector-curvature="0"
         id="path148"
         style="fill:none;stroke:#636363;stroke-width:1;stroke-linecap:butt;stroke-linejoin:miter;stroke-miterlimit:3.25;stroke-opacity:1;stroke-dasharray:none"
         d="m 41.574,15.465 0,2.301" /><path
         inkscape:connector-curvature="0"
         id="path150"
         style="fill:none;stroke:#636363;stroke-width:1;stroke-linecap:butt;stroke-linejoin:miter;stroke-miterlimit:3.25;stroke-opacity:1;stroke-dasharray:none"
         d="m 57.152,15.465 0,2.301" /><path
         inkscape:connector-curvature="0"
         id="path152"
         style="fill:none;stroke:#636363;stroke-width:1;stroke-linecap:butt;stroke-linejoin:miter;stroke-miterlimit:3.25;stroke-opacity:1;stroke-dasharray:none"
         d="m 72.727,15.465 0,2.301" /><path
         inkscape:connector-curvature="0"
         id="path154"
         style="fill:none;stroke:#636363;stroke-width:1;stroke-linecap:butt;stroke-linejoin:miter;stroke-miterlimit:3.25;stroke-opacity:1;stroke-dasharray:none"
         d="m 88.301,15.465 0,3.836" /><path
         inkscape:connector-curvature="0"
         id="path156"
         style="fill:none;stroke:#636363;stroke-width:1;stroke-linecap:butt;stroke-linejoin:miter;stroke-miterlimit:3.25;stroke-opacity:1;stroke-dasharray:none"
         d="m 103.879,15.465 0,2.301" /><path
         inkscape:connector-curvature="0"
         id="path158"
         style="fill:none;stroke:#636363;stroke-width:1;stroke-linecap:butt;stroke-linejoin:miter;stroke-miterlimit:3.25;stroke-opacity:1;stroke-dasharray:none"
         d="m 119.453,15.465 0,2.301" /><path
         inkscape:connector-curvature="0"
         id="path160"
         style="fill:none;stroke:#636363;stroke-width:1;stroke-linecap:butt;stroke-linejoin:miter;stroke-miterlimit:3.25;stroke-opacity:1;stroke-dasharray:none"
         d="m 135.027,15.465 0,2.301" /><path
         inkscape:connector-curvature="0"
         id="path162"
         style="fill:none;stroke:#636363;stroke-width:1;stroke-linecap:butt;stroke-linejoin:miter;stroke-miterlimit:3.25;stroke-opacity:1;stroke-dasharray:none"
         d="m 150.605,15.465 0,3.836" /><path
         inkscape:connector-curvature="0"
         id="path164"
         style="fill:none;stroke:#636363;stroke-width:1;stroke-linecap:butt;stroke-linejoin:miter;stroke-miterlimit:3.25;stroke-opacity:1;stroke-dasharray:none"
         d="m 166.18,15.465 0,2.301" /><path
         inkscape:connector-curvature="0"
         id="path166"
         style="fill:none;stroke:#636363;stroke-width:1;stroke-linecap:butt;stroke-linejoin:miter;stroke-miterlimit:3.25;stroke-opacity:1;stroke-dasharray:none"
         d="m 181.754,15.465 0,2.301" /><path
         inkscape:connector-curvature="0"
         id="path168"
         style="fill:none;stroke:#636363;stroke-width:1;stroke-linecap:butt;stroke-linejoin:miter;stroke-miterlimit:3.25;stroke-opacity:1;stroke-dasharray:none"
         d="m 197.332,15.465 0,2.301" /><path
         inkscape:connector-curvature="0"
         id="path170"
         style="fill:none;stroke:#636363;stroke-width:1;stroke-linecap:butt;stroke-linejoin:miter;stroke-miterlimit:3.25;stroke-opacity:1;stroke-dasharray:none"
         d="m 212.906,15.465 0,3.836" /><path
         inkscape:connector-curvature="0"
         id="path172"
         style="fill:none;stroke:#636363;stroke-width:1;stroke-linecap:butt;stroke-linejoin:miter;stroke-miterlimit:3.25;stroke-opacity:1;stroke-dasharray:none"
         d="m 228.48,15.465 0,2.301" /><path
         inkscape:connector-curvature="0"
         id="path174"
         style="fill:none;stroke:#636363;stroke-width:1;stroke-linecap:butt;stroke-linejoin:miter;stroke-miterlimit:3.25;stroke-opacity:1;stroke-dasharray:none"
         d="m 244.059,15.465 0,2.301" /><path
         inkscape:connector-curvature="0"
         id="path176"
         style="fill:none;stroke:#636363;stroke-width:1;stroke-linecap:butt;stroke-linejoin:miter;stroke-miterlimit:3.25;stroke-opacity:1;stroke-dasharray:none"
         d="m 259.633,15.465 0,2.301" /><path
         inkscape:connector-curvature="0"
         id="path178"
         style="fill:none;stroke:#636363;stroke-width:1;stroke-linecap:butt;stroke-linejoin:miter;stroke-miterlimit:3.25;stroke-opacity:1;stroke-dasharray:none"
         d="m 275.207,15.465 0,3.836" /><path
         inkscape:connector-curvature="0"
         id="path180"
         style="fill:none;stroke:#636363;stroke-width:1;stroke-linecap:butt;stroke-linejoin:miter;stroke-miterlimit:3.25;stroke-opacity:1;stroke-dasharray:none"
         d="m 290.785,15.465 0,2.301" /><path
         inkscape:connector-curvature="0"
         id="path182"
         style="fill:none;stroke:#636363;stroke-width:1;stroke-linecap:butt;stroke-linejoin:miter;stroke-miterlimit:3.25;stroke-opacity:1;stroke-dasharray:none"
         d="m 306.359,15.465 0,2.301" /><path
         inkscape:connector-curvature="0"
         id="path184"
         style="fill:none;stroke:#636363;stroke-width:1;stroke-linecap:butt;stroke-linejoin:miter;stroke-miterlimit:3.25;stroke-opacity:1;stroke-dasharray:none"
         d="m 321.934,15.465 0,2.301" /><path
         inkscape:connector-curvature="0"
         id="path186"
         style="fill:none;stroke:#636363;stroke-width:1;stroke-linecap:butt;stroke-linejoin:miter;stroke-miterlimit:3.25;stroke-opacity:1;stroke-dasharray:none"
         d="m 337.512,15.465 0,3.836" /></g><g
       id="g188"><path
         d="m 19.512,15.465 324.488,0"
         style="fill:none;stroke:#000000;stroke-opacity:1;stroke-width:1;stroke-linecap:butt;stroke-linejoin:miter;stroke-miterlimit:3.25;stroke-dasharray:none"
         id="path190" /><path
         d="m 26,15.465 3.832,0"
         style="fill:none;stroke:#636363;stroke-opacity:1;stroke-width:1;stroke-linecap:butt;stroke-linejoin:miter;stroke-miterlimit:3.25;stroke-dasharray:none"
         id="path192" /><path
         d="m 26,24.422 2.301,0"
         style="fill:none;stroke:#636363;stroke-opacity:1;stroke-width:1;stroke-linecap:butt;stroke-linejoin:miter;stroke-miterlimit:3.25;stroke-dasharray:none"
         id="path194" /><path
         d="m 26,33.379 2.301,0"
         style="fill:none;stroke:#636363;stroke-opacity:1;stroke-width:1;stroke-linecap:butt;stroke-linejoin:miter;stroke-miterlimit:3.25;stroke-dasharray:none"
         id="path196" /><path
         d="m 26,42.336 2.301,0"
         style="fill:none;stroke:#636363;stroke-opacity:1;stroke-width:1;stroke-linecap:butt;stroke-linejoin:miter;stroke-miterlimit:3.25;stroke-dasharray:none"
         id="path198" /><path
         d="m 26,51.293 2.301,0"
         style="fill:none;stroke:#636363;stroke-opacity:1;stroke-width:1;stroke-linecap:butt;stroke-linejoin:miter;stroke-miterlimit:3.25;stroke-dasharray:none"
         id="path200" /><path
         d="m 26,60.25 3.832,0"
         style="fill:none;stroke:#636363;stroke-opacity:1;stroke-width:1;stroke-linecap:butt;stroke-linejoin:miter;stroke-miterlimit:3.25;stroke-dasharray:none"
         id="path202" /><text
         transform="matrix(1,0,0,-1,1.584824,56.847563)"
         id="text204"><tspan
           style="fill:#000000;fill-opacity:1;fill-rule:nonzero;stroke:none;font-family:cmr10;font-variant:normal;font-weight:normal;font-size:14.4;writing-mode:lr;-inkscape-font-specification:Cmr10"
           x="0 7.2 14.4"
           y="0"
           sodipodi:role="line"
           id="tspan206">100</tspan></text>
<path
         d="m 26,69.207 2.301,0"
         style="fill:none;stroke:#636363;stroke-opacity:1;stroke-width:1;stroke-linecap:butt;stroke-linejoin:miter;stroke-miterlimit:3.25;stroke-dasharray:none"
         id="path208" /><path
         d="m 26,78.164 2.301,0"
         style="fill:none;stroke:#636363;stroke-opacity:1;stroke-width:1;stroke-linecap:butt;stroke-linejoin:miter;stroke-miterlimit:3.25;stroke-dasharray:none"
         id="path210" /><path
         d="m 26,87.121 2.301,0"
         style="fill:none;stroke:#636363;stroke-opacity:1;stroke-width:1;stroke-linecap:butt;stroke-linejoin:miter;stroke-miterlimit:3.25;stroke-dasharray:none"
         id="path212" /><path
         d="m 26,96.078 2.301,0"
         style="fill:none;stroke:#636363;stroke-opacity:1;stroke-width:1;stroke-linecap:butt;stroke-linejoin:miter;stroke-miterlimit:3.25;stroke-dasharray:none"
         id="path214" /><path
         d="m 26,105.035 3.832,0"
         style="fill:none;stroke:#636363;stroke-opacity:1;stroke-width:1;stroke-linecap:butt;stroke-linejoin:miter;stroke-miterlimit:3.25;stroke-dasharray:none"
         id="path216" /><path
         d="m 26,113.992 2.301,0"
         style="fill:none;stroke:#636363;stroke-opacity:1;stroke-width:1;stroke-linecap:butt;stroke-linejoin:miter;stroke-miterlimit:3.25;stroke-dasharray:none"
         id="path218" /><path
         d="m 26,122.949 2.301,0"
         style="fill:none;stroke:#636363;stroke-opacity:1;stroke-width:1;stroke-linecap:butt;stroke-linejoin:miter;stroke-miterlimit:3.25;stroke-dasharray:none"
         id="path220" /><path
         d="m 26,131.906 2.301,0"
         style="fill:none;stroke:#636363;stroke-opacity:1;stroke-width:1;stroke-linecap:butt;stroke-linejoin:miter;stroke-miterlimit:3.25;stroke-dasharray:none"
         id="path222" /><path
         d="m 26,140.863 2.301,0"
         style="fill:none;stroke:#636363;stroke-opacity:1;stroke-width:1;stroke-linecap:butt;stroke-linejoin:miter;stroke-miterlimit:3.25;stroke-dasharray:none"
         id="path224" /><path
         d="m 26,149.82 3.832,0"
         style="fill:none;stroke:#636363;stroke-opacity:1;stroke-width:1;stroke-linecap:butt;stroke-linejoin:miter;stroke-miterlimit:3.25;stroke-dasharray:none"
         id="path226" /><path
         d="m 26,158.777 2.301,0"
         style="fill:none;stroke:#636363;stroke-opacity:1;stroke-width:1;stroke-linecap:butt;stroke-linejoin:miter;stroke-miterlimit:3.25;stroke-dasharray:none"
         id="path228" /><path
         d="m 26,167.734 2.301,0"
         style="fill:none;stroke:#636363;stroke-opacity:1;stroke-width:1;stroke-linecap:butt;stroke-linejoin:miter;stroke-miterlimit:3.25;stroke-dasharray:none"
         id="path230" /><path
         d="m 26,176.691 2.301,0"
         style="fill:none;stroke:#636363;stroke-opacity:1;stroke-width:1;stroke-linecap:butt;stroke-linejoin:miter;stroke-miterlimit:3.25;stroke-dasharray:none"
         id="path232" /><path
         d="m 26,185.648 2.301,0"
         style="fill:none;stroke:#636363;stroke-opacity:1;stroke-width:1;stroke-linecap:butt;stroke-linejoin:miter;stroke-miterlimit:3.25;stroke-dasharray:none"
         id="path234" /><path
         d="m 26,194.605 3.832,0"
         style="fill:none;stroke:#636363;stroke-opacity:1;stroke-width:1;stroke-linecap:butt;stroke-linejoin:miter;stroke-miterlimit:3.25;stroke-dasharray:none"
         id="path236" /><text
         transform="matrix(1,0,0,-1,1.366326,189.46386)"
         id="text238"><tspan
           style="fill:#000000;fill-opacity:1;fill-rule:nonzero;stroke:none;font-family:cmr10;font-variant:normal;font-weight:normal;font-size:14.4;writing-mode:lr;-inkscape-font-specification:Cmr10"
           x="0 7.2 14.4"
           y="0"
           sodipodi:role="line"
           id="tspan240">400</tspan></text>
<path
         d="m 26,203.562 2.301,0"
         style="fill:none;stroke:#636363;stroke-opacity:1;stroke-width:1;stroke-linecap:butt;stroke-linejoin:miter;stroke-miterlimit:3.25;stroke-dasharray:none"
         id="path242" /><path
         d="M 26,11.453 26,212"
         style="fill:none;stroke:#000000;stroke-opacity:1;stroke-width:1;stroke-linecap:butt;stroke-linejoin:miter;stroke-miterlimit:3.25;stroke-dasharray:none"
         id="path244" /></g><g
       id="g246"><g
         id="g248"
         clip-path="url(#clipPath250)"><g
           id="g254"><g
             id="g256"><g
               id="g258"
               clip-path="url(#clipPath260)"><g
                 id="g264" /><g
                 id="g266"><g
                   id="g268"
                   clip-path="url(#clipPath270)"><g
                     id="g274"><g
                       id="g276"><g
                         id="g278"
                         clip-path="url(#clipPath280)"><g
                           id="g284"><path
                             d="m 350.801,131.699 17.398,0"
                             style="fill:none;stroke:#fd0000;stroke-opacity:1;stroke-width:1.6;stroke-linecap:square;stroke-linejoin:miter;stroke-miterlimit:3.25;stroke-dasharray:none"
                             id="path286" /></g></g></g></g></g></g></g></g></g></g></g><g
       id="g288"><g
         id="g290"
         clip-path="url(#clipPath292)"><g
           id="g296"><g
             id="g298"><g
               id="g300"
               clip-path="url(#clipPath302)"><g
                 id="g306" /><g
                 id="g308"><g
                   id="g310"
                   clip-path="url(#clipPath312)"><g
                     id="g316"><g
                       id="g318"><g
                         id="g320"
                         clip-path="url(#clipPath322)"><g
                           id="g326"><path
                             d="m 350.75,88.586 17.398,0"
                             style="fill:none;stroke:#000000;stroke-opacity:1;stroke-width:1.6;stroke-linecap:square;stroke-linejoin:miter;stroke-miterlimit:3.25;stroke-dasharray:none"
                             id="path328" /></g></g></g></g></g></g></g></g></g></g></g><g
       id="g330"><text
         transform="matrix(1,0,0,-1,2.262034,144.74786)"
         id="text332"><tspan
           style="fill:#000000;fill-opacity:1;fill-rule:nonzero;stroke:none;font-family:cmr10;font-variant:normal;font-weight:normal;font-size:14.4;writing-mode:lr;-inkscape-font-specification:Cmr10"
           x="0 7.2 14.4"
           y="0"
           sodipodi:role="line"
           id="tspan334">300</tspan><tspan
           style="fill:#000000;fill-opacity:1;fill-rule:nonzero;stroke:none;font-family:cmr10;font-variant:normal;font-weight:normal;font-size:14.4;writing-mode:lr;-inkscape-font-specification:Cmr10"
           x="-1.13265216 6.06734784 13.26734784"
           y="46.455077"
           sodipodi:role="line"
           id="tspan336">200</tspan></text>
<path
         d="m 21.984,225.582 3.875,0 c 0.305,0 1.075,0 1.075,0.746 0,0.516 -0.442,0.516 -0.864,0.516 l -6.422,0 c -0.535,0 -1.332,0 -2.402,-1.145 -0.609,-0.679 -1.355,-1.914 -1.355,-2.054 0,-0.141 0.117,-0.188 0.257,-0.188 0.161,0 0.184,0.07 0.301,0.211 1.215,1.914 2.43,1.914 3.012,1.914 l 1.937,0 -2.425,-8.008 c -0.118,-0.351 -0.118,-0.398 -0.118,-0.469 0,-0.257 0.165,-0.582 0.629,-0.582 0.727,0 0.844,0.629 0.911,0.981 l 1.589,8.078 z"
         style="fill:#000000;fill-opacity:1;fill-rule:nonzero;stroke:none"
         id="path338" /><path
         d="m 28.551,218.027 c 0.031,0.098 0.437,0.907 1.039,1.426 0.422,0.391 0.972,0.649 1.601,0.649 0.649,0 0.879,-0.485 0.879,-1.133 0,-0.926 -0.668,-2.774 -0.992,-3.649 -0.144,-0.39 -0.226,-0.601 -0.226,-0.89 0,-0.731 0.503,-1.317 1.281,-1.317 1.508,0 2.074,2.383 2.074,2.481 0,0.082 -0.062,0.148 -0.16,0.148 -0.145,0 -0.164,-0.051 -0.242,-0.324 -0.375,-1.332 -0.989,-1.98 -1.621,-1.98 -0.164,0 -0.422,0.015 -0.422,0.535 0,0.406 0.176,0.894 0.273,1.121 0.324,0.89 1.008,2.707 1.008,3.629 0,0.972 -0.57,1.703 -1.801,1.703 -1.441,0 -2.203,-1.02 -2.496,-1.426 -0.051,0.922 -0.715,1.426 -1.426,1.426 -0.519,0 -0.875,-0.309 -1.152,-0.86 -0.293,-0.582 -0.52,-1.554 -0.52,-1.621 0,-0.066 0.067,-0.144 0.18,-0.144 0.129,0 0.145,0.015 0.242,0.387 0.258,0.988 0.551,1.914 1.2,1.914 0.375,0 0.503,-0.258 0.503,-0.747 0,-0.355 -0.164,-0.988 -0.277,-1.492 l -0.453,-1.75 c -0.066,-0.308 -0.242,-1.035 -0.324,-1.328 -0.114,-0.422 -0.293,-1.183 -0.293,-1.265 0,-0.227 0.179,-0.407 0.422,-0.407 0.195,0 0.422,0.098 0.55,0.34 0.036,0.082 0.18,0.649 0.262,0.977 l 0.356,1.457 0.535,2.14 z"
         style="fill:#000000;fill-opacity:1;fill-rule:nonzero;stroke:none"
         id="path340" /><path
         d="m 382.406,136.723 c -0.406,1.152 -1.687,1.152 -1.898,1.152 -0.094,0 -0.274,0 -0.274,-0.164 0,-0.129 0.098,-0.145 0.18,-0.16 0.242,-0.035 0.438,-0.067 0.695,-0.535 0.161,-0.309 1.832,-5.157 1.832,-5.188 0,-0.016 -0.015,-0.035 -0.144,-0.164 l -4.215,-4.262 c -0.195,-0.195 -0.324,-0.324 -0.324,-0.535 0,-0.226 0.191,-0.422 0.453,-0.422 0.062,0 0.242,0.032 0.34,0.129 0.258,0.242 2.578,3.082 4.051,4.832 0.421,-1.265 0.941,-2.758 1.445,-4.117 0.082,-0.246 0.16,-0.473 0.387,-0.684 0.164,-0.144 0.195,-0.144 0.648,-0.144 l 0.309,0 c 0.066,0 0.179,0 0.179,0.129 0,0.066 -0.015,0.082 -0.082,0.148 -0.144,0.176 -0.258,0.469 -0.324,0.664 l -3.258,9.321 z"
         style="fill:#000000;fill-opacity:1;fill-rule:nonzero;stroke:none"
         id="path342" /><path
         d="m 402.102,131.875 c 0.226,0 0.519,0 0.519,0.293 0,0.309 -0.277,0.309 -0.519,0.309 l -9.547,0 c -0.227,0 -0.52,0 -0.52,-0.293 0,-0.309 0.274,-0.309 0.52,-0.309 l 9.547,0 z m 0,-3.016 c 0.226,0 0.519,0 0.519,0.293 0,0.309 -0.277,0.309 -0.519,0.309 l -9.547,0 c -0.227,0 -0.52,0 -0.52,-0.293 0,-0.309 0.274,-0.309 0.52,-0.309 l 9.547,0 z"
         style="fill:#000000;fill-opacity:1;fill-rule:nonzero;stroke:none"
         id="path344" /><path
         d="m 415.27,131.812 c 0,1.344 -0.079,2.657 -0.665,3.891 -0.664,1.344 -1.832,1.699 -2.625,1.699 -0.941,0 -2.089,-0.468 -2.691,-1.812 -0.453,-1.024 -0.617,-2.028 -0.617,-3.778 0,-1.574 0.113,-2.757 0.699,-3.91 0.633,-1.23 1.75,-1.621 2.594,-1.621 1.41,0 2.219,0.844 2.691,1.785 0.582,1.215 0.614,2.805 0.614,3.746 z m -3.305,-5.207 c -0.52,0 -1.574,0.293 -1.883,2.059 -0.176,0.973 -0.176,2.207 -0.176,3.34 0,1.332 0,2.531 0.258,3.488 0.277,1.086 1.102,1.586 1.801,1.586 0.617,0 1.555,-0.371 1.863,-1.766 0.211,-0.925 0.211,-2.203 0.211,-3.308 0,-1.086 0,-2.316 -0.18,-3.305 -0.304,-1.785 -1.328,-2.094 -1.894,-2.094 z"
         style="fill:#000000;fill-opacity:1;fill-rule:nonzero;stroke:none"
         id="path346" /><path
         d="m 418.93,127.402 c 0,0.469 -0.391,0.793 -0.782,0.793 -0.468,0 -0.793,-0.39 -0.793,-0.777 0,-0.469 0.391,-0.793 0.778,-0.793 0.472,0 0.797,0.387 0.797,0.777 z"
         style="fill:#000000;fill-opacity:1;fill-rule:nonzero;stroke:none"
         id="path348" /><path
         d="m 426.207,137.176 c 0,0.308 0,0.39 -0.227,0.39 -0.128,0 -0.179,0 -0.308,-0.195 l -4.879,-7.57 0,-0.469 4.262,0 0,-1.477 c 0,-0.601 -0.032,-0.761 -1.215,-0.761 l -0.324,0 0,-0.469 c 0.371,0.031 1.652,0.031 2.105,0.031 0.457,0 1.754,0 2.125,-0.031 l 0,0.469 -0.324,0 c -1.168,0 -1.215,0.16 -1.215,0.761 l 0,1.477 1.637,0 0,0.469 -1.637,0 0,7.375 z m -1.07,-1.262 0,-6.113 -3.938,0 3.938,6.113 z"
         style="fill:#000000;fill-opacity:1;fill-rule:nonzero;stroke:none"
         id="path350" /><path
         d="m 435.992,136.691 0,0.371 -3.906,0 c -1.961,0 -1.996,0.211 -2.059,0.52 l -0.359,0 -0.5,-3.242 0.355,0 c 0.047,0.293 0.196,1.297 0.407,1.476 0.129,0.098 1.343,0.098 1.57,0.098 l 3.438,0 -1.719,-2.465 c -0.438,-0.633 -2.074,-3.293 -2.074,-6.34 0,-0.179 0,-0.828 0.664,-0.828 0.679,0 0.679,0.633 0.679,0.844 l 0,0.813 c 0,2.414 0.391,4.292 1.153,5.378 l 2.351,3.375 z"
         style="fill:#000000;fill-opacity:1;fill-rule:nonzero;stroke:none"
         id="path352" /><path
         d="m 438.305,135.914 c 0.695,-0.23 1.261,-0.246 1.441,-0.246 1.832,0 3,1.348 3,1.574 0,0.063 -0.035,0.145 -0.129,0.145 -0.035,0 -0.066,0 -0.211,-0.063 -0.91,-0.39 -1.687,-0.437 -2.109,-0.437 -1.07,0 -1.832,0.324 -2.141,0.453 -0.113,0.047 -0.144,0.047 -0.16,0.047 -0.129,0 -0.129,-0.098 -0.129,-0.356 l 0,-4.816 c 0,-0.289 0,-0.387 0.192,-0.387 0.082,0 0.097,0.016 0.261,0.211 0.453,0.664 1.215,1.051 2.028,1.051 0.855,0 1.277,-0.793 1.41,-1.07 0.273,-0.629 0.289,-1.426 0.289,-2.04 0,-0.617 0,-1.542 -0.453,-2.269 -0.356,-0.586 -0.989,-0.992 -1.703,-0.992 -1.071,0 -2.121,0.73 -2.414,1.914 0.082,-0.031 0.179,-0.047 0.257,-0.047 0.278,0 0.715,0.16 0.715,0.711 0,0.453 -0.308,0.715 -0.715,0.715 -0.289,0 -0.711,-0.145 -0.711,-0.778 0,-1.379 1.102,-2.953 2.903,-2.953 1.832,0 3.433,1.543 3.433,3.602 0,1.929 -1.297,3.531 -2.996,3.531 -0.925,0 -1.636,-0.402 -2.058,-0.859 l 0,3.359 z"
         style="fill:#000000;fill-opacity:1;fill-rule:nonzero;stroke:none"
         id="path354" /><path
         d="m 382.215,94.141 c -0.403,1.148 -1.684,1.148 -1.895,1.148 -0.097,0 -0.277,0 -0.277,-0.16 0,-0.129 0.098,-0.149 0.18,-0.164 0.242,-0.031 0.437,-0.063 0.695,-0.535 0.164,-0.309 1.832,-5.153 1.832,-5.188 0,-0.015 -0.016,-0.031 -0.145,-0.16 l -4.214,-4.266 c -0.196,-0.195 -0.325,-0.324 -0.325,-0.535 0,-0.226 0.196,-0.422 0.454,-0.422 0.066,0 0.246,0.036 0.339,0.133 0.262,0.242 2.579,3.078 4.055,4.828 0.422,-1.261 0.941,-2.754 1.441,-4.117 0.083,-0.242 0.165,-0.469 0.391,-0.68 0.16,-0.144 0.195,-0.144 0.649,-0.144 l 0.308,0 c 0.063,0 0.176,0 0.176,0.129 0,0.062 -0.016,0.082 -0.078,0.144 -0.149,0.18 -0.262,0.469 -0.324,0.664 l -3.262,9.325 z"
         style="fill:#000000;fill-opacity:1;fill-rule:nonzero;stroke:none"
         id="path356" /><path
         d="m 401.914,89.293 c 0.227,0 0.516,0 0.516,0.289 0,0.309 -0.274,0.309 -0.516,0.309 l -9.551,0 c -0.226,0 -0.519,0 -0.519,-0.289 0,-0.309 0.277,-0.309 0.519,-0.309 l 9.551,0 z m 0,-3.016 c 0.227,0 0.516,0 0.516,0.289 0,0.309 -0.274,0.309 -0.516,0.309 l -9.551,0 c -0.226,0 -0.519,0 -0.519,-0.289 0,-0.309 0.277,-0.309 0.519,-0.309 l 9.551,0 z"
         style="fill:#000000;fill-opacity:1;fill-rule:nonzero;stroke:none"
         id="path358" /><path
         d="m 415.082,89.227 c 0,1.347 -0.082,2.66 -0.664,3.89 -0.664,1.348 -1.832,1.703 -2.629,1.703 -0.937,0 -2.09,-0.468 -2.687,-1.816 -0.457,-1.02 -0.618,-2.027 -0.618,-3.777 0,-1.571 0.114,-2.754 0.696,-3.907 0.632,-1.23 1.75,-1.621 2.593,-1.621 1.411,0 2.223,0.844 2.692,1.781 0.586,1.219 0.617,2.805 0.617,3.747 z m -3.309,-5.204 c -0.519,0 -1.57,0.293 -1.878,2.059 -0.18,0.973 -0.18,2.203 -0.18,3.34 0,1.328 0,2.527 0.262,3.484 0.273,1.086 1.101,1.59 1.796,1.59 0.618,0 1.559,-0.375 1.868,-1.769 0.207,-0.922 0.207,-2.204 0.207,-3.305 0,-1.086 0,-2.32 -0.176,-3.309 -0.309,-1.781 -1.328,-2.09 -1.899,-2.09 z"
         style="fill:#000000;fill-opacity:1;fill-rule:nonzero;stroke:none"
         id="path360" /><path
         d="m 418.738,84.816 c 0,0.473 -0.39,0.797 -0.777,0.797 -0.469,0 -0.793,-0.39 -0.793,-0.781 0,-0.469 0.387,-0.793 0.777,-0.793 0.469,0 0.793,0.391 0.793,0.777 z"
         style="fill:#000000;fill-opacity:1;fill-rule:nonzero;stroke:none"
         id="path362" /><path
         d="m 423.148,89.859 c -0.277,-0.015 -0.339,-0.031 -0.339,-0.179 0,-0.16 0.078,-0.16 0.371,-0.16 l 0.746,0 c 1.379,0 1.992,-1.137 1.992,-2.692 0,-2.125 -1.102,-2.691 -1.895,-2.691 -0.777,0 -2.109,0.371 -2.578,1.441 0.52,-0.078 0.989,0.211 0.989,0.797 0,0.469 -0.34,0.793 -0.793,0.793 -0.391,0 -0.813,-0.227 -0.813,-0.844 0,-1.441 1.445,-2.625 3.242,-2.625 1.93,0 3.356,1.477 3.356,3.113 0,1.493 -1.199,2.657 -2.754,2.934 1.41,0.406 2.316,1.59 2.316,2.852 0,1.281 -1.328,2.222 -2.898,2.222 -1.621,0 -2.824,-0.988 -2.824,-2.172 0,-0.648 0.504,-0.777 0.746,-0.777 0.34,0 0.73,0.242 0.73,0.727 0,0.519 -0.39,0.746 -0.746,0.746 -0.098,0 -0.129,0 -0.176,-0.016 0.614,1.102 2.137,1.102 2.219,1.102 0.535,0 1.59,-0.242 1.59,-1.832 0,-0.309 -0.051,-1.215 -0.52,-1.91 -0.488,-0.715 -1.039,-0.762 -1.476,-0.782 l -0.485,-0.047 z"
         style="fill:#000000;fill-opacity:1;fill-rule:nonzero;stroke:none"
         id="path364" /><path
         d="m 430.098,89.68 c 0,4.101 1.992,4.75 2.867,4.75 0.586,0 1.168,-0.176 1.476,-0.664 -0.195,0 -0.812,0 -0.812,-0.664 0,-0.356 0.246,-0.664 0.664,-0.664 0.406,0 0.684,0.242 0.684,0.71 0,0.844 -0.618,1.672 -2.028,1.672 -2.043,0 -4.183,-2.093 -4.183,-5.66 0,-4.457 1.945,-5.461 3.324,-5.461 1.765,0 3.273,1.539 3.273,3.649 0,2.156 -1.508,3.597 -3.129,3.597 -1.441,0 -1.976,-1.25 -2.136,-1.703 l 0,0.438 z m 1.992,-5.543 c -1.02,0 -1.508,0.906 -1.652,1.25 -0.149,0.418 -0.309,1.215 -0.309,2.347 0,1.282 0.582,2.887 2.043,2.887 0.89,0 1.359,-0.601 1.605,-1.152 0.258,-0.598 0.258,-1.41 0.258,-2.106 0,-0.828 0,-1.558 -0.308,-2.172 -0.407,-0.777 -0.989,-1.054 -1.637,-1.054 z"
         style="fill:#000000;fill-opacity:1;fill-rule:nonzero;stroke:none"
         id="path366" /><path
         d="m 88,16 0,192"
         style="fill:none;stroke:#f50505;stroke-opacity:0.991189;stroke-width:0.56;stroke-linecap:butt;stroke-linejoin:miter;stroke-miterlimit:4;stroke-dasharray:none"
         id="path368" /><path
         d="m 181.602,16.801 0,192"
         style="fill:none;stroke:#0515f5;stroke-opacity:1;stroke-width:0.56;stroke-linecap:butt;stroke-linejoin:miter;stroke-miterlimit:4;stroke-dasharray:3.36,0.56;stroke-dashoffset:0"
         id="path370" /><path
         d="m 275.277,16.316 0,192"
         style="fill:none;stroke:#ff6600;stroke-opacity:1;stroke-width:0.8;stroke-linecap:butt;stroke-linejoin:miter;stroke-miterlimit:4;stroke-dasharray:0.8,1.6;stroke-dashoffset:0"
         id="path372" /><text
         transform="matrix(1,0,0,-1,356.61926,12.911621)"
         id="text374"><tspan
           style="fill:#000000;fill-opacity:1;fill-rule:nonzero;stroke:none;font-family:TG Pagella Math;font-variant:normal;font-weight:normal;font-size:16;writing-mode:lr;-inkscape-font-specification:TGPagellaMath-Regular"
           x="0"
           y="0"
           id="tspan376">n</tspan></text>
<text
         transform="matrix(1,0,0,-1,21.640943,0.404837)"
         id="text378"><tspan
           style="fill:#000000;fill-opacity:1;fill-rule:nonzero;stroke:none;font-family:TeXGyrePagella;font-variant:normal;font-weight:normal;font-size:16;writing-mode:lr;-inkscape-font-specification:TeXGyrePagella-Regular"
           x="0 8 56 64 72 80 116 124 132 140 180 188 196 204 248 256 264 272 308 316 324 332"
           y="0"
           sodipodi:role="line"
           id="tspan380">0 200 400 600 800 1000</tspan></text>
</g></g></svg>