nsteps	time	x	y
62	30.0252	10	10
52	19.7017	10	0
50	19.3965	10	0
70	31.2381	10	0
20	8.67832	0	10
40	26.6758	0	10
92	26.9391	0	0
42	8.51339	10	0
86	37.2103	10	0
26	10.1634	10	10
24	5.92504	10	0
26	8.20649	0	10
60	20.7766	0	10
36	21.1589	10	0
36	9.07054	10	0
38	14.1425	10	10
32	11.6423	10	0
50	27.3638	10	0
44	16.5686	0	10
74	28.3012	10	10
30	9.09783	10	10
38	15.5745	10	0
44	11.7266	10	10
34	10.5934	10	10
48	24.1141	10	10
42	16.8962	10	0
12	3.48541	0	0
30	9.70068	0	10
112	30.4248	0	0
22	14.759	0	0
62	20.2023	10	10
36	14.723	10	0
42	8.83482	0	0
12	5.664	10	0
28	10.4204	10	0
36	11.5649	0	10
32	14.3972	0	0
138	50.4829	10	0
36	17.5373	0	0
60	16.9378	0	0
34	8.15408	0	0
42	16.9173	10	0
24	5.95855	0	10
52	17.5156	10	10
28	9.02041	10	0
50	15.5507	0	0
48	25.2364	10	10
44	21.2861	10	0
42	17.1036	0	0
38	16.3174	10	10
80	23.3518	10	10
74	27.4923	0	10
48	15.2863	0	10
46	20.9422	0	10
42	10.7857	0	10
58	14.3961	0	10
38	10.528	0	0
72	22.8731	0	10
50	22.0303	10	0
96	31.5638	0	10
62	32.0386	10	0
58	24.1094	0	10
68	21.772	10	10
106	28.0526	10	0
42	12.4224	10	0
26	7.94889	0	10
42	16.2945	0	10
56	30.1841	10	0
78	32.7295	0	10
88	25.7491	10	10
44	16.8576	10	0
38	10.6982	0	10
28	10.7614	0	0
20	7.0467	0	0
54	14.7705	10	10
48	21.4358	10	0
28	8.30413	0	10
46	18.7819	0	10
48	13.7085	10	10
68	25.5571	0	10
48	10.3839	10	10
34	8.65925	0	0
12	2.73403	0	0
42	7.54007	0	0
36	14.728	10	10
68	21.7115	10	10
38	19.2653	10	0
34	13.062	10	0
36	15.4372	10	0
76	20.297	10	0
104	29.584	0	0
26	8.73196	10	0
50	19.9466	10	10
26	10.4582	0	0
38	9.35235	0	0
52	24.4994	10	10
44	15.9092	0	0
30	11.4248	0	0
30	10.1941	0	10
34	10.2805	0	10
60	17.4246	10	0
134	45.6671	10	10
14	5.13476	10	10
26	7.5028	0	0
120	30.2501	0	0
30	8.46633	0	10
38	14.082	0	0
30	8.57094	0	10
90	33.1088	10	0
136	36.7987	0	0
158	33.8695	0	10
54	14.0809	0	0
18	7.24511	10	0
100	24.7598	0	10
24	8.57333	10	10
38	11.1968	0	0
38	16.3325	0	10
80	22.2547	10	0
38	19.8781	0	10
42	12.3671	0	10
40	11.4782	0	0
26	10.3729	10	0
36	11.2431	0	0
104	38.6475	10	10
52	19.4278	0	10
114	50.6216	0	0
24	7.03856	10	0
38	9.83013	10	0
28	10.7952	10	10
34	9.96168	10	10
50	14.3578	10	10
74	32.9023	0	10
28	7.71329	10	0
46	17.9462	10	10
32	9.89483	10	10
102	32.5907	0	0
110	36.4736	0	0
112	41.2272	10	10
46	16.9112	0	10
14	5.38979	10	0
68	21.0693	0	0
30	10.1459	0	0
76	30.916	0	10
68	27.9076	10	10
32	15.016	0	10
44	18.903	10	10
66	18.394	10	0
46	11.5062	0	0
56	19.1483	10	10
78	27.351	0	0
52	12.5082	0	0
84	21.7521	10	0
134	49.6066	10	0
44	11.1086	10	0
38	15.723	0	0
92	41.9928	0	0
18	6.86323	10	10
142	48.2391	0	0
38	12.3927	0	10
26	9.67715	0	0
136	44.3261	10	0
26	8.1203	10	10
70	24.2188	10	10
72	33.293	10	0
76	19.7474	0	0
68	22.8252	10	0
12	4.43898	10	10
56	17.6621	0	10
76	25.1759	10	0
18	5.10584	10	0
26	15.0672	10	10
76	32.7606	0	10
42	12.9142	10	10
56	27.4723	10	0
24	7.40523	0	0
52	13.3964	0	10
66	33.6305	0	0
34	9.75409	10	10
14	4.70809	0	10
40	14.1785	0	0
72	17.8165	0	0
34	17.8043	0	0
26	6.74157	0	0
26	9.57349	10	0
30	11.544	0	0
132	50.1092	0	10
44	20.3518	0	0
52	14.5528	10	10
36	12.8176	10	10
22	8.21876	10	0
96	29.0363	10	10
108	29.1754	10	0
58	21.4991	10	10
44	22.455	10	10
44	10.9095	0	0
22	7.5576	0	0
36	14.8206	0	0
80	24.8596	0	10
68	29.9731	0	10
48	17.989	10	10
