nsteps	time	x	y
20294	454.933	110	110
16714	363.452	110	0
7938	225.223	110	0
6332	145.64	0	0
156262	3369.69	0	0
2356	84.8463	110	0
8200	189.161	110	110
48166	1155.51	110	0
14018	321.317	110	110
24080	531.207	110	0
23274	520.587	110	110
49462	1108.45	0	0
10886	246.129	110	0
1954	68.0455	0	110
61536	1381.35	110	110
41930	942.566	0	110
8742	197.153	110	0
13392	304.202	110	110
15680	332.566	110	110
15862	376.233	110	0
7858	179.883	0	0
19280	432.192	110	0
39700	879.861	110	0
79612	1791.43	0	110
111428	2472.6	0	110
93176	2047.73	0	110
3688	96.1473	110	0
7398	174.614	110	110
18240	432.985	0	0
14552	317.333	0	110
61462	1409.25	0	110
8104	206.549	110	0
3360	92.9279	110	110
5276	147.152	110	110
54436	1171.04	0	110
20498	445.929	0	0
27496	605.755	0	110
22246	493.007	0	0
34078	705.614	110	110
22394	500.797	0	110
9846	263.595	0	110
10202	239.53	110	0
22438	514.89	0	110
23436	528.285	0	110
33066	780.336	0	0
16850	361.758	0	110
66508	1437.92	0	0
20714	494.785	110	110
23724	513.524	0	0
19656	424.528	0	110
27620	614.328	110	110
34264	751.795	0	0
2274	75.9048	110	0
35996	769.596	0	110
17026	394.512	0	110
25790	564.713	110	110
54796	1163.92	110	0
10850	284.187	0	0
62694	1386.49	110	110
4462	103.963	0	110
14768	335.176	0	0
11150	295.015	110	110
26652	639.064	0	110
54410	1229.46	110	110
85744	1908.81	0	0
56494	1232.12	110	0
12004	298.397	110	0
31618	732.625	110	0
2918	95.4141	0	110
22984	496.804	0	0
13782	318.704	0	110
17488	386.149	0	0
35396	793.17	0	0
80370	1824.32	110	110
8366	199.503	0	110
20200	468.994	0	0
8440	193.733	0	0
17486	422.13	0	110
36992	807.659	0	0
12994	295.972	110	0
31960	705.952	110	110
17802	447.807	0	110
30444	686.596	0	110
58050	1305.53	0	110
16530	355.262	110	110
19194	427.24	110	0
14402	323.99	110	110
6198	174.698	0	0
25372	558.431	110	0
9752	223.606	0	110
2890	94.8343	110	110
25298	552.819	0	0
21038	465.522	110	0
4874	130.402	110	110
53786	1109.92	0	110
16172	393.086	0	110
81676	1802.6	0	0
8800	190.304	110	110
4286	114.429	0	110
30332	675.223	0	0
17488	417.072	0	0
9318	207.191	0	110
6382	172.846	110	0
51496	1126.47	0	110
7140	193.245	110	110
23436	581.424	110	0
82202	1819.23	110	110
23936	567.056	0	0
18606	416.786	110	0
17590	392.886	110	0
2466	73.5936	0	0
25058	578.599	110	110
19396	453.043	110	110
38024	787.515	0	110
22388	514.675	0	110
8484	235.896	110	110
17372	391.444	0	0
93924	2116.12	110	0
61686	1310.36	0	0
15686	381.894	110	0
13518	317.394	0	0
16626	376.243	0	0
22618	516.574	0	0
1532	74.947	110	110
127472	2798.9	0	0
39390	937.337	110	0
32948	730.077	110	110
3376	104.823	0	0
13332	307.51	110	0
1826	67.9283	0	110
34594	749.764	110	0
38658	892.456	0	0
24068	571.273	0	110
23926	536.345	110	0
3584	101.465	110	110
8830	221.061	0	110
10474	261.284	0	110
15156	337.415	0	0
19956	451.622	110	110
19902	452.836	0	110
56780	1242.18	110	110
15284	355.749	110	0
52398	1087.68	0	110
56458	1236.4	110	0
10460	254.107	110	110
22276	497.101	0	110
10696	259.607	0	0
28996	638.344	110	110
6518	137.575	110	0
5528	146.797	0	110
91500	1943.13	110	110
3598	113.945	0	0
9178	210.889	110	110
4508	123.83	0	0
70006	1510.82	110	0
25872	619.148	110	0
4338	116.8	110	110
21944	473.944	110	110
30766	669.917	110	0
39284	932.431	0	0
3264	87.6615	110	110
5740	149.058	0	110
85494	1850.47	110	0
10584	246.482	110	0
31296	673.891	0	0
114502	2605.56	0	0
18880	386.798	110	0
3620	85.9691	110	110
22630	522.482	110	110
30234	666.925	110	110
11920	289.774	110	0
56404	1303.55	110	0
14632	332.116	0	0
2298	63.4594	110	110
65450	1538.86	0	110
9816	265.631	0	110
36728	809.049	0	110
16542	382.151	110	110
33628	761.974	0	110
18128	387.017	0	0
1812	50.2212	110	0
7114	171.279	0	110
27068	625.246	110	0
13708	293.823	0	0
7438	194.533	110	110
16138	419.047	0	0
12288	286.444	110	110
16554	367.423	110	0
38694	910.638	0	110
11182	238.376	110	110
15028	332.393	110	110
46610	1030.41	110	110
45294	974.264	110	0
3972	103.291	0	0
73562	1620.56	0	110
28266	612.564	110	110
7160	171.706	0	110
4664	120.94	110	0
46262	1098.8	110	0
68774	1540.09	0	0
